<?xml version="1.0" encoding="UTF-8"?>
<model ref="r:d09f230e-8c1c-4045-b0f4-975934720615(de.ppme.physunits.behavior)">
  <persistence version="9" />
  <languages>
    <use id="af65afd8-f0dd-4942-87d9-63a55f2a9db1" name="jetbrains.mps.lang.behavior" version="-1" />
    <devkit ref="fbc25dd2-5da4-483a-8b19-70928e1b62d7(jetbrains.mps.devkit.general-purpose)" />
  </languages>
  <imports>
    <import index="ote2" ref="r:505a4475-a865-4dba-9f1a-b7c0cce39ec5(de.ppme.physunits.structure)" />
    <import index="tpcu" ref="r:00000000-0000-4000-0000-011c89590282(jetbrains.mps.lang.core.behavior)" />
    <import index="bkkh" ref="r:0249b848-8a19-49ef-a019-de89bf2328cf(de.ppme.expressions.behavior)" />
    <import index="e2lb" ref="6354ebe7-c22a-4a0f-ac54-50b52ab9b065/f:java_stub#6354ebe7-c22a-4a0f-ac54-50b52ab9b065#java.lang(JDK/java.lang@java_stub)" />
    <import index="pfd6" ref="r:9e939139-f0d1-4eb5-9ac6-55348163d9b2(de.ppme.expressions.structure)" />
    <import index="tpck" ref="r:00000000-0000-4000-0000-011c89590288(jetbrains.mps.lang.core.structure)" implicit="true" />
  </imports>
  <registry>
    <language id="af65afd8-f0dd-4942-87d9-63a55f2a9db1" name="jetbrains.mps.lang.behavior">
      <concept id="6496299201655527393" name="jetbrains.mps.lang.behavior.structure.LocalBehaviorMethodCall" flags="nn" index="BsUDl" />
      <concept id="1225194240794" name="jetbrains.mps.lang.behavior.structure.ConceptBehavior" flags="ng" index="13h7C7">
        <reference id="1225194240799" name="concept" index="13h7C2" />
        <child id="1225194240805" name="method" index="13h7CS" />
        <child id="1225194240801" name="constructor" index="13h7CW" />
      </concept>
      <concept id="1225194413805" name="jetbrains.mps.lang.behavior.structure.ConceptConstructorDeclaration" flags="in" index="13hLZK" />
      <concept id="1225194472830" name="jetbrains.mps.lang.behavior.structure.ConceptMethodDeclaration" flags="ng" index="13i0hz">
        <property id="1225194472833" name="isPrivate" index="13i0is" />
        <property id="1225194472832" name="isVirtual" index="13i0it" />
        <property id="1225194472834" name="isAbstract" index="13i0iv" />
        <reference id="1225194472831" name="overriddenMethod" index="13i0hy" />
      </concept>
      <concept id="1225194691553" name="jetbrains.mps.lang.behavior.structure.ThisNodeExpression" flags="nn" index="13iPFW" />
    </language>
    <language id="f3061a53-9226-4cc5-a443-f952ceaf5816" name="jetbrains.mps.baseLanguage">
      <concept id="1215693861676" name="jetbrains.mps.baseLanguage.structure.BaseAssignmentExpression" flags="nn" index="d038R">
        <child id="1068498886297" name="rValue" index="37vLTx" />
        <child id="1068498886295" name="lValue" index="37vLTJ" />
      </concept>
      <concept id="4836112446988635817" name="jetbrains.mps.baseLanguage.structure.UndefinedType" flags="in" index="2jxLKc" />
      <concept id="1202948039474" name="jetbrains.mps.baseLanguage.structure.InstanceMethodCallOperation" flags="nn" index="liA8E" />
      <concept id="1154032098014" name="jetbrains.mps.baseLanguage.structure.AbstractLoopStatement" flags="nn" index="2LF5Ji">
        <child id="1154032183016" name="body" index="2LFqv$" />
      </concept>
      <concept id="1197027756228" name="jetbrains.mps.baseLanguage.structure.DotExpression" flags="nn" index="2OqwBi">
        <child id="1197027771414" name="operand" index="2Oq$k0" />
        <child id="1197027833540" name="operation" index="2OqNvi" />
      </concept>
      <concept id="1145552977093" name="jetbrains.mps.baseLanguage.structure.GenericNewExpression" flags="nn" index="2ShNRf">
        <child id="1145553007750" name="creator" index="2ShVmc" />
      </concept>
      <concept id="1137021947720" name="jetbrains.mps.baseLanguage.structure.ConceptFunction" flags="in" index="2VMwT0">
        <child id="1137022507850" name="body" index="2VODD2" />
      </concept>
      <concept id="1070475926800" name="jetbrains.mps.baseLanguage.structure.StringLiteral" flags="nn" index="Xl_RD">
        <property id="1070475926801" name="value" index="Xl_RC" />
      </concept>
      <concept id="1070534058343" name="jetbrains.mps.baseLanguage.structure.NullLiteral" flags="nn" index="10Nm6u" />
      <concept id="1070534370425" name="jetbrains.mps.baseLanguage.structure.IntegerType" flags="in" index="10Oyi0" />
      <concept id="1068431474542" name="jetbrains.mps.baseLanguage.structure.VariableDeclaration" flags="ng" index="33uBYm">
        <child id="1068431790190" name="initializer" index="33vP2m" />
      </concept>
      <concept id="1092119917967" name="jetbrains.mps.baseLanguage.structure.MulExpression" flags="nn" index="17qRlL" />
      <concept id="1068498886296" name="jetbrains.mps.baseLanguage.structure.VariableReference" flags="nn" index="37vLTw">
        <reference id="1068581517664" name="variableDeclaration" index="3cqZAo" />
      </concept>
      <concept id="1068498886292" name="jetbrains.mps.baseLanguage.structure.ParameterDeclaration" flags="ir" index="37vLTG" />
      <concept id="1068498886294" name="jetbrains.mps.baseLanguage.structure.AssignmentExpression" flags="nn" index="37vLTI" />
      <concept id="1225271177708" name="jetbrains.mps.baseLanguage.structure.StringType" flags="in" index="17QB3L" />
      <concept id="4972933694980447171" name="jetbrains.mps.baseLanguage.structure.BaseVariableDeclaration" flags="ng" index="19Szcq">
        <child id="5680397130376446158" name="type" index="1tU5fm" />
      </concept>
      <concept id="1068580123132" name="jetbrains.mps.baseLanguage.structure.BaseMethodDeclaration" flags="ng" index="3clF44">
        <child id="1068580123133" name="returnType" index="3clF45" />
        <child id="1068580123134" name="parameter" index="3clF46" />
        <child id="1068580123135" name="body" index="3clF47" />
      </concept>
      <concept id="1068580123152" name="jetbrains.mps.baseLanguage.structure.EqualsExpression" flags="nn" index="3clFbC" />
      <concept id="1068580123155" name="jetbrains.mps.baseLanguage.structure.ExpressionStatement" flags="nn" index="3clFbF">
        <child id="1068580123156" name="expression" index="3clFbG" />
      </concept>
      <concept id="1068580123157" name="jetbrains.mps.baseLanguage.structure.Statement" flags="nn" index="3clFbH" />
      <concept id="1068580123159" name="jetbrains.mps.baseLanguage.structure.IfStatement" flags="nn" index="3clFbJ">
        <child id="1068580123160" name="condition" index="3clFbw" />
        <child id="1068580123161" name="ifTrue" index="3clFbx" />
      </concept>
      <concept id="1068580123136" name="jetbrains.mps.baseLanguage.structure.StatementList" flags="sn" stub="5293379017992965193" index="3clFbS">
        <child id="1068581517665" name="statement" index="3cqZAp" />
      </concept>
      <concept id="1068580320020" name="jetbrains.mps.baseLanguage.structure.IntegerConstant" flags="nn" index="3cmrfG">
        <property id="1068580320021" name="value" index="3cmrfH" />
      </concept>
      <concept id="1068581242875" name="jetbrains.mps.baseLanguage.structure.PlusExpression" flags="nn" index="3cpWs3" />
      <concept id="1068581242878" name="jetbrains.mps.baseLanguage.structure.ReturnStatement" flags="nn" index="3cpWs6">
        <child id="1068581517676" name="expression" index="3cqZAk" />
      </concept>
      <concept id="1068581242864" name="jetbrains.mps.baseLanguage.structure.LocalVariableDeclarationStatement" flags="nn" index="3cpWs8">
        <child id="1068581242865" name="localVariableDeclaration" index="3cpWs9" />
      </concept>
      <concept id="1068581242863" name="jetbrains.mps.baseLanguage.structure.LocalVariableDeclaration" flags="nr" index="3cpWsn" />
      <concept id="1079359253375" name="jetbrains.mps.baseLanguage.structure.ParenthesizedExpression" flags="nn" index="1eOMI4">
        <child id="1079359253376" name="expression" index="1eOMHV" />
      </concept>
      <concept id="1204053956946" name="jetbrains.mps.baseLanguage.structure.IMethodCall" flags="ng" index="1ndlxa">
        <reference id="1068499141037" name="baseMethodDeclaration" index="37wK5l" />
        <child id="1068499141038" name="actualArgument" index="37wK5m" />
      </concept>
      <concept id="1212685548494" name="jetbrains.mps.baseLanguage.structure.ClassCreator" flags="nn" index="1pGfFk" />
      <concept id="1107535904670" name="jetbrains.mps.baseLanguage.structure.ClassifierType" flags="in" index="3uibUv">
        <reference id="1107535924139" name="classifier" index="3uigEE" />
      </concept>
      <concept id="1081773326031" name="jetbrains.mps.baseLanguage.structure.BinaryOperation" flags="nn" index="3uHJSO">
        <child id="1081773367579" name="rightExpression" index="3uHU7w" />
        <child id="1081773367580" name="leftExpression" index="3uHU7B" />
      </concept>
      <concept id="1073239437375" name="jetbrains.mps.baseLanguage.structure.NotEqualsExpression" flags="nn" index="3y3z36" />
      <concept id="1178549954367" name="jetbrains.mps.baseLanguage.structure.IVisible" flags="ng" index="1B3ioH">
        <child id="1178549979242" name="visibility" index="1B3o_S" />
      </concept>
      <concept id="1144226303539" name="jetbrains.mps.baseLanguage.structure.ForeachStatement" flags="nn" index="1DcWWT">
        <child id="1144226360166" name="iterable" index="1DdaDG" />
      </concept>
      <concept id="1144230876926" name="jetbrains.mps.baseLanguage.structure.AbstractForStatement" flags="nn" index="1DupvO">
        <child id="1144230900587" name="variable" index="1Duv9x" />
      </concept>
      <concept id="1163668896201" name="jetbrains.mps.baseLanguage.structure.TernaryOperatorExpression" flags="nn" index="3K4zz7">
        <child id="1163668914799" name="condition" index="3K4Cdx" />
        <child id="1163668922816" name="ifTrue" index="3K4E3e" />
        <child id="1163668934364" name="ifFalse" index="3K4GZi" />
      </concept>
      <concept id="1146644602865" name="jetbrains.mps.baseLanguage.structure.PublicVisibility" flags="nn" index="3Tm1VV" />
    </language>
    <language id="fd392034-7849-419d-9071-12563d152375" name="jetbrains.mps.baseLanguage.closures">
      <concept id="1199569711397" name="jetbrains.mps.baseLanguage.closures.structure.ClosureLiteral" flags="nn" index="1bVj0M">
        <child id="1199569906740" name="parameter" index="1bW2Oz" />
        <child id="1199569916463" name="body" index="1bW5cS" />
      </concept>
    </language>
    <language id="3a13115c-633c-4c5c-bbcc-75c4219e9555" name="jetbrains.mps.lang.quotation">
      <concept id="5455284157994012186" name="jetbrains.mps.lang.quotation.structure.NodeBuilderInitLink" flags="ng" index="2pIpSj">
        <reference id="5455284157994012188" name="link" index="2pIpSl" />
      </concept>
      <concept id="5455284157993911077" name="jetbrains.mps.lang.quotation.structure.NodeBuilderInitProperty" flags="ng" index="2pJxcG">
        <reference id="5455284157993911078" name="property" index="2pJxcJ" />
      </concept>
      <concept id="5455284157993911097" name="jetbrains.mps.lang.quotation.structure.NodeBuilderInitPart" flags="ng" index="2pJxcK">
        <child id="5455284157993911094" name="expression" index="2pJxcZ" />
      </concept>
      <concept id="5455284157993863837" name="jetbrains.mps.lang.quotation.structure.NodeBuilder" flags="nn" index="2pJPEk">
        <child id="5455284157993863838" name="quotedNode" index="2pJPEn" />
      </concept>
      <concept id="5455284157993863840" name="jetbrains.mps.lang.quotation.structure.NodeBuilderNode" flags="nn" index="2pJPED">
        <reference id="5455284157993910961" name="concept" index="2pJxaS" />
        <child id="5455284157993911099" name="values" index="2pJxcM" />
      </concept>
      <concept id="8182547171709752110" name="jetbrains.mps.lang.quotation.structure.NodeBuilderExpression" flags="nn" index="36biLy">
        <child id="8182547171709752112" name="expression" index="36biLW" />
      </concept>
    </language>
    <language id="7866978e-a0f0-4cc7-81bc-4d213d9375e1" name="jetbrains.mps.lang.smodel">
      <concept id="1177026924588" name="jetbrains.mps.lang.smodel.structure.RefConcept_Reference" flags="nn" index="chp4Y">
        <reference id="1177026940964" name="conceptDeclaration" index="cht4Q" />
      </concept>
      <concept id="1179409122411" name="jetbrains.mps.lang.smodel.structure.Node_ConceptMethodCall" flags="nn" index="2qgKlT" />
      <concept id="1145383075378" name="jetbrains.mps.lang.smodel.structure.SNodeListType" flags="in" index="2I9FWS">
        <reference id="1145383142433" name="elementConcept" index="2I9WkF" />
      </concept>
      <concept id="1145567426890" name="jetbrains.mps.lang.smodel.structure.SNodeListCreator" flags="nn" index="2T8Vx0">
        <child id="1145567471833" name="createdType" index="2T96Bj" />
      </concept>
      <concept id="1139621453865" name="jetbrains.mps.lang.smodel.structure.Node_IsInstanceOfOperation" flags="nn" index="1mIQ4w">
        <child id="1177027386292" name="conceptArgument" index="cj9EA" />
      </concept>
      <concept id="1172008320231" name="jetbrains.mps.lang.smodel.structure.Node_IsNotNullOperation" flags="nn" index="3x8VRR" />
      <concept id="1144146199828" name="jetbrains.mps.lang.smodel.structure.Node_CopyOperation" flags="nn" index="1$rogu" />
      <concept id="1138055754698" name="jetbrains.mps.lang.smodel.structure.SNodeType" flags="in" index="3Tqbb2">
        <reference id="1138405853777" name="concept" index="ehGHo" />
      </concept>
      <concept id="1138056022639" name="jetbrains.mps.lang.smodel.structure.SPropertyAccess" flags="nn" index="3TrcHB">
        <reference id="1138056395725" name="property" index="3TsBF5" />
      </concept>
      <concept id="1138056143562" name="jetbrains.mps.lang.smodel.structure.SLinkAccess" flags="nn" index="3TrEf2">
        <reference id="1138056516764" name="link" index="3Tt5mk" />
      </concept>
      <concept id="1138056282393" name="jetbrains.mps.lang.smodel.structure.SLinkListAccess" flags="nn" index="3Tsc0h">
        <reference id="1138056546658" name="link" index="3TtcxE" />
      </concept>
    </language>
    <language id="ceab5195-25ea-4f22-9b92-103b95ca8c0c" name="jetbrains.mps.lang.core">
      <concept id="1133920641626" name="jetbrains.mps.lang.core.structure.BaseConcept" flags="ng" index="2VYdi">
        <property id="1193676396447" name="virtualPackage" index="3GE5qa" />
      </concept>
      <concept id="1169194658468" name="jetbrains.mps.lang.core.structure.INamedConcept" flags="ng" index="TrEIO">
        <property id="1169194664001" name="name" index="TrG5h" />
      </concept>
    </language>
    <language id="83888646-71ce-4f1c-9c53-c54016f6ad4f" name="jetbrains.mps.baseLanguage.collections">
      <concept id="1204796164442" name="jetbrains.mps.baseLanguage.collections.structure.InternalSequenceOperation" flags="nn" index="23sCx2">
        <child id="1204796294226" name="closure" index="23t8la" />
      </concept>
      <concept id="540871147943773365" name="jetbrains.mps.baseLanguage.collections.structure.SingleArgumentSequenceOperation" flags="nn" index="25WWJ4">
        <child id="540871147943773366" name="argument" index="25WWJ7" />
      </concept>
      <concept id="1203518072036" name="jetbrains.mps.baseLanguage.collections.structure.SmartClosureParameterDeclaration" flags="ig" index="Rh6nW" />
      <concept id="1160612413312" name="jetbrains.mps.baseLanguage.collections.structure.AddElementOperation" flags="nn" index="TSZUe" />
      <concept id="1225727723840" name="jetbrains.mps.baseLanguage.collections.structure.FindFirstOperation" flags="nn" index="1z4cxt" />
    </language>
  </registry>
  <node concept="13h7C7" id="298HrzlAYAD">
    <property role="3GE5qa" value="units" />
    <ref role="13h7C2" to="ote2:298HrzlAXFM" resolve="PhysicalUnitRef" />
    <node concept="13i0hz" id="298HrzlAYAM" role="13h7CS">
      <property role="TrG5h" value="getExponent" />
      <node concept="3Tm1VV" id="298HrzlAYAN" role="1B3o_S" />
      <node concept="3clFbS" id="298HrzlAYAO" role="3clF47">
        <node concept="3cpWs6" id="298HrzlAZOW" role="3cqZAp">
          <node concept="3K4zz7" id="298HrzlAZOX" role="3cqZAk">
            <node concept="2OqwBi" id="298HrzlAZOY" role="3K4E3e">
              <node concept="2OqwBi" id="298HrzlAZOZ" role="2Oq$k0">
                <node concept="13iPFW" id="298HrzlAZP0" role="2Oq$k0" />
                <node concept="3TrEf2" id="298HrzlAZP1" role="2OqNvi">
                  <ref role="3Tt5mk" to="ote2:298HrzlAXFT" />
                </node>
              </node>
              <node concept="3TrcHB" id="298HrzlAZP2" role="2OqNvi">
                <ref role="3TsBF5" to="ote2:298Hrzl_fu0" resolve="value" />
              </node>
            </node>
            <node concept="3cmrfG" id="298HrzlAZP3" role="3K4GZi">
              <property role="3cmrfH" value="1" />
            </node>
            <node concept="2OqwBi" id="298HrzlAZP4" role="3K4Cdx">
              <node concept="2OqwBi" id="298HrzlAZP5" role="2Oq$k0">
                <node concept="13iPFW" id="298HrzlAZP6" role="2Oq$k0" />
                <node concept="3TrEf2" id="298HrzlAZP7" role="2OqNvi">
                  <ref role="3Tt5mk" to="ote2:298HrzlAXFT" />
                </node>
              </node>
              <node concept="3x8VRR" id="298HrzlAZP8" role="2OqNvi" />
            </node>
          </node>
        </node>
      </node>
      <node concept="10Oyi0" id="298HrzlAYDh" role="3clF45" />
    </node>
    <node concept="13i0hz" id="298HrzlAZYF" role="13h7CS">
      <property role="13i0is" value="false" />
      <property role="TrG5h" value="getPresentation" />
      <property role="13i0it" value="false" />
      <property role="13i0iv" value="false" />
      <ref role="13i0hy" to="tpcu:hEwIMiw" resolve="getPresentation" />
      <node concept="3Tm1VV" id="298HrzlAZZN" role="1B3o_S" />
      <node concept="3clFbS" id="298HrzlB022" role="3clF47">
        <node concept="3clFbF" id="298HrzlB05h" role="3cqZAp">
          <node concept="3cpWs3" id="298HrzlB0HV" role="3clFbG">
            <node concept="1eOMI4" id="298HrzlB0Iz" role="3uHU7w">
              <node concept="3K4zz7" id="298HrzlB1qW" role="1eOMHV">
                <node concept="3cpWs3" id="298HrzlB1zQ" role="3K4E3e">
                  <node concept="BsUDl" id="298HrzlB1_s" role="3uHU7w">
                    <ref role="37wK5l" node="298HrzlAYAM" resolve="getExponent" />
                  </node>
                  <node concept="Xl_RD" id="298HrzlB1sz" role="3uHU7B">
                    <property role="Xl_RC" value="^" />
                  </node>
                </node>
                <node concept="Xl_RD" id="298HrzlB1Ca" role="3K4GZi">
                  <property role="Xl_RC" value="" />
                </node>
                <node concept="3y3z36" id="298HrzlB14l" role="3K4Cdx">
                  <node concept="3cmrfG" id="298HrzlB18a" role="3uHU7w">
                    <property role="3cmrfH" value="1" />
                  </node>
                  <node concept="BsUDl" id="298HrzlB0LD" role="3uHU7B">
                    <ref role="37wK5l" node="298HrzlAYAM" resolve="getExponent" />
                  </node>
                </node>
              </node>
            </node>
            <node concept="2OqwBi" id="298HrzlB0n7" role="3uHU7B">
              <node concept="2OqwBi" id="298HrzlB06F" role="2Oq$k0">
                <node concept="13iPFW" id="298HrzlB05c" role="2Oq$k0" />
                <node concept="3TrEf2" id="298HrzlB0e5" role="2OqNvi">
                  <ref role="3Tt5mk" to="ote2:298HrzlAXFV" />
                </node>
              </node>
              <node concept="3TrcHB" id="298HrzlB0vZ" role="2OqNvi">
                <ref role="3TsBF5" to="tpck:h0TrG11" resolve="name" />
              </node>
            </node>
          </node>
        </node>
      </node>
      <node concept="17QB3L" id="298HrzlB023" role="3clF45" />
    </node>
    <node concept="13hLZK" id="298HrzlAYAE" role="13h7CW">
      <node concept="3clFbS" id="298HrzlAYAF" role="2VODD2" />
    </node>
  </node>
  <node concept="13h7C7" id="298HrzlB1Uy">
    <property role="3GE5qa" value="units" />
    <ref role="13h7C2" to="ote2:298HrzlAXFD" resolve="PhysicalUnitSpecification" />
    <node concept="13hLZK" id="298HrzlB1Uz" role="13h7CW">
      <node concept="3clFbS" id="298HrzlB1U$" role="2VODD2" />
    </node>
    <node concept="13i0hz" id="298HrzlB1UF" role="13h7CS">
      <property role="13i0is" value="false" />
      <property role="TrG5h" value="getPresentation" />
      <property role="13i0it" value="false" />
      <property role="13i0iv" value="false" />
      <ref role="13i0hy" to="tpcu:hEwIMiw" resolve="getPresentation" />
      <node concept="3Tm1VV" id="298HrzlB1VN" role="1B3o_S" />
      <node concept="3clFbS" id="298HrzlB1VO" role="3clF47">
        <node concept="3cpWs8" id="298HrzlB1X7" role="3cqZAp">
          <node concept="3cpWsn" id="298HrzlB1X8" role="3cpWs9">
            <property role="TrG5h" value="sb" />
            <node concept="3uibUv" id="298HrzlB1X9" role="1tU5fm">
              <ref role="3uigEE" to="e2lb:~StringBuffer" resolve="StringBuffer" />
            </node>
            <node concept="2ShNRf" id="298HrzlB1Xt" role="33vP2m">
              <node concept="1pGfFk" id="298HrzlB3Vo" role="2ShVmc">
                <ref role="37wK5l" to="e2lb:~StringBuffer.&lt;init&gt;()" resolve="StringBuffer" />
              </node>
            </node>
          </node>
        </node>
        <node concept="3cpWs8" id="298HrzlB3VK" role="3cqZAp">
          <node concept="3cpWsn" id="298HrzlB3VN" role="3cpWs9">
            <property role="TrG5h" value="sep" />
            <node concept="17QB3L" id="298HrzlB3VI" role="1tU5fm" />
            <node concept="Xl_RD" id="298HrzlB3Wf" role="33vP2m">
              <property role="Xl_RC" value="" />
            </node>
          </node>
        </node>
        <node concept="1DcWWT" id="298HrzlB3W$" role="3cqZAp">
          <node concept="3clFbS" id="298HrzlB3WA" role="2LFqv$">
            <node concept="3clFbF" id="298HrzlB5by" role="3cqZAp">
              <node concept="2OqwBi" id="298HrzlB6Gr" role="3clFbG">
                <node concept="2OqwBi" id="298HrzlB5XJ" role="2Oq$k0">
                  <node concept="37vLTw" id="298HrzlB5bw" role="2Oq$k0">
                    <ref role="3cqZAo" node="298HrzlB1X8" resolve="sb" />
                  </node>
                  <node concept="liA8E" id="298HrzlB6ro" role="2OqNvi">
                    <ref role="37wK5l" to="e2lb:~StringBuffer.append(java.lang.String):java.lang.StringBuffer" resolve="append" />
                    <node concept="37vLTw" id="298HrzlB6rU" role="37wK5m">
                      <ref role="3cqZAo" node="298HrzlB3VN" resolve="sep" />
                    </node>
                  </node>
                </node>
                <node concept="liA8E" id="298HrzlB73Q" role="2OqNvi">
                  <ref role="37wK5l" to="e2lb:~StringBuffer.append(java.lang.Object):java.lang.StringBuffer" resolve="append" />
                  <node concept="2OqwBi" id="298HrzlB7a$" role="37wK5m">
                    <node concept="37vLTw" id="298HrzlB75s" role="2Oq$k0">
                      <ref role="3cqZAo" node="298HrzlB3WB" resolve="cmp" />
                    </node>
                    <node concept="2qgKlT" id="298HrzlB7r6" role="2OqNvi">
                      <ref role="37wK5l" to="tpcu:hEwIMiw" resolve="getPresentation" />
                    </node>
                  </node>
                </node>
              </node>
            </node>
            <node concept="3clFbF" id="298HrzlB7vU" role="3cqZAp">
              <node concept="37vLTI" id="298HrzlB7J$" role="3clFbG">
                <node concept="Xl_RD" id="298HrzlB7JK" role="37vLTx">
                  <property role="Xl_RC" value="\u22C5" />
                </node>
                <node concept="37vLTw" id="298HrzlB7vS" role="37vLTJ">
                  <ref role="3cqZAo" node="298HrzlB3VN" resolve="sep" />
                </node>
              </node>
            </node>
          </node>
          <node concept="3cpWsn" id="298HrzlB3WB" role="1Duv9x">
            <property role="TrG5h" value="cmp" />
            <node concept="3Tqbb2" id="298HrzlB430" role="1tU5fm" />
          </node>
          <node concept="2OqwBi" id="298HrzlB4oU" role="1DdaDG">
            <node concept="13iPFW" id="298HrzlB4lH" role="2Oq$k0" />
            <node concept="3Tsc0h" id="298HrzlB4Da" role="2OqNvi">
              <ref role="3TtcxE" to="ote2:298HrzlB1H4" />
            </node>
          </node>
        </node>
        <node concept="3cpWs6" id="298HrzlB9rP" role="3cqZAp">
          <node concept="2OqwBi" id="298HrzlB9rQ" role="3cqZAk">
            <node concept="37vLTw" id="298HrzlB9rR" role="2Oq$k0">
              <ref role="3cqZAo" node="298HrzlB1X8" resolve="sb" />
            </node>
            <node concept="liA8E" id="298HrzlB9rS" role="2OqNvi">
              <ref role="37wK5l" to="e2lb:~StringBuffer.toString():java.lang.String" resolve="toString" />
            </node>
          </node>
        </node>
      </node>
      <node concept="17QB3L" id="298HrzlB1VP" role="3clF45" />
    </node>
  </node>
  <node concept="13h7C7" id="298HrzlF8Qi">
    <property role="3GE5qa" value="annotations" />
    <ref role="13h7C2" to="ote2:298HrzlCobB" resolve="AnnotatedType" />
    <node concept="13hLZK" id="298HrzlF8Qj" role="13h7CW">
      <node concept="3clFbS" id="298HrzlF8Qk" role="2VODD2" />
    </node>
    <node concept="13i0hz" id="298HrzlF8RM" role="13h7CS">
      <property role="13i0is" value="false" />
      <property role="TrG5h" value="getPresentation" />
      <property role="13i0it" value="false" />
      <property role="13i0iv" value="false" />
      <ref role="13i0hy" to="tpcu:hEwIMiw" resolve="getPresentation" />
      <node concept="3Tm1VV" id="298HrzlF8SU" role="1B3o_S" />
      <node concept="3clFbS" id="298HrzlF8SV" role="3clF47">
        <node concept="3cpWs8" id="298HrzlF8UD" role="3cqZAp">
          <node concept="3cpWsn" id="298HrzlF8UE" role="3cpWs9">
            <property role="TrG5h" value="sb" />
            <node concept="3uibUv" id="298HrzlF8UF" role="1tU5fm">
              <ref role="3uigEE" to="e2lb:~StringBuilder" resolve="StringBuilder" />
            </node>
            <node concept="2ShNRf" id="298HrzlF8UX" role="33vP2m">
              <node concept="1pGfFk" id="298HrzlF8Y5" role="2ShVmc">
                <ref role="37wK5l" to="e2lb:~StringBuilder.&lt;init&gt;()" resolve="StringBuilder" />
              </node>
            </node>
          </node>
        </node>
        <node concept="3clFbF" id="298HrzlF8Yt" role="3cqZAp">
          <node concept="2OqwBi" id="298HrzlFepH" role="3clFbG">
            <node concept="2OqwBi" id="298HrzlFd3y" role="2Oq$k0">
              <node concept="2OqwBi" id="298HrzlFbxU" role="2Oq$k0">
                <node concept="2OqwBi" id="298HrzlFag1" role="2Oq$k0">
                  <node concept="2OqwBi" id="298HrzlF92N" role="2Oq$k0">
                    <node concept="37vLTw" id="298HrzlF8Yr" role="2Oq$k0">
                      <ref role="3cqZAo" node="298HrzlF8UE" resolve="sb" />
                    </node>
                    <node concept="liA8E" id="298HrzlF9hL" role="2OqNvi">
                      <ref role="37wK5l" to="e2lb:~StringBuilder.append(java.lang.String):java.lang.StringBuilder" resolve="append" />
                      <node concept="2OqwBi" id="298HrzlF9Nd" role="37wK5m">
                        <node concept="2OqwBi" id="298HrzlF9n2" role="2Oq$k0">
                          <node concept="13iPFW" id="298HrzlF9jp" role="2Oq$k0" />
                          <node concept="3TrEf2" id="298HrzlF9$l" role="2OqNvi">
                            <ref role="3Tt5mk" to="ote2:298HrzlF7GJ" />
                          </node>
                        </node>
                        <node concept="2qgKlT" id="298HrzlFa8c" role="2OqNvi">
                          <ref role="37wK5l" to="tpcu:hEwIMiw" resolve="getPresentation" />
                        </node>
                      </node>
                    </node>
                  </node>
                  <node concept="liA8E" id="298HrzlFbeW" role="2OqNvi">
                    <ref role="37wK5l" to="e2lb:~StringBuilder.append(java.lang.String):java.lang.StringBuilder" resolve="append" />
                    <node concept="Xl_RD" id="298HrzlFbj8" role="37wK5m">
                      <property role="Xl_RC" value="{" />
                    </node>
                  </node>
                </node>
                <node concept="liA8E" id="298HrzlFbYa" role="2OqNvi">
                  <ref role="37wK5l" to="e2lb:~StringBuilder.append(java.lang.String):java.lang.StringBuilder" resolve="append" />
                  <node concept="2OqwBi" id="298HrzlFcC0" role="37wK5m">
                    <node concept="2OqwBi" id="298HrzlFc5Z" role="2Oq$k0">
                      <node concept="13iPFW" id="298HrzlFc1A" role="2Oq$k0" />
                      <node concept="3TrEf2" id="298HrzlFcj1" role="2OqNvi">
                        <ref role="3Tt5mk" to="ote2:298HrzlCojK" />
                      </node>
                    </node>
                    <node concept="2qgKlT" id="298HrzlFcUa" role="2OqNvi">
                      <ref role="37wK5l" to="tpcu:hEwIMiw" resolve="getPresentation" />
                    </node>
                  </node>
                </node>
              </node>
              <node concept="liA8E" id="298HrzlFdZf" role="2OqNvi">
                <ref role="37wK5l" to="e2lb:~StringBuilder.append(java.lang.String):java.lang.StringBuilder" resolve="append" />
                <node concept="Xl_RD" id="298HrzlFe7G" role="37wK5m">
                  <property role="Xl_RC" value="}" />
                </node>
              </node>
            </node>
            <node concept="liA8E" id="298HrzlFf09" role="2OqNvi">
              <ref role="37wK5l" to="e2lb:~StringBuilder.toString():java.lang.String" resolve="toString" />
            </node>
          </node>
        </node>
        <node concept="3clFbF" id="298HrzlFfRv" role="3cqZAp">
          <node concept="2OqwBi" id="298HrzlFg03" role="3clFbG">
            <node concept="37vLTw" id="298HrzlFfRt" role="2Oq$k0">
              <ref role="3cqZAo" node="298HrzlF8UE" resolve="sb" />
            </node>
            <node concept="liA8E" id="298HrzlFggG" role="2OqNvi">
              <ref role="37wK5l" to="e2lb:~StringBuilder.toString():java.lang.String" resolve="toString" />
            </node>
          </node>
        </node>
      </node>
      <node concept="17QB3L" id="298HrzlF8SW" role="3clF45" />
    </node>
  </node>
  <node concept="13h7C7" id="298HrzlFYJM">
    <property role="3GE5qa" value="annotations" />
    <ref role="13h7C2" to="ote2:298HrzlDAuk" resolve="AnnotatedExpression" />
    <node concept="13hLZK" id="298HrzlFYJN" role="13h7CW">
      <node concept="3clFbS" id="298HrzlFYJO" role="2VODD2" />
    </node>
  </node>
  <node concept="13h7C7" id="2Xgo$egFt1C">
    <ref role="13h7C2" to="ote2:2Xgo$egFsG5" resolve="InferredSubstitution" />
    <node concept="13hLZK" id="2Xgo$egFt1D" role="13h7CW">
      <node concept="3clFbS" id="2Xgo$egFt1E" role="2VODD2" />
    </node>
    <node concept="13i0hz" id="2Xgo$egFt1F" role="13h7CS">
      <property role="13i0is" value="false" />
      <property role="TrG5h" value="getPresentation" />
      <property role="13i0it" value="false" />
      <property role="13i0iv" value="false" />
      <ref role="13i0hy" to="tpcu:hEwIMiw" resolve="getPresentation" />
      <node concept="3Tm1VV" id="2Xgo$egFt2N" role="1B3o_S" />
      <node concept="3clFbS" id="2Xgo$egFt52" role="3clF47">
        <node concept="3cpWs6" id="2Xgo$egFt8z" role="3cqZAp">
          <node concept="3cpWs3" id="2Xgo$egFur4" role="3cqZAk">
            <node concept="2OqwBi" id="2Xgo$egFv2T" role="3uHU7w">
              <node concept="2OqwBi" id="2Xgo$egFuzf" role="2Oq$k0">
                <node concept="13iPFW" id="2Xgo$egFuvh" role="2Oq$k0" />
                <node concept="3TrEf2" id="2Xgo$egFuPs" role="2OqNvi">
                  <ref role="3Tt5mk" to="ote2:2Xgo$egFsVa" />
                </node>
              </node>
              <node concept="2qgKlT" id="2Xgo$egFvk8" role="2OqNvi">
                <ref role="37wK5l" to="tpcu:hEwIMiw" resolve="getPresentation" />
              </node>
            </node>
            <node concept="3cpWs3" id="2Xgo$egFtTc" role="3uHU7B">
              <node concept="2OqwBi" id="2Xgo$egFts6" role="3uHU7B">
                <node concept="2OqwBi" id="2Xgo$egFtai" role="2Oq$k0">
                  <node concept="13iPFW" id="2Xgo$egFt8O" role="2Oq$k0" />
                  <node concept="3TrEf2" id="2Xgo$egFthK" role="2OqNvi">
                    <ref role="3Tt5mk" to="ote2:2Xgo$egFsVc" />
                  </node>
                </node>
                <node concept="3TrcHB" id="2Xgo$egFtBw" role="2OqNvi">
                  <ref role="3TsBF5" to="tpck:h0TrG11" resolve="name" />
                </node>
              </node>
              <node concept="Xl_RD" id="2Xgo$egFtTf" role="3uHU7w">
                <property role="Xl_RC" value="\u22a2" />
              </node>
            </node>
          </node>
        </node>
      </node>
      <node concept="17QB3L" id="2Xgo$egFt53" role="3clF45" />
    </node>
  </node>
  <node concept="13h7C7" id="2Xgo$egGbOX">
    <ref role="13h7C2" to="ote2:2Xgo$egFvsi" resolve="InferredAttribute" />
    <node concept="13i0hz" id="2Xgo$egGgW9" role="13h7CS">
      <property role="TrG5h" value="substitute" />
      <node concept="3Tm1VV" id="2Xgo$egGgWa" role="1B3o_S" />
      <node concept="3clFbS" id="2Xgo$egGgWb" role="3clF47">
        <node concept="3cpWs8" id="2Xgo$egGhyt" role="3cqZAp">
          <node concept="3cpWsn" id="2Xgo$egGhyw" role="3cpWs9">
            <property role="TrG5h" value="result" />
            <node concept="2I9FWS" id="2Xgo$egGhys" role="1tU5fm">
              <ref role="2I9WkF" to="ote2:298HrzlAXFM" resolve="PhysicalUnitRef" />
            </node>
            <node concept="2ShNRf" id="2Xgo$egGhGr" role="33vP2m">
              <node concept="2T8Vx0" id="2Xgo$egGhGp" role="2ShVmc">
                <node concept="2I9FWS" id="2Xgo$egGhGq" role="2T96Bj">
                  <ref role="2I9WkF" to="ote2:298HrzlAXFM" resolve="PhysicalUnitRef" />
                </node>
              </node>
            </node>
          </node>
        </node>
        <node concept="3cpWs8" id="2Xgo$egGhIc" role="3cqZAp">
          <node concept="3cpWsn" id="2Xgo$egGhIi" role="3cpWs9">
            <property role="TrG5h" value="decl" />
            <node concept="3Tqbb2" id="2Xgo$egGhJ5" role="1tU5fm">
              <ref role="ehGHo" to="ote2:298Hrzl_3BW" resolve="IPhysicalUnit" />
            </node>
            <node concept="2OqwBi" id="2Xgo$egGhL0" role="33vP2m">
              <node concept="37vLTw" id="2Xgo$egGhJx" role="2Oq$k0">
                <ref role="3cqZAo" node="2Xgo$egGhyg" resolve="ref" />
              </node>
              <node concept="3TrEf2" id="2Xgo$egGhS8" role="2OqNvi">
                <ref role="3Tt5mk" to="ote2:298HrzlAXFV" />
              </node>
            </node>
          </node>
        </node>
        <node concept="3clFbH" id="2Xgo$egGhHO" role="3cqZAp" />
        <node concept="3clFbJ" id="2Xgo$egGhTF" role="3cqZAp">
          <node concept="3clFbS" id="2Xgo$egGhTH" role="3clFbx">
            <node concept="3cpWs8" id="2Xgo$egGi5A" role="3cqZAp">
              <node concept="3cpWsn" id="2Xgo$egGi5G" role="3cpWs9">
                <property role="TrG5h" value="subs" />
                <node concept="3Tqbb2" id="2Xgo$egGi5R" role="1tU5fm">
                  <ref role="ehGHo" to="ote2:2Xgo$egFsG5" resolve="InferredSubstitution" />
                </node>
                <node concept="2OqwBi" id="2Xgo$egGjIM" role="33vP2m">
                  <node concept="2OqwBi" id="2Xgo$egGi9t" role="2Oq$k0">
                    <node concept="13iPFW" id="2Xgo$egGi77" role="2Oq$k0" />
                    <node concept="3Tsc0h" id="2Xgo$egGiYu" role="2OqNvi">
                      <ref role="3TtcxE" to="ote2:2Xgo$egFvsn" />
                    </node>
                  </node>
                  <node concept="1z4cxt" id="2Xgo$egGm0F" role="2OqNvi">
                    <node concept="1bVj0M" id="2Xgo$egGm0H" role="23t8la">
                      <node concept="3clFbS" id="2Xgo$egGm0I" role="1bW5cS">
                        <node concept="3clFbF" id="2Xgo$egGm3o" role="3cqZAp">
                          <node concept="3clFbC" id="2Xgo$egGmAV" role="3clFbG">
                            <node concept="37vLTw" id="2Xgo$egGmCT" role="3uHU7w">
                              <ref role="3cqZAo" node="2Xgo$egGhIi" resolve="decl" />
                            </node>
                            <node concept="2OqwBi" id="2Xgo$egGm6l" role="3uHU7B">
                              <node concept="37vLTw" id="2Xgo$egGm3n" role="2Oq$k0">
                                <ref role="3cqZAo" node="2Xgo$egGm0J" resolve="it" />
                              </node>
                              <node concept="3TrEf2" id="2Xgo$egGmpb" role="2OqNvi">
                                <ref role="3Tt5mk" to="ote2:2Xgo$egFsVc" />
                              </node>
                            </node>
                          </node>
                        </node>
                      </node>
                      <node concept="Rh6nW" id="2Xgo$egGm0J" role="1bW2Oz">
                        <property role="TrG5h" value="it" />
                        <node concept="2jxLKc" id="2Xgo$egGm0K" role="1tU5fm" />
                      </node>
                    </node>
                  </node>
                </node>
              </node>
            </node>
            <node concept="3clFbJ" id="2Xgo$egGmHO" role="3cqZAp">
              <node concept="3clFbS" id="2Xgo$egGmHQ" role="3clFbx">
                <node concept="1DcWWT" id="2Xgo$egGn2b" role="3cqZAp">
                  <node concept="3clFbS" id="2Xgo$egGn2d" role="2LFqv$">
                    <node concept="3cpWs8" id="2Xgo$egGo$u" role="3cqZAp">
                      <node concept="3cpWsn" id="2Xgo$egGo$x" role="3cpWs9">
                        <property role="TrG5h" value="exp" />
                        <node concept="10Oyi0" id="2Xgo$egGo$s" role="1tU5fm" />
                        <node concept="17qRlL" id="2Xgo$egGp4R" role="33vP2m">
                          <node concept="2OqwBi" id="2Xgo$egGp8C" role="3uHU7w">
                            <node concept="37vLTw" id="2Xgo$egGp68" role="2Oq$k0">
                              <ref role="3cqZAo" node="2Xgo$egGn2e" resolve="cmp" />
                            </node>
                            <node concept="2qgKlT" id="2Xgo$egGppF" role="2OqNvi">
                              <ref role="37wK5l" node="298HrzlAYAM" resolve="getExponent" />
                            </node>
                          </node>
                          <node concept="2OqwBi" id="2Xgo$egGoAH" role="3uHU7B">
                            <node concept="37vLTw" id="2Xgo$egGo$Z" role="2Oq$k0">
                              <ref role="3cqZAo" node="2Xgo$egGhyg" resolve="ref" />
                            </node>
                            <node concept="2qgKlT" id="2Xgo$egGoO_" role="2OqNvi">
                              <ref role="37wK5l" node="298HrzlAYAM" resolve="getExponent" />
                            </node>
                          </node>
                        </node>
                      </node>
                    </node>
                    <node concept="3clFbF" id="2Xgo$egGpu4" role="3cqZAp">
                      <node concept="2OqwBi" id="2Xgo$egGpVS" role="3clFbG">
                        <node concept="37vLTw" id="2Xgo$egGpu2" role="2Oq$k0">
                          <ref role="3cqZAo" node="2Xgo$egGhyw" resolve="result" />
                        </node>
                        <node concept="TSZUe" id="2Xgo$egGt2n" role="2OqNvi">
                          <node concept="3K4zz7" id="2Xgo$egGu0i" role="25WWJ7">
                            <node concept="2pJPEk" id="2Xgo$egGu5x" role="3K4E3e">
                              <node concept="2pJPED" id="2Xgo$egGuaF" role="2pJPEn">
                                <ref role="2pJxaS" to="ote2:298HrzlAXFM" resolve="PhysicalUnitRef" />
                                <node concept="2pIpSj" id="2Xgo$egGuaT" role="2pJxcM">
                                  <ref role="2pIpSl" to="ote2:298HrzlAXFV" />
                                  <node concept="36biLy" id="2Xgo$egGubb" role="2pJxcZ">
                                    <node concept="2OqwBi" id="2Xgo$egGucP" role="36biLW">
                                      <node concept="37vLTw" id="2Xgo$egGubo" role="2Oq$k0">
                                        <ref role="3cqZAo" node="2Xgo$egGn2e" resolve="cmp" />
                                      </node>
                                      <node concept="3TrEf2" id="2Xgo$egGujV" role="2OqNvi">
                                        <ref role="3Tt5mk" to="ote2:298HrzlAXFV" />
                                      </node>
                                    </node>
                                  </node>
                                </node>
                                <node concept="2pIpSj" id="2Xgo$egGunp" role="2pJxcM">
                                  <ref role="2pIpSl" to="ote2:298HrzlAXFT" />
                                  <node concept="2pJPED" id="2Xgo$egGuok" role="2pJxcZ">
                                    <ref role="2pJxaS" to="ote2:298Hrzl_feV" resolve="Exponent" />
                                    <node concept="2pJxcG" id="2Xgo$egGuou" role="2pJxcM">
                                      <ref role="2pJxcJ" to="ote2:298Hrzl_fu0" resolve="value" />
                                      <node concept="37vLTw" id="2Xgo$egGuoE" role="2pJxcZ">
                                        <ref role="3cqZAo" node="2Xgo$egGo$x" resolve="exp" />
                                      </node>
                                    </node>
                                  </node>
                                </node>
                              </node>
                            </node>
                            <node concept="2pJPEk" id="2Xgo$egGuoP" role="3K4GZi">
                              <node concept="2pJPED" id="2Xgo$egGuwb" role="2pJPEn">
                                <ref role="2pJxaS" to="ote2:298HrzlAXFM" resolve="PhysicalUnitRef" />
                                <node concept="2pIpSj" id="2Xgo$egGu_S" role="2pJxcM">
                                  <ref role="2pIpSl" to="ote2:298HrzlAXFV" />
                                  <node concept="36biLy" id="2Xgo$egGuFF" role="2pJxcZ">
                                    <node concept="2OqwBi" id="2Xgo$egGuHm" role="36biLW">
                                      <node concept="37vLTw" id="2Xgo$egGuFT" role="2Oq$k0">
                                        <ref role="3cqZAo" node="2Xgo$egGn2e" resolve="cmp" />
                                      </node>
                                      <node concept="3TrEf2" id="2Xgo$egGuQQ" role="2OqNvi">
                                        <ref role="3Tt5mk" to="ote2:298HrzlAXFV" />
                                      </node>
                                    </node>
                                  </node>
                                </node>
                                <node concept="2pIpSj" id="2Xgo$egGuXv" role="2pJxcM">
                                  <ref role="2pIpSl" to="ote2:298HrzlAXFT" />
                                  <node concept="10Nm6u" id="2Xgo$egGv3$" role="2pJxcZ" />
                                </node>
                              </node>
                            </node>
                            <node concept="3y3z36" id="2Xgo$egGtyt" role="3K4Cdx">
                              <node concept="3cmrfG" id="2Xgo$egGtE2" role="3uHU7w">
                                <property role="3cmrfH" value="1" />
                              </node>
                              <node concept="37vLTw" id="2Xgo$egGt7d" role="3uHU7B">
                                <ref role="3cqZAo" node="2Xgo$egGo$x" resolve="exp" />
                              </node>
                            </node>
                          </node>
                        </node>
                      </node>
                    </node>
                  </node>
                  <node concept="3cpWsn" id="2Xgo$egGn2e" role="1Duv9x">
                    <property role="TrG5h" value="cmp" />
                    <node concept="3Tqbb2" id="2Xgo$egGnaX" role="1tU5fm">
                      <ref role="ehGHo" to="ote2:298HrzlAXFM" resolve="PhysicalUnitRef" />
                    </node>
                  </node>
                  <node concept="2OqwBi" id="2Xgo$egGnLT" role="1DdaDG">
                    <node concept="2OqwBi" id="2Xgo$egGnv1" role="2Oq$k0">
                      <node concept="37vLTw" id="2Xgo$egGnrO" role="2Oq$k0">
                        <ref role="3cqZAo" node="2Xgo$egGi5G" resolve="subs" />
                      </node>
                      <node concept="3TrEf2" id="2Xgo$egGnBR" role="2OqNvi">
                        <ref role="3Tt5mk" to="ote2:2Xgo$egFsVa" />
                      </node>
                    </node>
                    <node concept="3Tsc0h" id="2Xgo$egGo1Z" role="2OqNvi">
                      <ref role="3TtcxE" to="ote2:298HrzlB1H4" />
                    </node>
                  </node>
                </node>
                <node concept="3cpWs6" id="2Xgo$egGvPc" role="3cqZAp">
                  <node concept="37vLTw" id="2Xgo$egGxfs" role="3cqZAk">
                    <ref role="3cqZAo" node="2Xgo$egGhyw" resolve="result" />
                  </node>
                </node>
              </node>
              <node concept="2OqwBi" id="2Xgo$egGmMX" role="3clFbw">
                <node concept="37vLTw" id="2Xgo$egGmJR" role="2Oq$k0">
                  <ref role="3cqZAo" node="2Xgo$egGi5G" resolve="subs" />
                </node>
                <node concept="3x8VRR" id="2Xgo$egGmVO" role="2OqNvi" />
              </node>
            </node>
          </node>
          <node concept="2OqwBi" id="2Xgo$egGhWe" role="3clFbw">
            <node concept="37vLTw" id="2Xgo$egGhUu" role="2Oq$k0">
              <ref role="3cqZAo" node="2Xgo$egGhIi" resolve="decl" />
            </node>
            <node concept="1mIQ4w" id="2Xgo$egGi4H" role="2OqNvi">
              <node concept="chp4Y" id="2Xgo$egGi52" role="cj9EA">
                <ref role="cht4Q" to="ote2:2Xgo$egBfw$" resolve="MetaPhysicalUnit" />
              </node>
            </node>
          </node>
        </node>
        <node concept="3clFbF" id="2Xgo$egGyG0" role="3cqZAp">
          <node concept="2OqwBi" id="2Xgo$egGzMk" role="3clFbG">
            <node concept="37vLTw" id="2Xgo$egGyFY" role="2Oq$k0">
              <ref role="3cqZAo" node="2Xgo$egGhyw" resolve="result" />
            </node>
            <node concept="TSZUe" id="2Xgo$egGB4g" role="2OqNvi">
              <node concept="2OqwBi" id="2Xgo$egGBhl" role="25WWJ7">
                <node concept="37vLTw" id="2Xgo$egGBai" role="2Oq$k0">
                  <ref role="3cqZAo" node="2Xgo$egGhyg" resolve="ref" />
                </node>
                <node concept="1$rogu" id="2Xgo$egGBuk" role="2OqNvi" />
              </node>
            </node>
          </node>
        </node>
        <node concept="3clFbH" id="2Xgo$egGhGC" role="3cqZAp" />
        <node concept="3cpWs6" id="2Xgo$egGhH1" role="3cqZAp">
          <node concept="37vLTw" id="2Xgo$egGhHq" role="3cqZAk">
            <ref role="3cqZAo" node="2Xgo$egGhyw" resolve="result" />
          </node>
        </node>
      </node>
      <node concept="2I9FWS" id="2Xgo$egGhyc" role="3clF45">
        <ref role="2I9WkF" to="ote2:298HrzlAXFM" resolve="PhysicalUnitRef" />
      </node>
      <node concept="37vLTG" id="2Xgo$egGhyg" role="3clF46">
        <property role="TrG5h" value="ref" />
        <node concept="3Tqbb2" id="2Xgo$egGhyf" role="1tU5fm">
          <ref role="ehGHo" to="ote2:298HrzlAXFM" resolve="PhysicalUnitRef" />
        </node>
      </node>
    </node>
    <node concept="13hLZK" id="2Xgo$egGbOY" role="13h7CW">
      <node concept="3clFbS" id="2Xgo$egGbOZ" role="2VODD2" />
    </node>
    <node concept="13i0hz" id="2Xgo$egGbP0" role="13h7CS">
      <property role="13i0is" value="false" />
      <property role="TrG5h" value="getPresentation" />
      <property role="13i0it" value="false" />
      <property role="13i0iv" value="false" />
      <ref role="13i0hy" to="tpcu:hEwIMiw" resolve="getPresentation" />
      <node concept="3Tm1VV" id="2Xgo$egGbQ8" role="1B3o_S" />
      <node concept="3clFbS" id="2Xgo$egGbQ9" role="3clF47">
        <node concept="3cpWs8" id="2Xgo$egGbRK" role="3cqZAp">
          <node concept="3cpWsn" id="2Xgo$egGbRL" role="3cpWs9">
            <property role="TrG5h" value="sb" />
            <node concept="3uibUv" id="2Xgo$egGbRM" role="1tU5fm">
              <ref role="3uigEE" to="e2lb:~StringBuilder" resolve="StringBuilder" />
            </node>
            <node concept="2ShNRf" id="2Xgo$egGbS6" role="33vP2m">
              <node concept="1pGfFk" id="2Xgo$egGbY7" role="2ShVmc">
                <ref role="37wK5l" to="e2lb:~StringBuilder.&lt;init&gt;(java.lang.String)" resolve="StringBuilder" />
                <node concept="Xl_RD" id="2Xgo$egGcH0" role="37wK5m">
                  <property role="Xl_RC" value="[" />
                </node>
              </node>
            </node>
          </node>
        </node>
        <node concept="3cpWs8" id="2Xgo$egGe2Y" role="3cqZAp">
          <node concept="3cpWsn" id="2Xgo$egGe31" role="3cpWs9">
            <property role="TrG5h" value="sep" />
            <node concept="17QB3L" id="2Xgo$egGe2W" role="1tU5fm" />
            <node concept="Xl_RD" id="2Xgo$egGe4Q" role="33vP2m">
              <property role="Xl_RC" value="" />
            </node>
          </node>
        </node>
        <node concept="1DcWWT" id="2Xgo$egGe6s" role="3cqZAp">
          <node concept="3clFbS" id="2Xgo$egGe6u" role="2LFqv$">
            <node concept="3clFbF" id="2Xgo$egGfs9" role="3cqZAp">
              <node concept="2OqwBi" id="2Xgo$egGfTJ" role="3clFbG">
                <node concept="2OqwBi" id="2Xgo$egGfvn" role="2Oq$k0">
                  <node concept="37vLTw" id="2Xgo$egGfs7" role="2Oq$k0">
                    <ref role="3cqZAo" node="2Xgo$egGbRL" resolve="sb" />
                  </node>
                  <node concept="liA8E" id="2Xgo$egGfLB" role="2OqNvi">
                    <ref role="37wK5l" to="e2lb:~StringBuilder.append(java.lang.String):java.lang.StringBuilder" resolve="append" />
                    <node concept="37vLTw" id="2Xgo$egGfMm" role="37wK5m">
                      <ref role="3cqZAo" node="2Xgo$egGe31" resolve="sep" />
                    </node>
                  </node>
                </node>
                <node concept="liA8E" id="2Xgo$egGgis" role="2OqNvi">
                  <ref role="37wK5l" to="e2lb:~StringBuilder.append(java.lang.String):java.lang.StringBuilder" resolve="append" />
                  <node concept="2OqwBi" id="2Xgo$egGgmp" role="37wK5m">
                    <node concept="37vLTw" id="2Xgo$egGgkq" role="2Oq$k0">
                      <ref role="3cqZAo" node="2Xgo$egGe6v" resolve="sub" />
                    </node>
                    <node concept="2qgKlT" id="2Xgo$egGgAd" role="2OqNvi">
                      <ref role="37wK5l" to="tpcu:hEwIMiw" resolve="getPresentation" />
                    </node>
                  </node>
                </node>
              </node>
            </node>
            <node concept="3clFbF" id="2Xgo$egGgHb" role="3cqZAp">
              <node concept="37vLTI" id="2Xgo$egGgPe" role="3clFbG">
                <node concept="Xl_RD" id="2Xgo$egGgP_" role="37vLTx">
                  <property role="Xl_RC" value=", " />
                </node>
                <node concept="37vLTw" id="2Xgo$egGgH9" role="37vLTJ">
                  <ref role="3cqZAo" node="2Xgo$egGe31" resolve="sep" />
                </node>
              </node>
            </node>
          </node>
          <node concept="3cpWsn" id="2Xgo$egGe6v" role="1Duv9x">
            <property role="TrG5h" value="sub" />
            <node concept="3Tqbb2" id="2Xgo$egGedY" role="1tU5fm">
              <ref role="ehGHo" to="ote2:2Xgo$egFsG5" resolve="InferredSubstitution" />
            </node>
          </node>
          <node concept="2OqwBi" id="2Xgo$egGe$B" role="1DdaDG">
            <node concept="13iPFW" id="2Xgo$egGevg" role="2Oq$k0" />
            <node concept="3Tsc0h" id="2Xgo$egGeWv" role="2OqNvi">
              <ref role="3TtcxE" to="ote2:2Xgo$egFvsn" />
            </node>
          </node>
        </node>
        <node concept="3clFbF" id="2Xgo$egGd86" role="3cqZAp">
          <node concept="2OqwBi" id="2Xgo$egGdCB" role="3clFbG">
            <node concept="2OqwBi" id="2Xgo$egGdcx" role="2Oq$k0">
              <node concept="37vLTw" id="2Xgo$egGd84" role="2Oq$k0">
                <ref role="3cqZAo" node="2Xgo$egGbRL" resolve="sb" />
              </node>
              <node concept="liA8E" id="2Xgo$egGdrJ" role="2OqNvi">
                <ref role="37wK5l" to="e2lb:~StringBuilder.append(java.lang.String):java.lang.StringBuilder" resolve="append" />
                <node concept="Xl_RD" id="2Xgo$egGdtp" role="37wK5m">
                  <property role="Xl_RC" value="]" />
                </node>
              </node>
            </node>
            <node concept="liA8E" id="2Xgo$egGe0m" role="2OqNvi">
              <ref role="37wK5l" to="e2lb:~StringBuilder.toString():java.lang.String" resolve="toString" />
            </node>
          </node>
        </node>
      </node>
      <node concept="17QB3L" id="2Xgo$egGbQa" role="3clF45" />
    </node>
  </node>
</model>

