<?xml version="1.0" encoding="UTF-8"?>
<model ref="r:7dc8c502-6a99-482a-8ad5-6eef1be15a3f(de.ppme.physunits.editor)">
  <persistence version="9" />
  <languages>
    <use id="18bc6592-03a6-4e29-a83a-7ff23bde13ba" name="jetbrains.mps.lang.editor" version="-1" />
    <devkit ref="fbc25dd2-5da4-483a-8b19-70928e1b62d7(jetbrains.mps.devkit.general-purpose)" />
  </languages>
  <imports>
    <import index="eqcn" ref="r:84ce93e4-8a21-447c-8911-c0a4415308db(de.ppme.base.editor)" />
    <import index="tpck" ref="r:00000000-0000-4000-0000-011c89590288(jetbrains.mps.lang.core.structure)" implicit="true" />
    <import index="tpco" ref="r:00000000-0000-4000-0000-011c89590284(jetbrains.mps.lang.core.editor)" implicit="true" />
    <import index="ote2" ref="r:505a4475-a865-4dba-9f1a-b7c0cce39ec5(de.ppme.physunits.structure)" implicit="true" />
  </imports>
  <registry>
    <language id="18bc6592-03a6-4e29-a83a-7ff23bde13ba" name="jetbrains.mps.lang.editor">
      <concept id="1402906326895675325" name="jetbrains.mps.lang.editor.structure.CellActionMap_FunctionParm_selectedNode" flags="nn" index="0IXxy" />
      <concept id="1071666914219" name="jetbrains.mps.lang.editor.structure.ConceptEditorDeclaration" flags="ig" index="24kQdi" />
      <concept id="1140524381322" name="jetbrains.mps.lang.editor.structure.CellModel_ListWithRole" flags="ng" index="2czfm3">
        <property id="1140524450557" name="separatorText" index="2czwfO" />
        <child id="1140524464360" name="cellLayout" index="2czzBx" />
        <child id="1233141163694" name="separatorStyle" index="sWeuL" />
      </concept>
      <concept id="1106270549637" name="jetbrains.mps.lang.editor.structure.CellLayout_Horizontal" flags="nn" index="2iRfu4" />
      <concept id="1106270571710" name="jetbrains.mps.lang.editor.structure.CellLayout_Vertical" flags="nn" index="2iRkQZ" />
      <concept id="1237303669825" name="jetbrains.mps.lang.editor.structure.CellLayout_Indent" flags="nn" index="l2Vlx" />
      <concept id="1142886221719" name="jetbrains.mps.lang.editor.structure.QueryFunction_NodeCondition" flags="in" index="pkWqt" />
      <concept id="1142886811589" name="jetbrains.mps.lang.editor.structure.ConceptFunctionParameter_node" flags="nn" index="pncrf" />
      <concept id="1886960078078641793" name="jetbrains.mps.lang.editor.structure.CellLayout_Superscript" flags="nn" index="2t5PaK" />
      <concept id="1233148810477" name="jetbrains.mps.lang.editor.structure.InlineStyleDeclaration" flags="ng" index="tppnM" />
      <concept id="1080736578640" name="jetbrains.mps.lang.editor.structure.BaseEditorComponent" flags="ig" index="2wURMF">
        <child id="1080736633877" name="cellModel" index="2wV5jI" />
      </concept>
      <concept id="1078939183254" name="jetbrains.mps.lang.editor.structure.CellModel_Component" flags="sg" stub="3162947552742194261" index="PMmxH">
        <reference id="1078939183255" name="editorComponent" index="PMmxG" />
      </concept>
      <concept id="1149850725784" name="jetbrains.mps.lang.editor.structure.CellModel_AttributedNodeCell" flags="ng" index="2SsqMj" />
      <concept id="1186403694788" name="jetbrains.mps.lang.editor.structure.ColorStyleClassItem" flags="ln" index="VaVBg">
        <property id="1186403713874" name="color" index="Vb096" />
      </concept>
      <concept id="1186404549998" name="jetbrains.mps.lang.editor.structure.ForegroundColorStyleClassItem" flags="ln" index="VechU" />
      <concept id="1186414536763" name="jetbrains.mps.lang.editor.structure.BooleanStyleSheetItem" flags="ln" index="VOi$J">
        <property id="1186414551515" name="flag" index="VOm3f" />
      </concept>
      <concept id="1186414928363" name="jetbrains.mps.lang.editor.structure.SelectableStyleSheetItem" flags="ln" index="VPM3Z" />
      <concept id="1186415722038" name="jetbrains.mps.lang.editor.structure.FontSizeStyleClassItem" flags="ln" index="VSNWy">
        <property id="1221209241505" name="value" index="1lJzqX" />
      </concept>
      <concept id="1233758997495" name="jetbrains.mps.lang.editor.structure.PunctuationLeftStyleClassItem" flags="ln" index="11L4FC" />
      <concept id="1233759184865" name="jetbrains.mps.lang.editor.structure.PunctuationRightStyleClassItem" flags="ln" index="11LMrY" />
      <concept id="1139535219966" name="jetbrains.mps.lang.editor.structure.CellActionMapDeclaration" flags="ig" index="1h_SRR">
        <reference id="1139535219968" name="applicableConcept" index="1h_SK9" />
        <child id="1139535219969" name="item" index="1h_SK8" />
      </concept>
      <concept id="1139535280617" name="jetbrains.mps.lang.editor.structure.CellActionMapItem" flags="lg" index="1hA7zw">
        <property id="1139535298778" name="actionId" index="1hAc7j" />
        <child id="1139535280620" name="executeFunction" index="1hA7z_" />
      </concept>
      <concept id="1139535439104" name="jetbrains.mps.lang.editor.structure.CellActionMap_ExecuteFunction" flags="in" index="1hAIg9" />
      <concept id="1088013125922" name="jetbrains.mps.lang.editor.structure.CellModel_RefCell" flags="sg" stub="730538219795941030" index="1iCGBv">
        <child id="1088186146602" name="editorComponent" index="1sWHZn" />
      </concept>
      <concept id="1381004262292414836" name="jetbrains.mps.lang.editor.structure.ICellStyle" flags="ng" index="1k5N5V">
        <reference id="1381004262292426837" name="parentStyleClass" index="1k5W1q" />
      </concept>
      <concept id="1088185857835" name="jetbrains.mps.lang.editor.structure.InlineEditorComponent" flags="ig" index="1sVBvm" />
      <concept id="1139848536355" name="jetbrains.mps.lang.editor.structure.CellModel_WithRole" flags="ng" index="1$h60E">
        <property id="1140017977771" name="readOnly" index="1Intyy" />
        <reference id="1140103550593" name="relationDeclaration" index="1NtTu8" />
      </concept>
      <concept id="1073389214265" name="jetbrains.mps.lang.editor.structure.EditorCellModel" flags="ng" index="3EYTF0">
        <reference id="1139959269582" name="actionMap" index="1ERwB7" />
        <child id="1142887637401" name="renderingCondition" index="pqm2j" />
      </concept>
      <concept id="1073389446423" name="jetbrains.mps.lang.editor.structure.CellModel_Collection" flags="sn" stub="3013115976261988961" index="3EZMnI">
        <child id="1106270802874" name="cellLayout" index="2iSdaV" />
        <child id="1073389446424" name="childCellModel" index="3EZMnx" />
      </concept>
      <concept id="1073389577006" name="jetbrains.mps.lang.editor.structure.CellModel_Constant" flags="sn" stub="3610246225209162225" index="3F0ifn">
        <property id="1073389577007" name="text" index="3F0ifm" />
      </concept>
      <concept id="1073389658414" name="jetbrains.mps.lang.editor.structure.CellModel_Property" flags="sg" stub="730538219796134133" index="3F0A7n" />
      <concept id="1219418625346" name="jetbrains.mps.lang.editor.structure.IStyleContainer" flags="ng" index="3F0Thp">
        <child id="1219418656006" name="styleItem" index="3F10Kt" />
      </concept>
      <concept id="1073389882823" name="jetbrains.mps.lang.editor.structure.CellModel_RefNode" flags="sg" stub="730538219795960754" index="3F1sOY" />
      <concept id="1073390211982" name="jetbrains.mps.lang.editor.structure.CellModel_RefNodeList" flags="sg" stub="2794558372793454595" index="3F2HdR" />
      <concept id="1166049232041" name="jetbrains.mps.lang.editor.structure.AbstractComponent" flags="ng" index="1XWOmA">
        <reference id="1166049300910" name="conceptDeclaration" index="1XX52x" />
      </concept>
    </language>
    <language id="f3061a53-9226-4cc5-a443-f952ceaf5816" name="jetbrains.mps.baseLanguage">
      <concept id="1197027756228" name="jetbrains.mps.baseLanguage.structure.DotExpression" flags="nn" index="2OqwBi">
        <child id="1197027771414" name="operand" index="2Oq$k0" />
        <child id="1197027833540" name="operation" index="2OqNvi" />
      </concept>
      <concept id="1137021947720" name="jetbrains.mps.baseLanguage.structure.ConceptFunction" flags="in" index="2VMwT0">
        <child id="1137022507850" name="body" index="2VODD2" />
      </concept>
      <concept id="1068580123155" name="jetbrains.mps.baseLanguage.structure.ExpressionStatement" flags="nn" index="3clFbF">
        <child id="1068580123156" name="expression" index="3clFbG" />
      </concept>
      <concept id="1068580123136" name="jetbrains.mps.baseLanguage.structure.StatementList" flags="sn" stub="5293379017992965193" index="3clFbS">
        <child id="1068581517665" name="statement" index="3cqZAp" />
      </concept>
    </language>
    <language id="7866978e-a0f0-4cc7-81bc-4d213d9375e1" name="jetbrains.mps.lang.smodel">
      <concept id="1172008320231" name="jetbrains.mps.lang.smodel.structure.Node_IsNotNullOperation" flags="nn" index="3x8VRR" />
      <concept id="1144146199828" name="jetbrains.mps.lang.smodel.structure.Node_CopyOperation" flags="nn" index="1$rogu" />
      <concept id="1140131837776" name="jetbrains.mps.lang.smodel.structure.Node_ReplaceWithAnotherOperation" flags="nn" index="1P9Npp">
        <child id="1140131861877" name="replacementNode" index="1P9ThW" />
      </concept>
      <concept id="1138056143562" name="jetbrains.mps.lang.smodel.structure.SLinkAccess" flags="nn" index="3TrEf2">
        <reference id="1138056516764" name="link" index="3Tt5mk" />
      </concept>
    </language>
    <language id="ceab5195-25ea-4f22-9b92-103b95ca8c0c" name="jetbrains.mps.lang.core">
      <concept id="1133920641626" name="jetbrains.mps.lang.core.structure.BaseConcept" flags="ng" index="2VYdi">
        <property id="1193676396447" name="virtualPackage" index="3GE5qa" />
      </concept>
      <concept id="1169194658468" name="jetbrains.mps.lang.core.structure.INamedConcept" flags="ng" index="TrEIO">
        <property id="1169194664001" name="name" index="TrG5h" />
      </concept>
    </language>
  </registry>
  <node concept="24kQdi" id="298Hrzl_fub">
    <property role="3GE5qa" value="units" />
    <ref role="1XX52x" to="ote2:298Hrzl_feV" resolve="Exponent" />
    <node concept="3EZMnI" id="298HrzlBI91" role="2wV5jI">
      <node concept="2iRkQZ" id="298HrzlBI92" role="2iSdaV" />
      <node concept="3F0A7n" id="298Hrzl_hNE" role="3EZMnx">
        <ref role="1NtTu8" to="ote2:298Hrzl_fu0" resolve="value" />
        <node concept="VSNWy" id="298HrzlBIbs" role="3F10Kt">
          <property role="1lJzqX" value="9" />
        </node>
      </node>
      <node concept="VPM3Z" id="298HrzlBIaA" role="3F10Kt">
        <property role="VOm3f" value="false" />
      </node>
    </node>
  </node>
  <node concept="24kQdi" id="298HrzlAXGf">
    <property role="3GE5qa" value="units" />
    <ref role="1XX52x" to="ote2:298HrzlAXFM" resolve="PhysicalUnitRef" />
    <node concept="3EZMnI" id="298HrzlAXGn" role="2wV5jI">
      <node concept="3EZMnI" id="298HrzlAXId" role="3EZMnx">
        <node concept="2t5PaK" id="298HrzlAXIo" role="2iSdaV" />
        <node concept="1iCGBv" id="298HrzlAXGx" role="3EZMnx">
          <ref role="1NtTu8" to="ote2:298HrzlAXFV" />
          <node concept="1sVBvm" id="298HrzlAXGz" role="1sWHZn">
            <node concept="3F0A7n" id="298HrzlAXGH" role="2wV5jI">
              <property role="1Intyy" value="true" />
              <ref role="1NtTu8" to="tpck:h0TrG11" resolve="name" />
            </node>
          </node>
        </node>
        <node concept="3F1sOY" id="298HrzlAXGV" role="3EZMnx">
          <ref role="1NtTu8" to="ote2:298HrzlAXFT" />
          <node concept="pkWqt" id="298HrzlAXIC" role="pqm2j">
            <node concept="3clFbS" id="298HrzlAXID" role="2VODD2">
              <node concept="3clFbF" id="298HrzlAXRF" role="3cqZAp">
                <node concept="2OqwBi" id="298HrzlAYi_" role="3clFbG">
                  <node concept="2OqwBi" id="298HrzlAXVD" role="2Oq$k0">
                    <node concept="pncrf" id="298HrzlAXRE" role="2Oq$k0" />
                    <node concept="3TrEf2" id="298HrzlAY6w" role="2OqNvi">
                      <ref role="3Tt5mk" to="ote2:298HrzlAXFT" />
                    </node>
                  </node>
                  <node concept="3x8VRR" id="298HrzlAYwf" role="2OqNvi" />
                </node>
              </node>
            </node>
          </node>
        </node>
      </node>
      <node concept="l2Vlx" id="298HrzlAXGq" role="2iSdaV" />
    </node>
  </node>
  <node concept="24kQdi" id="298HrzlB1Ho">
    <property role="3GE5qa" value="units" />
    <ref role="1XX52x" to="ote2:298HrzlAXFD" resolve="PhysicalUnitSpecification" />
    <node concept="3EZMnI" id="298HrzlB1Hw" role="2wV5jI">
      <node concept="3F2HdR" id="298HrzlB1HB" role="3EZMnx">
        <property role="2czwfO" value="\u22C5" />
        <ref role="1NtTu8" to="ote2:298HrzlB1H4" />
        <node concept="l2Vlx" id="298HrzlB1HE" role="2czzBx" />
        <node concept="tppnM" id="298HrzlB1N6" role="sWeuL">
          <ref role="1k5W1q" to="eqcn:5l83jlMgWkl" resolve="Operator" />
          <node concept="11L4FC" id="298HrzlB1Tv" role="3F10Kt">
            <property role="VOm3f" value="true" />
          </node>
          <node concept="11LMrY" id="298HrzlB1T$" role="3F10Kt">
            <property role="VOm3f" value="true" />
          </node>
        </node>
      </node>
      <node concept="l2Vlx" id="298HrzlB1Hz" role="2iSdaV" />
    </node>
  </node>
  <node concept="24kQdi" id="298HrzlBa2W">
    <property role="3GE5qa" value="units" />
    <ref role="1XX52x" to="ote2:298HrzlAXFd" resolve="PhysicalUnit" />
    <node concept="3EZMnI" id="298HrzlBa34" role="2wV5jI">
      <node concept="3F0A7n" id="298HrzlBa3b" role="3EZMnx">
        <ref role="1NtTu8" to="tpck:h0TrG11" resolve="name" />
      </node>
      <node concept="3F0ifn" id="298HrzlBa3h" role="3EZMnx">
        <property role="3F0ifm" value=":=" />
      </node>
      <node concept="3F1sOY" id="298HrzlBa3p" role="3EZMnx">
        <ref role="1NtTu8" to="ote2:298HrzlBa2B" />
      </node>
      <node concept="3F0ifn" id="298HrzlBa3z" role="3EZMnx">
        <property role="3F0ifm" value="(" />
      </node>
      <node concept="3F0A7n" id="298HrzlBa3J" role="3EZMnx">
        <ref role="1NtTu8" to="ote2:298HrzlAXFt" resolve="desc" />
      </node>
      <node concept="3F0ifn" id="298HrzlBa3X" role="3EZMnx">
        <property role="3F0ifm" value=")" />
      </node>
      <node concept="l2Vlx" id="298HrzlBa37" role="2iSdaV" />
    </node>
  </node>
  <node concept="24kQdi" id="298HrzlCokc">
    <property role="3GE5qa" value="annotations" />
    <ref role="1XX52x" to="ote2:298HrzlCobB" resolve="AnnotatedType" />
    <node concept="3EZMnI" id="298HrzlCokq" role="2wV5jI">
      <node concept="3F1sOY" id="298HrzlF7Io" role="3EZMnx">
        <ref role="1NtTu8" to="ote2:298HrzlF7GJ" />
      </node>
      <node concept="3F0ifn" id="298HrzlCokB" role="3EZMnx">
        <property role="3F0ifm" value="{" />
        <node concept="11L4FC" id="298HrzlComE" role="3F10Kt">
          <property role="VOm3f" value="true" />
        </node>
        <node concept="11LMrY" id="298HrzlConA" role="3F10Kt">
          <property role="VOm3f" value="true" />
        </node>
        <node concept="VechU" id="298HrzlCWju" role="3F10Kt">
          <property role="Vb096" value="gray" />
        </node>
      </node>
      <node concept="3F1sOY" id="298HrzlCol1" role="3EZMnx">
        <ref role="1NtTu8" to="ote2:298HrzlCojK" />
        <node concept="VechU" id="298HrzlDeGk" role="3F10Kt">
          <property role="Vb096" value="gray" />
        </node>
      </node>
      <node concept="3F0ifn" id="298HrzlCokJ" role="3EZMnx">
        <property role="3F0ifm" value="}" />
        <node concept="11L4FC" id="298HrzlCWg2" role="3F10Kt">
          <property role="VOm3f" value="true" />
        </node>
        <node concept="VechU" id="298HrzlDeGx" role="3F10Kt">
          <property role="Vb096" value="gray" />
        </node>
      </node>
      <node concept="l2Vlx" id="298HrzlCokt" role="2iSdaV" />
    </node>
  </node>
  <node concept="24kQdi" id="298HrzlDAvP">
    <property role="3GE5qa" value="annotations" />
    <ref role="1XX52x" to="ote2:298HrzlDAuk" resolve="AnnotatedExpression" />
    <node concept="3EZMnI" id="298HrzlDAw3" role="2wV5jI">
      <node concept="3F1sOY" id="298HrzlFgyi" role="3EZMnx">
        <ref role="1NtTu8" to="ote2:298HrzlFgxM" />
      </node>
      <node concept="3F0ifn" id="6LuOEhgNKDc" role="3EZMnx">
        <property role="3F0ifm" value="{" />
        <ref role="1ERwB7" node="6LuOEhgPA_u" resolve="action_AnnotatedExpression_DELETE" />
        <node concept="11L4FC" id="6LuOEhgNKDd" role="3F10Kt">
          <property role="VOm3f" value="true" />
        </node>
        <node concept="11LMrY" id="6LuOEhgNKDe" role="3F10Kt">
          <property role="VOm3f" value="true" />
        </node>
        <node concept="VechU" id="6LuOEhgNKDf" role="3F10Kt">
          <property role="Vb096" value="gray" />
        </node>
      </node>
      <node concept="3F1sOY" id="298HrzlDAwg" role="3EZMnx">
        <ref role="1NtTu8" to="ote2:298HrzlDAvl" />
        <node concept="11L4FC" id="2Xgo$egGJse" role="3F10Kt">
          <property role="VOm3f" value="true" />
        </node>
        <node concept="11LMrY" id="2Xgo$egGQm7" role="3F10Kt">
          <property role="VOm3f" value="true" />
        </node>
      </node>
      <node concept="l2Vlx" id="298HrzlDAw6" role="2iSdaV" />
      <node concept="3F0ifn" id="6LuOEhgNKDC" role="3EZMnx">
        <property role="3F0ifm" value="}" />
        <ref role="1ERwB7" node="6LuOEhgPA_u" resolve="action_AnnotatedExpression_DELETE" />
        <node concept="11L4FC" id="6LuOEhgNKDD" role="3F10Kt">
          <property role="VOm3f" value="true" />
        </node>
        <node concept="11LMrY" id="6LuOEhgNKDE" role="3F10Kt">
          <property role="VOm3f" value="true" />
        </node>
        <node concept="VechU" id="6LuOEhgNKDF" role="3F10Kt">
          <property role="Vb096" value="gray" />
        </node>
      </node>
    </node>
  </node>
  <node concept="1h_SRR" id="298HrzlF7KO">
    <property role="3GE5qa" value="annotations" />
    <property role="TrG5h" value="action_AnnotatedType_DELETE" />
    <ref role="1h_SK9" to="ote2:298HrzlCobB" resolve="AnnotatedType" />
    <node concept="1hA7zw" id="298HrzlF7L1" role="1h_SK8">
      <property role="1hAc7j" value="delete_action_id" />
      <node concept="1hAIg9" id="298HrzlF7L2" role="1hA7z_">
        <node concept="3clFbS" id="298HrzlF7L3" role="2VODD2">
          <node concept="3clFbF" id="298HrzlF7L8" role="3cqZAp">
            <node concept="2OqwBi" id="298HrzlF7Nk" role="3clFbG">
              <node concept="0IXxy" id="298HrzlF7L7" role="2Oq$k0" />
              <node concept="1P9Npp" id="298HrzlF8b1" role="2OqNvi">
                <node concept="2OqwBi" id="298HrzlF8Bt" role="1P9ThW">
                  <node concept="2OqwBi" id="298HrzlF8dK" role="2Oq$k0">
                    <node concept="0IXxy" id="298HrzlF8bE" role="2Oq$k0" />
                    <node concept="3TrEf2" id="298HrzlF8pT" role="2OqNvi">
                      <ref role="3Tt5mk" to="ote2:298HrzlF7GJ" />
                    </node>
                  </node>
                  <node concept="1$rogu" id="298HrzlF8LT" role="2OqNvi" />
                </node>
              </node>
            </node>
          </node>
        </node>
      </node>
    </node>
  </node>
  <node concept="24kQdi" id="2Xgo$egBfyD">
    <ref role="1XX52x" to="ote2:2Xgo$egBfw$" resolve="MetaPhysicalUnit" />
    <node concept="3EZMnI" id="2Xgo$egBhoi" role="2wV5jI">
      <node concept="3F0A7n" id="2Xgo$egBhop" role="3EZMnx">
        <ref role="1NtTu8" to="tpck:h0TrG11" resolve="name" />
      </node>
      <node concept="l2Vlx" id="2Xgo$egBhol" role="2iSdaV" />
    </node>
  </node>
  <node concept="24kQdi" id="2Xgo$egFsVL">
    <ref role="1XX52x" to="ote2:2Xgo$egFsG5" resolve="InferredSubstitution" />
    <node concept="3EZMnI" id="2Xgo$egFsVN" role="2wV5jI">
      <node concept="1iCGBv" id="2Xgo$egFsVU" role="3EZMnx">
        <ref role="1NtTu8" to="ote2:2Xgo$egFsVc" />
        <node concept="1sVBvm" id="2Xgo$egFsVW" role="1sWHZn">
          <node concept="3F0A7n" id="2Xgo$egFsW3" role="2wV5jI">
            <property role="1Intyy" value="true" />
            <ref role="1NtTu8" to="tpck:h0TrG11" resolve="name" />
          </node>
        </node>
      </node>
      <node concept="3F0ifn" id="2Xgo$egFsWb" role="3EZMnx">
        <property role="3F0ifm" value="\u22a2" />
        <node concept="11L4FC" id="2Xgo$egFsYq" role="3F10Kt">
          <property role="VOm3f" value="true" />
        </node>
        <node concept="11LMrY" id="2Xgo$egFt0a" role="3F10Kt">
          <property role="VOm3f" value="true" />
        </node>
      </node>
      <node concept="1iCGBv" id="2Xgo$egFsWn" role="3EZMnx">
        <ref role="1NtTu8" to="ote2:2Xgo$egFsVa" />
        <node concept="1sVBvm" id="2Xgo$egFsWp" role="1sWHZn">
          <node concept="3F2HdR" id="2Xgo$egFsW$" role="2wV5jI">
            <ref role="1NtTu8" to="ote2:298HrzlB1H4" />
            <node concept="2iRfu4" id="2Xgo$egFsWA" role="2czzBx" />
          </node>
        </node>
      </node>
      <node concept="l2Vlx" id="2Xgo$egFsVQ" role="2iSdaV" />
    </node>
  </node>
  <node concept="24kQdi" id="2Xgo$egG8N$">
    <ref role="1XX52x" to="ote2:2Xgo$egFvsi" resolve="InferredAttribute" />
    <node concept="3EZMnI" id="2Xgo$egG8NA" role="2wV5jI">
      <node concept="2SsqMj" id="2Xgo$egG8NH" role="3EZMnx" />
      <node concept="l2Vlx" id="2Xgo$egG8ND" role="2iSdaV" />
      <node concept="3F0ifn" id="2Xgo$egG8NN" role="3EZMnx">
        <property role="3F0ifm" value="[" />
        <node concept="11L4FC" id="2Xgo$egG8PS" role="3F10Kt">
          <property role="VOm3f" value="true" />
        </node>
        <node concept="11LMrY" id="2Xgo$egG8RC" role="3F10Kt">
          <property role="VOm3f" value="true" />
        </node>
      </node>
      <node concept="3F2HdR" id="2Xgo$egG8NV" role="3EZMnx">
        <ref role="1NtTu8" to="ote2:2Xgo$egFvsn" />
        <node concept="l2Vlx" id="2Xgo$egG8NY" role="2czzBx" />
      </node>
      <node concept="3F0ifn" id="2Xgo$egG8O9" role="3EZMnx">
        <property role="3F0ifm" value="]" />
        <node concept="11L4FC" id="2Xgo$egG8RQ" role="3F10Kt">
          <property role="VOm3f" value="true" />
        </node>
        <node concept="11LMrY" id="2Xgo$egG8RR" role="3F10Kt">
          <property role="VOm3f" value="true" />
        </node>
      </node>
    </node>
  </node>
  <node concept="24kQdi" id="3hzmVlLDOgd">
    <property role="3GE5qa" value="annotations" />
    <ref role="1XX52x" to="ote2:3hzmVlLDNvn" resolve="AbstractAnnotatedType" />
    <node concept="3EZMnI" id="3hzmVlLDPa2" role="2wV5jI">
      <node concept="PMmxH" id="3hzmVlLDPa9" role="3EZMnx">
        <ref role="PMmxG" to="tpco:2wZex4PafBj" resolve="alias" />
      </node>
      <node concept="l2Vlx" id="3hzmVlLDPa5" role="2iSdaV" />
    </node>
  </node>
  <node concept="1h_SRR" id="6LuOEhgPA_u">
    <property role="3GE5qa" value="annotations" />
    <property role="TrG5h" value="action_AnnotatedExpression_DELETE" />
    <ref role="1h_SK9" to="ote2:298HrzlDAuk" resolve="AnnotatedExpression" />
    <node concept="1hA7zw" id="6LuOEhgPA_v" role="1h_SK8">
      <property role="1hAc7j" value="delete_action_id" />
      <node concept="1hAIg9" id="6LuOEhgPA_w" role="1hA7z_">
        <node concept="3clFbS" id="6LuOEhgPA_x" role="2VODD2">
          <node concept="3clFbF" id="6LuOEhgPA_A" role="3cqZAp">
            <node concept="2OqwBi" id="6LuOEhgPAB1" role="3clFbG">
              <node concept="0IXxy" id="6LuOEhgPA__" role="2Oq$k0" />
              <node concept="1P9Npp" id="6LuOEhgPAUW" role="2OqNvi">
                <node concept="2OqwBi" id="6LuOEhgPBlL" role="1P9ThW">
                  <node concept="2OqwBi" id="6LuOEhgPAXK" role="2Oq$k0">
                    <node concept="0IXxy" id="6LuOEhgPAW1" role="2Oq$k0" />
                    <node concept="3TrEf2" id="6LuOEhgPB8l" role="2OqNvi">
                      <ref role="3Tt5mk" to="ote2:298HrzlFgxM" />
                    </node>
                  </node>
                  <node concept="1$rogu" id="6LuOEhgPBuO" role="2OqNvi" />
                </node>
              </node>
            </node>
          </node>
        </node>
      </node>
    </node>
  </node>
</model>

