<?xml version="1.0" encoding="UTF-8"?>
<model ref="r:0249b848-8a19-49ef-a019-de89bf2328cf(de.ppme.expressions.behavior)">
  <persistence version="9" />
  <languages>
    <use id="af65afd8-f0dd-4942-87d9-63a55f2a9db1" name="jetbrains.mps.lang.behavior" version="-1" />
    <use id="f3061a53-9226-4cc5-a443-f952ceaf5816" name="jetbrains.mps.baseLanguage" version="1" />
    <use id="f2801650-65d5-424e-bb1b-463a8781b786" name="jetbrains.mps.baseLanguage.javadoc" version="-1" />
    <devkit ref="fbc25dd2-5da4-483a-8b19-70928e1b62d7(jetbrains.mps.devkit.general-purpose)" />
  </languages>
  <imports>
    <import index="zocd" ref="r:ae42fee8-0bdb-4f5e-a15b-3b3c242d2777(de.ppme.base.behavior)" />
    <import index="qngi" ref="r:b4b8b7dd-6e2e-4b00-82a2-415d6c16bcc2(de.ppme.expressions.actions)" />
    <import index="pfd6" ref="r:9e939139-f0d1-4eb5-9ac6-55348163d9b2(de.ppme.expressions.structure)" />
    <import index="tpee" ref="r:00000000-0000-4000-0000-011c895902ca(jetbrains.mps.baseLanguage.structure)" />
    <import index="2gyk" ref="r:be57a480-399b-470c-860e-bdfcf98e0b2c(de.ppme.core.structure)" />
    <import index="e2lb" ref="6354ebe7-c22a-4a0f-ac54-50b52ab9b065/f:java_stub#6354ebe7-c22a-4a0f-ac54-50b52ab9b065#java.lang(JDK/java.lang@java_stub)" />
    <import index="tpcu" ref="r:00000000-0000-4000-0000-011c89590282(jetbrains.mps.lang.core.behavior)" />
    <import index="tpck" ref="r:00000000-0000-4000-0000-011c89590288(jetbrains.mps.lang.core.structure)" implicit="true" />
  </imports>
  <registry>
    <language id="af65afd8-f0dd-4942-87d9-63a55f2a9db1" name="jetbrains.mps.lang.behavior">
      <concept id="6496299201655527393" name="jetbrains.mps.lang.behavior.structure.LocalBehaviorMethodCall" flags="nn" index="BsUDl" />
      <concept id="1225194240794" name="jetbrains.mps.lang.behavior.structure.ConceptBehavior" flags="ng" index="13h7C7">
        <reference id="1225194240799" name="concept" index="13h7C2" />
        <child id="1225194240805" name="method" index="13h7CS" />
        <child id="1225194240801" name="constructor" index="13h7CW" />
      </concept>
      <concept id="1225194413805" name="jetbrains.mps.lang.behavior.structure.ConceptConstructorDeclaration" flags="in" index="13hLZK" />
      <concept id="1225194472830" name="jetbrains.mps.lang.behavior.structure.ConceptMethodDeclaration" flags="ng" index="13i0hz">
        <property id="5864038008284099149" name="isStatic" index="2Ki8OM" />
        <property id="1225194472833" name="isPrivate" index="13i0is" />
        <property id="1225194472832" name="isVirtual" index="13i0it" />
        <property id="1225194472834" name="isAbstract" index="13i0iv" />
        <reference id="1225194472831" name="overriddenMethod" index="13i0hy" />
      </concept>
      <concept id="1225194691553" name="jetbrains.mps.lang.behavior.structure.ThisNodeExpression" flags="nn" index="13iPFW" />
    </language>
    <language id="f3061a53-9226-4cc5-a443-f952ceaf5816" name="jetbrains.mps.baseLanguage">
      <concept id="1224071154655" name="jetbrains.mps.baseLanguage.structure.AsExpression" flags="nn" index="0kSF2">
        <child id="1224071154657" name="classifierType" index="0kSFW" />
        <child id="1224071154656" name="expression" index="0kSFX" />
      </concept>
      <concept id="1082485599095" name="jetbrains.mps.baseLanguage.structure.BlockStatement" flags="nn" index="9aQIb">
        <child id="1082485599096" name="statements" index="9aQI4" />
      </concept>
      <concept id="1215693861676" name="jetbrains.mps.baseLanguage.structure.BaseAssignmentExpression" flags="nn" index="d038R">
        <child id="1068498886297" name="rValue" index="37vLTx" />
        <child id="1068498886295" name="lValue" index="37vLTJ" />
      </concept>
      <concept id="4836112446988635817" name="jetbrains.mps.baseLanguage.structure.UndefinedType" flags="in" index="2jxLKc" />
      <concept id="1202948039474" name="jetbrains.mps.baseLanguage.structure.InstanceMethodCallOperation" flags="nn" index="liA8E" />
      <concept id="1197027756228" name="jetbrains.mps.baseLanguage.structure.DotExpression" flags="nn" index="2OqwBi">
        <child id="1197027771414" name="operand" index="2Oq$k0" />
        <child id="1197027833540" name="operation" index="2OqNvi" />
      </concept>
      <concept id="1083260308424" name="jetbrains.mps.baseLanguage.structure.EnumConstantReference" flags="nn" index="Rm8GO">
        <reference id="1083260308426" name="enumConstantDeclaration" index="Rm8GQ" />
        <reference id="1144432896254" name="enumClass" index="1Px2BO" />
      </concept>
      <concept id="1145552977093" name="jetbrains.mps.baseLanguage.structure.GenericNewExpression" flags="nn" index="2ShNRf">
        <child id="1145553007750" name="creator" index="2ShVmc" />
      </concept>
      <concept id="1137021947720" name="jetbrains.mps.baseLanguage.structure.ConceptFunction" flags="in" index="2VMwT0">
        <child id="1137022507850" name="body" index="2VODD2" />
      </concept>
      <concept id="1070475926800" name="jetbrains.mps.baseLanguage.structure.StringLiteral" flags="nn" index="Xl_RD">
        <property id="1070475926801" name="value" index="Xl_RC" />
      </concept>
      <concept id="1070534058343" name="jetbrains.mps.baseLanguage.structure.NullLiteral" flags="nn" index="10Nm6u" />
      <concept id="1070534644030" name="jetbrains.mps.baseLanguage.structure.BooleanType" flags="in" index="10P_77" />
      <concept id="1068431474542" name="jetbrains.mps.baseLanguage.structure.VariableDeclaration" flags="ng" index="33uBYm">
        <child id="1068431790190" name="initializer" index="33vP2m" />
      </concept>
      <concept id="1068498886296" name="jetbrains.mps.baseLanguage.structure.VariableReference" flags="nn" index="37vLTw">
        <reference id="1068581517664" name="variableDeclaration" index="3cqZAo" />
      </concept>
      <concept id="1068498886292" name="jetbrains.mps.baseLanguage.structure.ParameterDeclaration" flags="ir" index="37vLTG" />
      <concept id="1068498886294" name="jetbrains.mps.baseLanguage.structure.AssignmentExpression" flags="nn" index="37vLTI" />
      <concept id="1225271177708" name="jetbrains.mps.baseLanguage.structure.StringType" flags="in" index="17QB3L" />
      <concept id="4972933694980447171" name="jetbrains.mps.baseLanguage.structure.BaseVariableDeclaration" flags="ng" index="19Szcq">
        <child id="5680397130376446158" name="type" index="1tU5fm" />
      </concept>
      <concept id="1068580123132" name="jetbrains.mps.baseLanguage.structure.BaseMethodDeclaration" flags="ng" index="3clF44">
        <child id="1068580123133" name="returnType" index="3clF45" />
        <child id="1068580123134" name="parameter" index="3clF46" />
        <child id="1068580123135" name="body" index="3clF47" />
      </concept>
      <concept id="1068580123152" name="jetbrains.mps.baseLanguage.structure.EqualsExpression" flags="nn" index="3clFbC" />
      <concept id="1068580123155" name="jetbrains.mps.baseLanguage.structure.ExpressionStatement" flags="nn" index="3clFbF">
        <child id="1068580123156" name="expression" index="3clFbG" />
      </concept>
      <concept id="1068580123159" name="jetbrains.mps.baseLanguage.structure.IfStatement" flags="nn" index="3clFbJ">
        <child id="1082485599094" name="ifFalseStatement" index="9aQIa" />
        <child id="1068580123160" name="condition" index="3clFbw" />
        <child id="1068580123161" name="ifTrue" index="3clFbx" />
      </concept>
      <concept id="1068580123136" name="jetbrains.mps.baseLanguage.structure.StatementList" flags="sn" stub="5293379017992965193" index="3clFbS">
        <child id="1068581517665" name="statement" index="3cqZAp" />
      </concept>
      <concept id="1068580123137" name="jetbrains.mps.baseLanguage.structure.BooleanConstant" flags="nn" index="3clFbT">
        <property id="1068580123138" name="value" index="3clFbU" />
      </concept>
      <concept id="1068581242878" name="jetbrains.mps.baseLanguage.structure.ReturnStatement" flags="nn" index="3cpWs6">
        <child id="1068581517676" name="expression" index="3cqZAk" />
      </concept>
      <concept id="1068581242864" name="jetbrains.mps.baseLanguage.structure.LocalVariableDeclarationStatement" flags="nn" index="3cpWs8">
        <child id="1068581242865" name="localVariableDeclaration" index="3cpWs9" />
      </concept>
      <concept id="1068581242863" name="jetbrains.mps.baseLanguage.structure.LocalVariableDeclaration" flags="nr" index="3cpWsn" />
      <concept id="1068581517677" name="jetbrains.mps.baseLanguage.structure.VoidType" flags="in" index="3cqZAl" />
      <concept id="1204053956946" name="jetbrains.mps.baseLanguage.structure.IMethodCall" flags="ng" index="1ndlxa">
        <reference id="1068499141037" name="baseMethodDeclaration" index="37wK5l" />
        <child id="1068499141038" name="actualArgument" index="37wK5m" />
      </concept>
      <concept id="1212685548494" name="jetbrains.mps.baseLanguage.structure.ClassCreator" flags="nn" index="1pGfFk" />
      <concept id="1107535904670" name="jetbrains.mps.baseLanguage.structure.ClassifierType" flags="in" index="3uibUv">
        <reference id="1107535924139" name="classifier" index="3uigEE" />
      </concept>
      <concept id="1081773326031" name="jetbrains.mps.baseLanguage.structure.BinaryOperation" flags="nn" index="3uHJSO">
        <child id="1081773367579" name="rightExpression" index="3uHU7w" />
        <child id="1081773367580" name="leftExpression" index="3uHU7B" />
      </concept>
      <concept id="1178549954367" name="jetbrains.mps.baseLanguage.structure.IVisible" flags="ng" index="1B3ioH">
        <child id="1178549979242" name="visibility" index="1B3o_S" />
      </concept>
      <concept id="1146644602865" name="jetbrains.mps.baseLanguage.structure.PublicVisibility" flags="nn" index="3Tm1VV" />
    </language>
    <language id="fd392034-7849-419d-9071-12563d152375" name="jetbrains.mps.baseLanguage.closures">
      <concept id="1235746970280" name="jetbrains.mps.baseLanguage.closures.structure.CompactInvokeFunctionExpression" flags="nn" index="2Sg_IR">
        <child id="1235746996653" name="function" index="2SgG2M" />
        <child id="1235747002942" name="parameter" index="2SgHGx" />
      </concept>
      <concept id="1199542442495" name="jetbrains.mps.baseLanguage.closures.structure.FunctionType" flags="in" index="1ajhzC">
        <child id="1199542457201" name="resultType" index="1ajl9A" />
        <child id="1199542501692" name="parameterType" index="1ajw0F" />
      </concept>
      <concept id="1199569711397" name="jetbrains.mps.baseLanguage.closures.structure.ClosureLiteral" flags="nn" index="1bVj0M">
        <child id="1199569906740" name="parameter" index="1bW2Oz" />
        <child id="1199569916463" name="body" index="1bW5cS" />
      </concept>
    </language>
    <language id="f2801650-65d5-424e-bb1b-463a8781b786" name="jetbrains.mps.baseLanguage.javadoc">
      <concept id="5858074156537516430" name="jetbrains.mps.baseLanguage.javadoc.structure.ReturnBlockDocTag" flags="ng" index="x79VA">
        <property id="5858074156537516431" name="text" index="x79VB" />
      </concept>
      <concept id="5349172909345501395" name="jetbrains.mps.baseLanguage.javadoc.structure.BaseDocComment" flags="ng" index="P$AiS">
        <child id="8465538089690331502" name="body" index="TZ5H$" />
      </concept>
      <concept id="5349172909345532724" name="jetbrains.mps.baseLanguage.javadoc.structure.MethodDocComment" flags="ng" index="P$JXv">
        <child id="5858074156537516440" name="return" index="x79VK" />
      </concept>
      <concept id="8465538089690331500" name="jetbrains.mps.baseLanguage.javadoc.structure.CommentLine" flags="ng" index="TZ5HA">
        <child id="8970989240999019149" name="part" index="1dT_Ay" />
      </concept>
      <concept id="8970989240999019143" name="jetbrains.mps.baseLanguage.javadoc.structure.TextCommentLinePart" flags="ng" index="1dT_AC">
        <property id="8970989240999019144" name="text" index="1dT_AB" />
      </concept>
    </language>
    <language id="7866978e-a0f0-4cc7-81bc-4d213d9375e1" name="jetbrains.mps.lang.smodel">
      <concept id="1177026924588" name="jetbrains.mps.lang.smodel.structure.RefConcept_Reference" flags="nn" index="chp4Y">
        <reference id="1177026940964" name="conceptDeclaration" index="cht4Q" />
      </concept>
      <concept id="1179409122411" name="jetbrains.mps.lang.smodel.structure.Node_ConceptMethodCall" flags="nn" index="2qgKlT" />
      <concept id="1171500988903" name="jetbrains.mps.lang.smodel.structure.Node_GetChildrenOperation" flags="nn" index="32TBzR" />
      <concept id="1139621453865" name="jetbrains.mps.lang.smodel.structure.Node_IsInstanceOfOperation" flags="nn" index="1mIQ4w">
        <child id="1177027386292" name="conceptArgument" index="cj9EA" />
      </concept>
      <concept id="1172008320231" name="jetbrains.mps.lang.smodel.structure.Node_IsNotNullOperation" flags="nn" index="3x8VRR" />
      <concept id="1140131837776" name="jetbrains.mps.lang.smodel.structure.Node_ReplaceWithAnotherOperation" flags="nn" index="1P9Npp">
        <child id="1140131861877" name="replacementNode" index="1P9ThW" />
      </concept>
      <concept id="1140137987495" name="jetbrains.mps.lang.smodel.structure.SNodeTypeCastExpression" flags="nn" index="1PxgMI">
        <property id="1238684351431" name="asCast" index="1BlNFB" />
        <reference id="1140138128738" name="concept" index="1PxNhF" />
        <child id="1140138123956" name="leftExpression" index="1PxMeX" />
      </concept>
      <concept id="1138055754698" name="jetbrains.mps.lang.smodel.structure.SNodeType" flags="in" index="3Tqbb2">
        <reference id="1138405853777" name="concept" index="ehGHo" />
      </concept>
      <concept id="1138056022639" name="jetbrains.mps.lang.smodel.structure.SPropertyAccess" flags="nn" index="3TrcHB">
        <reference id="1138056395725" name="property" index="3TsBF5" />
      </concept>
      <concept id="1138056143562" name="jetbrains.mps.lang.smodel.structure.SLinkAccess" flags="nn" index="3TrEf2">
        <reference id="1138056516764" name="link" index="3Tt5mk" />
      </concept>
    </language>
    <language id="ceab5195-25ea-4f22-9b92-103b95ca8c0c" name="jetbrains.mps.lang.core">
      <concept id="1133920641626" name="jetbrains.mps.lang.core.structure.BaseConcept" flags="ng" index="2VYdi">
        <property id="1193676396447" name="virtualPackage" index="3GE5qa" />
        <child id="5169995583184591170" name="smodelAttribute" index="lGtFl" />
      </concept>
      <concept id="1169194658468" name="jetbrains.mps.lang.core.structure.INamedConcept" flags="ng" index="TrEIO">
        <property id="1169194664001" name="name" index="TrG5h" />
      </concept>
    </language>
    <language id="83888646-71ce-4f1c-9c53-c54016f6ad4f" name="jetbrains.mps.baseLanguage.collections">
      <concept id="1204796164442" name="jetbrains.mps.baseLanguage.collections.structure.InternalSequenceOperation" flags="nn" index="23sCx2">
        <child id="1204796294226" name="closure" index="23t8la" />
      </concept>
      <concept id="1204980550705" name="jetbrains.mps.baseLanguage.collections.structure.VisitAllOperation" flags="nn" index="2es0OD" />
      <concept id="1203518072036" name="jetbrains.mps.baseLanguage.collections.structure.SmartClosureParameterDeclaration" flags="ig" index="Rh6nW" />
      <concept id="1202120902084" name="jetbrains.mps.baseLanguage.collections.structure.WhereOperation" flags="nn" index="3zZkjj" />
    </language>
  </registry>
  <node concept="13h7C7" id="5l83jlMivmI">
    <property role="3GE5qa" value="variables" />
    <ref role="13h7C2" to="pfd6:5l83jlMhoVs" resolve="IVariableReference" />
    <node concept="13i0hz" id="5l83jlMivof" role="13h7CS">
      <property role="13i0iv" value="true" />
      <property role="13i0it" value="true" />
      <property role="TrG5h" value="getVariable" />
      <node concept="3Tm1VV" id="5l83jlMivog" role="1B3o_S" />
      <node concept="3clFbS" id="5l83jlMivoh" role="3clF47" />
      <node concept="3Tqbb2" id="5l83jlMivoz" role="3clF45">
        <ref role="ehGHo" to="tpee:4H$HgYMZ7sw" resolve="IVariableDeclaration" />
      </node>
    </node>
    <node concept="13hLZK" id="5l83jlMivmJ" role="13h7CW">
      <node concept="3clFbS" id="5l83jlMivmK" role="2VODD2" />
    </node>
    <node concept="13i0hz" id="5l83jlMivo1" role="13h7CS">
      <property role="13i0iv" value="false" />
      <property role="13i0it" value="false" />
      <property role="TrG5h" value="target" />
      <ref role="13i0hy" to="zocd:5l83jlMivma" resolve="target" />
      <node concept="3Tm1VV" id="5l83jlMivo2" role="1B3o_S" />
      <node concept="3clFbS" id="5l83jlMivo5" role="3clF47">
        <node concept="3clFbF" id="5l83jlMivJ7" role="3cqZAp">
          <node concept="BsUDl" id="5l83jlMivJ6" role="3clFbG">
            <ref role="37wK5l" node="5l83jlMivof" resolve="getVariable" />
          </node>
        </node>
      </node>
      <node concept="3Tqbb2" id="5l83jlMivo6" role="3clF45" />
    </node>
  </node>
  <node concept="13h7C7" id="1AGkceJmO2y">
    <property role="3GE5qa" value="expr" />
    <ref role="13h7C2" to="pfd6:5l83jlMf$Lb" resolve="Expression" />
    <node concept="13i0hz" id="2bnyqnPJmkJ" role="13h7CS">
      <property role="TrG5h" value="equals" />
      <property role="13i0it" value="true" />
      <node concept="3Tm1VV" id="2bnyqnPJmkK" role="1B3o_S" />
      <node concept="10P_77" id="2bnyqnPJmIp" role="3clF45" />
      <node concept="3clFbS" id="2bnyqnPJmkM" role="3clF47">
        <node concept="3cpWs6" id="2bnyqnPJmI_" role="3cqZAp">
          <node concept="3clFbC" id="2bnyqnPJmKh" role="3cqZAk">
            <node concept="37vLTw" id="2bnyqnPJmKA" role="3uHU7w">
              <ref role="3cqZAo" node="2bnyqnPJmIt" resolve="other" />
            </node>
            <node concept="13iPFW" id="2bnyqnPJmIM" role="3uHU7B" />
          </node>
        </node>
      </node>
      <node concept="37vLTG" id="2bnyqnPJmIt" role="3clF46">
        <property role="TrG5h" value="other" />
        <node concept="3Tqbb2" id="2bnyqnPJmIs" role="1tU5fm" />
      </node>
    </node>
    <node concept="13i0hz" id="5mt6372KmoB" role="13h7CS">
      <property role="TrG5h" value="getType" />
      <property role="13i0it" value="true" />
      <property role="13i0iv" value="false" />
      <node concept="3Tm1VV" id="5mt6372KmoC" role="1B3o_S" />
      <node concept="3Tqbb2" id="5mt6372KmMR" role="3clF45">
        <ref role="ehGHo" to="pfd6:6fgLCPsAWoz" resolve="Type" />
      </node>
      <node concept="3clFbS" id="5mt6372KmoE" role="3clF47">
        <node concept="3cpWs6" id="5mt6372LZqU" role="3cqZAp">
          <node concept="10Nm6u" id="5mt6372LZrc" role="3cqZAk" />
        </node>
      </node>
    </node>
    <node concept="13i0hz" id="1AGkceJmO3R" role="13h7CS">
      <property role="TrG5h" value="getPriority" />
      <property role="13i0it" value="true" />
      <property role="13i0iv" value="false" />
      <property role="2Ki8OM" value="true" />
      <node concept="3Tm1VV" id="1AGkceJmO3S" role="1B3o_S" />
      <node concept="3clFbS" id="1AGkceJmO3T" role="3clF47">
        <node concept="3cpWs6" id="1AGkceJmO3U" role="3cqZAp">
          <node concept="Rm8GO" id="1AGkceJmO3V" role="3cqZAk">
            <ref role="Rm8GQ" to="qngi:1AGkceJmNSx" resolve="DEFAULT" />
            <ref role="1Px2BO" to="qngi:1AGkceJmNAd" resolve="PrecedenceLevel" />
          </node>
        </node>
      </node>
      <node concept="3uibUv" id="1AGkceJmO3W" role="3clF45">
        <ref role="3uigEE" to="qngi:1AGkceJmNAd" resolve="PrecedenceLevel" />
      </node>
      <node concept="P$JXv" id="1AGkceJmO3X" role="lGtFl">
        <node concept="TZ5HA" id="1AGkceJmO3Y" role="TZ5H$">
          <node concept="1dT_AC" id="1AGkceJmO3Z" role="1dT_Ay">
            <property role="1dT_AB" value="Returns the the priority/precedence level of the binary expression." />
          </node>
        </node>
        <node concept="x79VA" id="1AGkceJmO40" role="x79VK">
          <property role="x79VB" value="the priority" />
        </node>
      </node>
    </node>
    <node concept="13i0hz" id="6IDtJdlj7J2" role="13h7CS">
      <property role="TrG5h" value="isCompileTimeConstant" />
      <property role="13i0it" value="true" />
      <property role="13i0iv" value="false" />
      <node concept="3Tm1VV" id="6IDtJdlj7J3" role="1B3o_S" />
      <node concept="10P_77" id="6IDtJdlj8aV" role="3clF45" />
      <node concept="3clFbS" id="6IDtJdlj7J5" role="3clF47">
        <node concept="3cpWs6" id="6IDtJdljMZW" role="3cqZAp">
          <node concept="3clFbT" id="6IDtJdljN09" role="3cqZAk">
            <property role="3clFbU" value="false" />
          </node>
        </node>
      </node>
    </node>
    <node concept="13i0hz" id="7NL3iVCCIMl" role="13h7CS">
      <property role="TrG5h" value="getCompileTimeConstant" />
      <property role="13i0it" value="true" />
      <node concept="3Tm1VV" id="7NL3iVCCIMm" role="1B3o_S" />
      <node concept="3clFbS" id="7NL3iVCCIMn" role="3clF47">
        <node concept="3cpWs6" id="7NL3iVCCJ_J" role="3cqZAp">
          <node concept="10Nm6u" id="7NL3iVCCJ_V" role="3cqZAk" />
        </node>
      </node>
      <node concept="3uibUv" id="7NL3iVCCJzh" role="3clF45">
        <ref role="3uigEE" to="e2lb:~Object" resolve="Object" />
      </node>
    </node>
    <node concept="13i0hz" id="uPhVC8IUhS" role="13h7CS">
      <property role="TrG5h" value="replaceNode" />
      <property role="13i0it" value="true" />
      <node concept="3Tm1VV" id="uPhVC8IUhT" role="1B3o_S" />
      <node concept="3clFbS" id="uPhVC8IUhU" role="3clF47">
        <node concept="3clFbJ" id="uPhVC8IUpt" role="3cqZAp">
          <node concept="3clFbS" id="uPhVC8IUpu" role="3clFbx">
            <node concept="3clFbF" id="uPhVC8IUND" role="3cqZAp">
              <node concept="2OqwBi" id="uPhVC8IUOK" role="3clFbG">
                <node concept="13iPFW" id="uPhVC8IUNC" role="2Oq$k0" />
                <node concept="1P9Npp" id="uPhVC8IV3h" role="2OqNvi">
                  <node concept="2Sg_IR" id="uPhVC8J856" role="1P9ThW">
                    <node concept="37vLTw" id="uPhVC8J857" role="2SgG2M">
                      <ref role="3cqZAo" node="uPhVC8J762" resolve="g" />
                    </node>
                    <node concept="13iPFW" id="uPhVC8J85L" role="2SgHGx" />
                  </node>
                </node>
              </node>
            </node>
          </node>
          <node concept="2Sg_IR" id="uPhVC8IUvb" role="3clFbw">
            <node concept="37vLTw" id="uPhVC8IUvc" role="2SgG2M">
              <ref role="3cqZAo" node="uPhVC8IUp6" resolve="f" />
            </node>
            <node concept="13iPFW" id="uPhVC8IULo" role="2SgHGx" />
          </node>
          <node concept="9aQIb" id="uPhVC8IYsZ" role="9aQIa">
            <node concept="3clFbS" id="uPhVC8IYt0" role="9aQI4">
              <node concept="3clFbF" id="uPhVC8IYub" role="3cqZAp">
                <node concept="2OqwBi" id="uPhVC8J1OE" role="3clFbG">
                  <node concept="2OqwBi" id="uPhVC8IZ7X" role="2Oq$k0">
                    <node concept="2OqwBi" id="uPhVC8IYvi" role="2Oq$k0">
                      <node concept="13iPFW" id="uPhVC8IYua" role="2Oq$k0" />
                      <node concept="32TBzR" id="uPhVC8IYHN" role="2OqNvi" />
                    </node>
                    <node concept="3zZkjj" id="uPhVC8J1aS" role="2OqNvi">
                      <node concept="1bVj0M" id="uPhVC8J1aU" role="23t8la">
                        <node concept="3clFbS" id="uPhVC8J1aV" role="1bW5cS">
                          <node concept="3clFbF" id="uPhVC8J1dH" role="3cqZAp">
                            <node concept="2OqwBi" id="uPhVC8J1hc" role="3clFbG">
                              <node concept="37vLTw" id="uPhVC8J1dG" role="2Oq$k0">
                                <ref role="3cqZAo" node="uPhVC8J1aW" resolve="it" />
                              </node>
                              <node concept="1mIQ4w" id="uPhVC8J1BL" role="2OqNvi">
                                <node concept="chp4Y" id="uPhVC8J1Ej" role="cj9EA">
                                  <ref role="cht4Q" to="pfd6:5l83jlMf$Lb" resolve="Expression" />
                                </node>
                              </node>
                            </node>
                          </node>
                        </node>
                        <node concept="Rh6nW" id="uPhVC8J1aW" role="1bW2Oz">
                          <property role="TrG5h" value="it" />
                          <node concept="2jxLKc" id="uPhVC8J1aX" role="1tU5fm" />
                        </node>
                      </node>
                    </node>
                  </node>
                  <node concept="2es0OD" id="uPhVC8J2ge" role="2OqNvi">
                    <node concept="1bVj0M" id="uPhVC8J2gg" role="23t8la">
                      <node concept="3clFbS" id="uPhVC8J2gh" role="1bW5cS">
                        <node concept="3clFbF" id="uPhVC8J2kS" role="3cqZAp">
                          <node concept="2OqwBi" id="uPhVC8J3de" role="3clFbG">
                            <node concept="1PxgMI" id="uPhVC8J32r" role="2Oq$k0">
                              <property role="1BlNFB" value="true" />
                              <ref role="1PxNhF" to="pfd6:5l83jlMf$Lb" resolve="Expression" />
                              <node concept="37vLTw" id="uPhVC8J2PV" role="1PxMeX">
                                <ref role="3cqZAo" node="uPhVC8J2gi" resolve="it" />
                              </node>
                            </node>
                            <node concept="2qgKlT" id="uPhVC8J3wx" role="2OqNvi">
                              <ref role="37wK5l" node="uPhVC8IUhS" resolve="replaceNode" />
                              <node concept="37vLTw" id="uPhVC8J3ZL" role="37wK5m">
                                <ref role="3cqZAo" node="uPhVC8IUp6" resolve="f" />
                              </node>
                              <node concept="37vLTw" id="uPhVC8J8nM" role="37wK5m">
                                <ref role="3cqZAo" node="uPhVC8J762" resolve="g" />
                              </node>
                            </node>
                          </node>
                        </node>
                      </node>
                      <node concept="Rh6nW" id="uPhVC8J2gi" role="1bW2Oz">
                        <property role="TrG5h" value="it" />
                        <node concept="2jxLKc" id="uPhVC8J2gj" role="1tU5fm" />
                      </node>
                    </node>
                  </node>
                </node>
              </node>
            </node>
          </node>
        </node>
      </node>
      <node concept="3cqZAl" id="uPhVC8IUp1" role="3clF45" />
      <node concept="37vLTG" id="uPhVC8IUp6" role="3clF46">
        <property role="TrG5h" value="f" />
        <node concept="1ajhzC" id="uPhVC8IUp4" role="1tU5fm">
          <node concept="3Tqbb2" id="uPhVC8IUxH" role="1ajw0F">
            <ref role="ehGHo" to="pfd6:5l83jlMf$Lb" resolve="Expression" />
          </node>
          <node concept="10P_77" id="uPhVC8IUpg" role="1ajl9A" />
        </node>
      </node>
      <node concept="37vLTG" id="uPhVC8J762" role="3clF46">
        <property role="TrG5h" value="g" />
        <node concept="1ajhzC" id="uPhVC8J75W" role="1tU5fm">
          <node concept="3Tqbb2" id="uPhVC8J7hg" role="1ajl9A">
            <ref role="ehGHo" to="pfd6:5l83jlMf$Lb" resolve="Expression" />
          </node>
          <node concept="3Tqbb2" id="uPhVC8J7EW" role="1ajw0F">
            <ref role="ehGHo" to="pfd6:5l83jlMf$Lb" resolve="Expression" />
          </node>
        </node>
      </node>
    </node>
    <node concept="13i0hz" id="uPhVC8KSH4" role="13h7CS">
      <property role="TrG5h" value="replaceNode" />
      <property role="13i0it" value="true" />
      <node concept="3Tm1VV" id="uPhVC8KSH5" role="1B3o_S" />
      <node concept="3clFbS" id="uPhVC8KSH6" role="3clF47">
        <node concept="3clFbJ" id="uPhVC8KTPA" role="3cqZAp">
          <node concept="3clFbS" id="uPhVC8KTPC" role="3clFbx">
            <node concept="3cpWs6" id="uPhVC8KUJm" role="3cqZAp" />
          </node>
          <node concept="2Sg_IR" id="uPhVC8KUat" role="3clFbw">
            <node concept="37vLTw" id="uPhVC8KUau" role="2SgG2M">
              <ref role="3cqZAo" node="uPhVC8KT20" resolve="s" />
            </node>
            <node concept="13iPFW" id="uPhVC8KUIn" role="2SgHGx" />
          </node>
        </node>
        <node concept="3clFbJ" id="uPhVC8KSH7" role="3cqZAp">
          <node concept="3clFbS" id="uPhVC8KSH8" role="3clFbx">
            <node concept="3clFbF" id="uPhVC8KSH9" role="3cqZAp">
              <node concept="2OqwBi" id="uPhVC8KSHa" role="3clFbG">
                <node concept="13iPFW" id="uPhVC8KSHb" role="2Oq$k0" />
                <node concept="1P9Npp" id="uPhVC8KSHc" role="2OqNvi">
                  <node concept="2Sg_IR" id="uPhVC8KSHd" role="1P9ThW">
                    <node concept="37vLTw" id="uPhVC8KSHe" role="2SgG2M">
                      <ref role="3cqZAo" node="uPhVC8KSHQ" resolve="g" />
                    </node>
                    <node concept="13iPFW" id="uPhVC8KSHf" role="2SgHGx" />
                  </node>
                </node>
              </node>
            </node>
          </node>
          <node concept="2Sg_IR" id="uPhVC8KSHg" role="3clFbw">
            <node concept="37vLTw" id="uPhVC8KSHh" role="2SgG2M">
              <ref role="3cqZAo" node="uPhVC8KSHM" resolve="f" />
            </node>
            <node concept="13iPFW" id="uPhVC8KSHi" role="2SgHGx" />
          </node>
          <node concept="9aQIb" id="uPhVC8KSHj" role="9aQIa">
            <node concept="3clFbS" id="uPhVC8KSHk" role="9aQI4">
              <node concept="3clFbF" id="uPhVC8KSHl" role="3cqZAp">
                <node concept="2OqwBi" id="uPhVC8KSHm" role="3clFbG">
                  <node concept="2OqwBi" id="uPhVC8KSHn" role="2Oq$k0">
                    <node concept="2OqwBi" id="uPhVC8KSHo" role="2Oq$k0">
                      <node concept="13iPFW" id="uPhVC8KSHp" role="2Oq$k0" />
                      <node concept="32TBzR" id="uPhVC8KSHq" role="2OqNvi" />
                    </node>
                    <node concept="3zZkjj" id="uPhVC8KSHr" role="2OqNvi">
                      <node concept="1bVj0M" id="uPhVC8KSHs" role="23t8la">
                        <node concept="3clFbS" id="uPhVC8KSHt" role="1bW5cS">
                          <node concept="3clFbF" id="uPhVC8KSHu" role="3cqZAp">
                            <node concept="2OqwBi" id="uPhVC8KSHv" role="3clFbG">
                              <node concept="37vLTw" id="uPhVC8KSHw" role="2Oq$k0">
                                <ref role="3cqZAo" node="uPhVC8KSHz" resolve="it" />
                              </node>
                              <node concept="1mIQ4w" id="uPhVC8KSHx" role="2OqNvi">
                                <node concept="chp4Y" id="uPhVC8KSHy" role="cj9EA">
                                  <ref role="cht4Q" to="pfd6:5l83jlMf$Lb" resolve="Expression" />
                                </node>
                              </node>
                            </node>
                          </node>
                        </node>
                        <node concept="Rh6nW" id="uPhVC8KSHz" role="1bW2Oz">
                          <property role="TrG5h" value="it" />
                          <node concept="2jxLKc" id="uPhVC8KSH$" role="1tU5fm" />
                        </node>
                      </node>
                    </node>
                  </node>
                  <node concept="2es0OD" id="uPhVC8KSH_" role="2OqNvi">
                    <node concept="1bVj0M" id="uPhVC8KSHA" role="23t8la">
                      <node concept="3clFbS" id="uPhVC8KSHB" role="1bW5cS">
                        <node concept="3clFbF" id="uPhVC8KSHC" role="3cqZAp">
                          <node concept="2OqwBi" id="uPhVC8KSHD" role="3clFbG">
                            <node concept="1PxgMI" id="uPhVC8KSHE" role="2Oq$k0">
                              <property role="1BlNFB" value="true" />
                              <ref role="1PxNhF" to="pfd6:5l83jlMf$Lb" resolve="Expression" />
                              <node concept="37vLTw" id="uPhVC8KSHF" role="1PxMeX">
                                <ref role="3cqZAo" node="uPhVC8KSHJ" resolve="it" />
                              </node>
                            </node>
                            <node concept="2qgKlT" id="uPhVC8KSHG" role="2OqNvi">
                              <ref role="37wK5l" node="uPhVC8KSH4" resolve="replaceNode" />
                              <node concept="37vLTw" id="uPhVC8KSHH" role="37wK5m">
                                <ref role="3cqZAo" node="uPhVC8KSHM" resolve="f" />
                              </node>
                              <node concept="37vLTw" id="uPhVC8KSHI" role="37wK5m">
                                <ref role="3cqZAo" node="uPhVC8KSHQ" resolve="g" />
                              </node>
                              <node concept="37vLTw" id="uPhVC8KVk$" role="37wK5m">
                                <ref role="3cqZAo" node="uPhVC8KT20" resolve="s" />
                              </node>
                            </node>
                          </node>
                        </node>
                      </node>
                      <node concept="Rh6nW" id="uPhVC8KSHJ" role="1bW2Oz">
                        <property role="TrG5h" value="it" />
                        <node concept="2jxLKc" id="uPhVC8KSHK" role="1tU5fm" />
                      </node>
                    </node>
                  </node>
                </node>
              </node>
            </node>
          </node>
        </node>
      </node>
      <node concept="3cqZAl" id="uPhVC8KSHL" role="3clF45" />
      <node concept="37vLTG" id="uPhVC8KSHM" role="3clF46">
        <property role="TrG5h" value="f" />
        <node concept="1ajhzC" id="uPhVC8KSHN" role="1tU5fm">
          <node concept="3Tqbb2" id="uPhVC8KSHO" role="1ajw0F">
            <ref role="ehGHo" to="pfd6:5l83jlMf$Lb" resolve="Expression" />
          </node>
          <node concept="10P_77" id="uPhVC8KSHP" role="1ajl9A" />
        </node>
      </node>
      <node concept="37vLTG" id="uPhVC8KSHQ" role="3clF46">
        <property role="TrG5h" value="g" />
        <node concept="1ajhzC" id="uPhVC8KSHR" role="1tU5fm">
          <node concept="3Tqbb2" id="uPhVC8KSHS" role="1ajl9A">
            <ref role="ehGHo" to="pfd6:5l83jlMf$Lb" resolve="Expression" />
          </node>
          <node concept="3Tqbb2" id="uPhVC8KSHT" role="1ajw0F">
            <ref role="ehGHo" to="pfd6:5l83jlMf$Lb" resolve="Expression" />
          </node>
        </node>
      </node>
      <node concept="37vLTG" id="uPhVC8KT20" role="3clF46">
        <property role="TrG5h" value="s" />
        <node concept="1ajhzC" id="uPhVC8KTbw" role="1tU5fm">
          <node concept="10P_77" id="uPhVC8KThX" role="1ajl9A" />
          <node concept="3Tqbb2" id="uPhVC8KTon" role="1ajw0F">
            <ref role="ehGHo" to="pfd6:5l83jlMf$Lb" resolve="Expression" />
          </node>
        </node>
      </node>
    </node>
    <node concept="13hLZK" id="1AGkceJmO2z" role="13h7CW">
      <node concept="3clFbS" id="1AGkceJmO2$" role="2VODD2" />
    </node>
  </node>
  <node concept="13h7C7" id="1AGkceJoG0h">
    <property role="3GE5qa" value="expr.arith" />
    <ref role="13h7C2" to="pfd6:5l83jlMgOLI" resolve="PlusExpression" />
    <node concept="13i0hz" id="1AGkceJoG2J" role="13h7CS">
      <property role="TrG5h" value="getPriority" />
      <property role="2Ki8OM" value="true" />
      <ref role="13i0hy" node="1AGkceJmO3R" resolve="getPriority" />
      <node concept="3clFbS" id="1AGkceJoG2L" role="3clF47">
        <node concept="3cpWs6" id="1AGkceJoG3d" role="3cqZAp">
          <node concept="Rm8GO" id="1AGkceJoG3Z" role="3cqZAk">
            <ref role="Rm8GQ" to="qngi:1AGkceJmNF0" resolve="ADDITIVE" />
            <ref role="1Px2BO" to="qngi:1AGkceJmNAd" resolve="PrecedenceLevel" />
          </node>
        </node>
      </node>
      <node concept="3uibUv" id="1AGkceJoG33" role="3clF45">
        <ref role="3uigEE" to="qngi:1AGkceJmNAd" resolve="PrecedenceLevel" />
      </node>
      <node concept="3Tm1VV" id="1AGkceJoG34" role="1B3o_S" />
    </node>
    <node concept="13hLZK" id="1AGkceJoG0i" role="13h7CW">
      <node concept="3clFbS" id="1AGkceJoG0j" role="2VODD2" />
    </node>
  </node>
  <node concept="13h7C7" id="1AGkceJoG5e">
    <property role="3GE5qa" value="expr.arith" />
    <ref role="13h7C2" to="pfd6:2NzQxypWqRy" resolve="MulExpression" />
    <node concept="13i0hz" id="1AGkceJoG5S" role="13h7CS">
      <property role="TrG5h" value="getPriority" />
      <property role="2Ki8OM" value="true" />
      <ref role="13i0hy" node="1AGkceJmO3R" resolve="getPriority" />
      <node concept="3clFbS" id="1AGkceJoG5U" role="3clF47">
        <node concept="3cpWs6" id="1AGkceJoG6m" role="3cqZAp">
          <node concept="Rm8GO" id="1AGkceJoG72" role="3cqZAk">
            <ref role="Rm8GQ" to="qngi:1AGkceJmNE9" resolve="MULTIPLICATIVE" />
            <ref role="1Px2BO" to="qngi:1AGkceJmNAd" resolve="PrecedenceLevel" />
          </node>
        </node>
      </node>
      <node concept="3uibUv" id="1AGkceJoG6c" role="3clF45">
        <ref role="3uigEE" to="qngi:1AGkceJmNAd" resolve="PrecedenceLevel" />
      </node>
      <node concept="3Tm1VV" id="1AGkceJoG6d" role="1B3o_S" />
    </node>
    <node concept="13hLZK" id="1AGkceJoG5f" role="13h7CW">
      <node concept="3clFbS" id="1AGkceJoG5g" role="2VODD2" />
    </node>
  </node>
  <node concept="13h7C7" id="4_KIr3q0KjV">
    <property role="3GE5qa" value="expr.arith" />
    <ref role="13h7C2" to="pfd6:2NzQxypWqRA" resolve="DivExpression" />
    <node concept="13i0hz" id="4_KIr3q0KjY" role="13h7CS">
      <property role="TrG5h" value="getPriority" />
      <property role="2Ki8OM" value="true" />
      <ref role="13i0hy" node="1AGkceJmO3R" resolve="getPriority" />
      <node concept="3clFbS" id="4_KIr3q0Kk0" role="3clF47">
        <node concept="3cpWs6" id="4_KIr3q0Ujz" role="3cqZAp">
          <node concept="Rm8GO" id="4_KIr3q0Uki" role="3cqZAk">
            <ref role="Rm8GQ" to="qngi:1AGkceJmNE9" resolve="MULTIPLICATIVE" />
            <ref role="1Px2BO" to="qngi:1AGkceJmNAd" resolve="PrecedenceLevel" />
          </node>
        </node>
      </node>
      <node concept="3uibUv" id="4_KIr3q0Uh4" role="3clF45">
        <ref role="3uigEE" to="qngi:1AGkceJmNAd" resolve="PrecedenceLevel" />
      </node>
      <node concept="3Tm1VV" id="4_KIr3q0Uh5" role="1B3o_S" />
    </node>
    <node concept="13hLZK" id="4_KIr3q0KjW" role="13h7CW">
      <node concept="3clFbS" id="4_KIr3q0KjX" role="2VODD2" />
    </node>
  </node>
  <node concept="13h7C7" id="4_KIr3q0UuW">
    <property role="3GE5qa" value="expr.arith" />
    <ref role="13h7C2" to="pfd6:5l83jlMgOU3" resolve="MinusExpression" />
    <node concept="13i0hz" id="4_KIr3q0UuZ" role="13h7CS">
      <property role="TrG5h" value="getPriority" />
      <property role="2Ki8OM" value="true" />
      <ref role="13i0hy" node="1AGkceJmO3R" resolve="getPriority" />
      <node concept="3clFbS" id="4_KIr3q0Uv1" role="3clF47">
        <node concept="3cpWs6" id="4_KIr3q0Uvm" role="3cqZAp">
          <node concept="Rm8GO" id="4_KIr3q0UvZ" role="3cqZAk">
            <ref role="Rm8GQ" to="qngi:1AGkceJmNF0" resolve="ADDITIVE" />
            <ref role="1Px2BO" to="qngi:1AGkceJmNAd" resolve="PrecedenceLevel" />
          </node>
        </node>
      </node>
      <node concept="3uibUv" id="4_KIr3q0Uve" role="3clF45">
        <ref role="3uigEE" to="qngi:1AGkceJmNAd" resolve="PrecedenceLevel" />
      </node>
      <node concept="3Tm1VV" id="4_KIr3q0Uvf" role="1B3o_S" />
    </node>
    <node concept="13hLZK" id="4_KIr3q0UuX" role="13h7CW">
      <node concept="3clFbS" id="4_KIr3q0UuY" role="2VODD2" />
    </node>
  </node>
  <node concept="13h7C7" id="3SvAy0XMGHo">
    <property role="3GE5qa" value="types" />
    <ref role="13h7C2" to="pfd6:3SvAy0XMGHn" resolve="IIterable" />
    <node concept="13i0hz" id="3SvAy0XMGIp" role="13h7CS">
      <property role="13i0iv" value="true" />
      <property role="13i0it" value="true" />
      <property role="TrG5h" value="getType" />
      <node concept="3Tm1VV" id="3SvAy0XMGIq" role="1B3o_S" />
      <node concept="3clFbS" id="3SvAy0XMGIr" role="3clF47" />
      <node concept="3Tqbb2" id="3SvAy0XMHlE" role="3clF45">
        <ref role="ehGHo" to="pfd6:6fgLCPsAWoz" resolve="Type" />
      </node>
    </node>
    <node concept="13hLZK" id="3SvAy0XMGHp" role="13h7CW">
      <node concept="3clFbS" id="3SvAy0XMGHq" role="2VODD2" />
    </node>
  </node>
  <node concept="13h7C7" id="3SvAy0XMHo4">
    <property role="3GE5qa" value="types" />
    <ref role="13h7C2" to="pfd6:3SvAy0XHWyX" resolve="AbstractContainerType" />
    <node concept="13i0hz" id="3SvAy0XMHpf" role="13h7CS">
      <property role="TrG5h" value="getType" />
      <property role="2Ki8OM" value="false" />
      <ref role="13i0hy" node="3SvAy0XMGIp" resolve="getType" />
      <node concept="3clFbS" id="3SvAy0XMHph" role="3clF47">
        <node concept="3cpWs6" id="3SvAy0XMHrP" role="3cqZAp">
          <node concept="2OqwBi" id="3SvAy0XMHv1" role="3cqZAk">
            <node concept="13iPFW" id="3SvAy0XMHs4" role="2Oq$k0" />
            <node concept="3TrEf2" id="3SvAy0XMHFG" role="2OqNvi">
              <ref role="3Tt5mk" to="pfd6:3SvAy0XHWz0" />
            </node>
          </node>
        </node>
      </node>
      <node concept="3Tqbb2" id="3SvAy0XMHpq" role="3clF45">
        <ref role="ehGHo" to="pfd6:6fgLCPsAWoz" resolve="Type" />
      </node>
      <node concept="3Tm1VV" id="3SvAy0XMHpr" role="1B3o_S" />
    </node>
    <node concept="13hLZK" id="3SvAy0XMHo5" role="13h7CW">
      <node concept="3clFbS" id="3SvAy0XMHo6" role="2VODD2" />
    </node>
  </node>
  <node concept="13h7C7" id="1plOGK0gFFs">
    <property role="3GE5qa" value="types" />
    <ref role="13h7C2" to="pfd6:6fgLCPsAWoz" resolve="Type" />
    <node concept="13hLZK" id="1plOGK0gFFt" role="13h7CW">
      <node concept="3clFbS" id="1plOGK0gFFu" role="2VODD2" />
    </node>
    <node concept="13i0hz" id="1plOGK0gFH4" role="13h7CS">
      <property role="TrG5h" value="isParticleListType" />
      <property role="13i0it" value="true" />
      <property role="13i0iv" value="false" />
      <node concept="3Tm1VV" id="1plOGK0gFH5" role="1B3o_S" />
      <node concept="3clFbS" id="1plOGK0gFH6" role="3clF47">
        <node concept="3cpWs6" id="1plOGK0gFYF" role="3cqZAp">
          <node concept="3clFbT" id="6Wx7SFgemX7" role="3cqZAk">
            <property role="3clFbU" value="false" />
          </node>
        </node>
      </node>
      <node concept="10P_77" id="1plOGK0gFWh" role="3clF45" />
    </node>
  </node>
  <node concept="13h7C7" id="699Tyk2vR0N">
    <property role="3GE5qa" value="expr" />
    <ref role="13h7C2" to="pfd6:5l83jlMf$Lk" resolve="BinaryExpression" />
    <node concept="13hLZK" id="699Tyk2vR0O" role="13h7CW">
      <node concept="3clFbS" id="699Tyk2vR0P" role="2VODD2" />
    </node>
    <node concept="13i0hz" id="6IDtJdljgaB" role="13h7CS">
      <property role="TrG5h" value="isCompileTimeConstant" />
      <property role="13i0it" value="false" />
      <property role="13i0iv" value="false" />
      <ref role="13i0hy" node="6IDtJdlj7J2" resolve="isCompileTimeConstant" />
      <node concept="3Tm1VV" id="6IDtJdljgaC" role="1B3o_S" />
      <node concept="3clFbS" id="6IDtJdljgaF" role="3clF47">
        <node concept="3clFbF" id="6IDtJdljgaI" role="3cqZAp">
          <node concept="3clFbT" id="6IDtJdljgaH" role="3clFbG" />
        </node>
      </node>
      <node concept="10P_77" id="6IDtJdljgaG" role="3clF45" />
    </node>
  </node>
  <node concept="13h7C7" id="699Tyk2vStf">
    <property role="3GE5qa" value="expr" />
    <ref role="13h7C2" to="pfd6:5l83jlMfE3M" resolve="UnaryExpression" />
    <node concept="13hLZK" id="699Tyk2vStg" role="13h7CW">
      <node concept="3clFbS" id="699Tyk2vSth" role="2VODD2" />
    </node>
  </node>
  <node concept="13h7C7" id="699Tyk2wEsV">
    <property role="3GE5qa" value="literals" />
    <ref role="13h7C2" to="pfd6:5l83jlMfP2B" resolve="Literal" />
    <node concept="13hLZK" id="699Tyk2wEsW" role="13h7CW">
      <node concept="3clFbS" id="699Tyk2wEsX" role="2VODD2" />
    </node>
    <node concept="13i0hz" id="6IDtJdljdZ_" role="13h7CS">
      <property role="TrG5h" value="isCompileTimeConstant" />
      <property role="13i0it" value="false" />
      <property role="13i0iv" value="false" />
      <ref role="13i0hy" node="6IDtJdlj7J2" resolve="isCompileTimeConstant" />
      <node concept="3Tm1VV" id="6IDtJdljdZA" role="1B3o_S" />
      <node concept="3clFbS" id="6IDtJdljdZD" role="3clF47">
        <node concept="3clFbF" id="6IDtJdlje0b" role="3cqZAp">
          <node concept="3clFbT" id="6IDtJdlje0a" role="3clFbG">
            <property role="3clFbU" value="true" />
          </node>
        </node>
      </node>
      <node concept="10P_77" id="6IDtJdljdZE" role="3clF45" />
    </node>
  </node>
  <node concept="13h7C7" id="699Tyk2wJy2">
    <property role="3GE5qa" value="expr" />
    <ref role="13h7C2" to="pfd6:3SvAy0XKTvE" resolve="VectorElementAccess" />
    <node concept="13hLZK" id="699Tyk2wJy3" role="13h7CW">
      <node concept="3clFbS" id="699Tyk2wJy4" role="2VODD2" />
    </node>
    <node concept="13i0hz" id="6IDtJdljn9Q" role="13h7CS">
      <property role="TrG5h" value="isCompileTimeConstant" />
      <property role="13i0it" value="false" />
      <property role="13i0iv" value="false" />
      <ref role="13i0hy" node="6IDtJdlj7J2" resolve="isCompileTimeConstant" />
      <node concept="3Tm1VV" id="6IDtJdljn9R" role="1B3o_S" />
      <node concept="3clFbS" id="6IDtJdljn9U" role="3clF47">
        <node concept="3clFbF" id="6IDtJdljn9X" role="3cqZAp">
          <node concept="3clFbT" id="6IDtJdljn9W" role="3clFbG" />
        </node>
      </node>
      <node concept="10P_77" id="6IDtJdljn9V" role="3clF45" />
    </node>
  </node>
  <node concept="13h7C7" id="dkQEiEVbmL">
    <ref role="13h7C2" to="pfd6:5l83jlMf$Lu" resolve="AssignmentExpression" />
    <node concept="13hLZK" id="dkQEiEVbmM" role="13h7CW">
      <node concept="3clFbS" id="dkQEiEVbmN" role="2VODD2" />
    </node>
    <node concept="13i0hz" id="6IDtJdljdRS" role="13h7CS">
      <property role="TrG5h" value="isCompileTimeConstant" />
      <property role="13i0it" value="false" />
      <property role="13i0iv" value="false" />
      <ref role="13i0hy" node="6IDtJdlj7J2" resolve="isCompileTimeConstant" />
      <node concept="3Tm1VV" id="6IDtJdljdRT" role="1B3o_S" />
      <node concept="3clFbS" id="6IDtJdljdRW" role="3clF47">
        <node concept="3clFbF" id="6IDtJdljdRZ" role="3cqZAp">
          <node concept="3clFbT" id="6IDtJdljdRY" role="3clFbG" />
        </node>
      </node>
      <node concept="10P_77" id="6IDtJdljdRX" role="3clF45" />
    </node>
  </node>
  <node concept="13h7C7" id="2NTMEjkUe$M">
    <property role="3GE5qa" value="types" />
    <ref role="13h7C2" to="pfd6:6fgLCPsByeK" resolve="ITyped" />
    <node concept="13i0hz" id="2NTMEjkUeG0" role="13h7CS">
      <property role="13i0iv" value="true" />
      <property role="13i0it" value="true" />
      <property role="TrG5h" value="getType" />
      <node concept="3Tm1VV" id="2NTMEjkUeG1" role="1B3o_S" />
      <node concept="3Tqbb2" id="2NTMEjkUeUA" role="3clF45">
        <ref role="ehGHo" to="pfd6:6fgLCPsAWoz" resolve="Type" />
      </node>
      <node concept="3clFbS" id="2NTMEjkUeG3" role="3clF47" />
    </node>
    <node concept="13hLZK" id="2NTMEjkUe$N" role="13h7CW">
      <node concept="3clFbS" id="2NTMEjkUe$O" role="2VODD2" />
    </node>
  </node>
  <node concept="13h7C7" id="2NTMEjl5OEd">
    <property role="3GE5qa" value="variables" />
    <ref role="13h7C2" to="tpee:4H$HgYMZ7sw" resolve="IVariableDeclaration" />
    <node concept="13i0hz" id="2NTMEjl5P09" role="13h7CS">
      <property role="13i0iv" value="true" />
      <property role="13i0it" value="true" />
      <property role="TrG5h" value="getType" />
      <node concept="3Tm1VV" id="2NTMEjl5P0a" role="1B3o_S" />
      <node concept="3Tqbb2" id="2NTMEjl5P0h" role="3clF45">
        <ref role="ehGHo" to="tpck:hYa1RjM" resolve="IType" />
      </node>
      <node concept="3clFbS" id="2NTMEjl5P0c" role="3clF47" />
    </node>
    <node concept="13hLZK" id="2NTMEjl5OEe" role="13h7CW">
      <node concept="3clFbS" id="2NTMEjl5OEf" role="2VODD2" />
    </node>
  </node>
  <node concept="13h7C7" id="2Xvn13HhzWP">
    <property role="3GE5qa" value="literals.boolean" />
    <ref role="13h7C2" to="pfd6:5l83jlMfP4s" resolve="TrueLiteral" />
    <node concept="13hLZK" id="2Xvn13HhzWQ" role="13h7CW">
      <node concept="3clFbS" id="2Xvn13HhzWR" role="2VODD2">
        <node concept="3clFbF" id="2Xvn13Hh$iM" role="3cqZAp">
          <node concept="37vLTI" id="2Xvn13Hh$Pd" role="3clFbG">
            <node concept="3clFbT" id="2Xvn13Hh$PJ" role="37vLTx">
              <property role="3clFbU" value="true" />
            </node>
            <node concept="2OqwBi" id="2Xvn13Hh$kV" role="37vLTJ">
              <node concept="13iPFW" id="2Xvn13Hh$iL" role="2Oq$k0" />
              <node concept="3TrcHB" id="2Xvn13Hh$xy" role="2OqNvi">
                <ref role="3TsBF5" to="pfd6:6IDtJdlkt6l" resolve="value" />
              </node>
            </node>
          </node>
        </node>
      </node>
    </node>
  </node>
  <node concept="13h7C7" id="2Xvn13Hh_7i">
    <property role="3GE5qa" value="literals.boolean" />
    <ref role="13h7C2" to="pfd6:5l83jlMfP4H" resolve="FalseLiteral" />
    <node concept="13hLZK" id="2Xvn13Hh_7j" role="13h7CW">
      <node concept="3clFbS" id="2Xvn13Hh_7k" role="2VODD2">
        <node concept="3clFbF" id="2Xvn13Hh_7m" role="3cqZAp">
          <node concept="37vLTI" id="2Xvn13Hh_DL" role="3clFbG">
            <node concept="3clFbT" id="2Xvn13Hh_Eb" role="37vLTx">
              <property role="3clFbU" value="false" />
            </node>
            <node concept="2OqwBi" id="2Xvn13Hh_9v" role="37vLTJ">
              <node concept="13iPFW" id="2Xvn13Hh_7l" role="2Oq$k0" />
              <node concept="3TrcHB" id="2Xvn13Hh_m6" role="2OqNvi">
                <ref role="3TsBF5" to="pfd6:6IDtJdlkt6l" resolve="value" />
              </node>
            </node>
          </node>
        </node>
      </node>
    </node>
  </node>
  <node concept="13h7C7" id="6Wx7SFgen4S">
    <property role="3GE5qa" value="types" />
    <ref role="13h7C2" to="pfd6:3SvAy0XHWnV" resolve="VectorType" />
    <node concept="13hLZK" id="6Wx7SFgen4T" role="13h7CW">
      <node concept="3clFbS" id="6Wx7SFgen4U" role="2VODD2" />
    </node>
    <node concept="13i0hz" id="6Wx7SFghjLl" role="13h7CS">
      <property role="TrG5h" value="isParticleListType" />
      <property role="13i0it" value="false" />
      <property role="13i0iv" value="false" />
      <ref role="13i0hy" node="1plOGK0gFH4" resolve="isParticleListType" />
      <node concept="3Tm1VV" id="6Wx7SFghjLm" role="1B3o_S" />
      <node concept="3clFbS" id="6Wx7SFghjLr" role="3clF47">
        <node concept="3cpWs6" id="6Wx7SFghjNa" role="3cqZAp">
          <node concept="2OqwBi" id="6Wx7SFghkn5" role="3cqZAk">
            <node concept="2OqwBi" id="6Wx7SFghjRX" role="2Oq$k0">
              <node concept="13iPFW" id="6Wx7SFghjOL" role="2Oq$k0" />
              <node concept="3TrEf2" id="6Wx7SFghk6n" role="2OqNvi">
                <ref role="3Tt5mk" to="pfd6:3SvAy0XHWz0" />
              </node>
            </node>
            <node concept="1mIQ4w" id="6Wx7SFghkwk" role="2OqNvi">
              <node concept="chp4Y" id="6Wx7SFghkxQ" role="cj9EA">
                <ref role="cht4Q" to="2gyk:5gQ2EqXQH6v" resolve="ParticleType" />
              </node>
            </node>
          </node>
        </node>
      </node>
      <node concept="10P_77" id="6Wx7SFghjLs" role="3clF45" />
    </node>
    <node concept="13i0hz" id="5nlyqYpsOdo" role="13h7CS">
      <property role="13i0is" value="false" />
      <property role="TrG5h" value="getPresentation" />
      <property role="13i0it" value="false" />
      <property role="13i0iv" value="false" />
      <ref role="13i0hy" to="tpcu:hEwIMiw" resolve="getPresentation" />
      <node concept="3Tm1VV" id="5nlyqYpsOew" role="1B3o_S" />
      <node concept="3clFbS" id="5nlyqYpsOgJ" role="3clF47">
        <node concept="3cpWs8" id="5nlyqYpsRVR" role="3cqZAp">
          <node concept="3cpWsn" id="5nlyqYpsRVS" role="3cpWs9">
            <property role="TrG5h" value="sb" />
            <node concept="3uibUv" id="5nlyqYpsRVT" role="1tU5fm">
              <ref role="3uigEE" to="e2lb:~StringBuilder" resolve="StringBuilder" />
            </node>
            <node concept="2OqwBi" id="5nlyqYpsXWi" role="33vP2m">
              <node concept="2OqwBi" id="5nlyqYpsXeX" role="2Oq$k0">
                <node concept="2ShNRf" id="5nlyqYpsS0a" role="2Oq$k0">
                  <node concept="1pGfFk" id="5nlyqYpsWRX" role="2ShVmc">
                    <ref role="37wK5l" to="e2lb:~StringBuilder.&lt;init&gt;(java.lang.String)" resolve="StringBuilder" />
                    <node concept="Xl_RD" id="5nlyqYptaVN" role="37wK5m">
                      <property role="Xl_RC" value="vector" />
                    </node>
                  </node>
                </node>
                <node concept="liA8E" id="5nlyqYpsXKF" role="2OqNvi">
                  <ref role="37wK5l" to="e2lb:~StringBuilder.append(java.lang.String):java.lang.StringBuilder" resolve="append" />
                  <node concept="Xl_RD" id="5nlyqYpsXM6" role="37wK5m">
                    <property role="Xl_RC" value="&lt;" />
                  </node>
                </node>
              </node>
              <node concept="liA8E" id="5nlyqYpsYCj" role="2OqNvi">
                <ref role="37wK5l" to="e2lb:~StringBuilder.append(java.lang.String):java.lang.StringBuilder" resolve="append" />
                <node concept="2OqwBi" id="5nlyqYpsZuF" role="37wK5m">
                  <node concept="2OqwBi" id="5nlyqYpsYIK" role="2Oq$k0">
                    <node concept="13iPFW" id="5nlyqYpsYET" role="2Oq$k0" />
                    <node concept="3TrEf2" id="5nlyqYpsZdf" role="2OqNvi">
                      <ref role="3Tt5mk" to="pfd6:3SvAy0XHWz0" />
                    </node>
                  </node>
                  <node concept="2qgKlT" id="5nlyqYpsZNt" role="2OqNvi">
                    <ref role="37wK5l" to="tpcu:hEwIMiw" resolve="getPresentation" />
                  </node>
                </node>
              </node>
            </node>
          </node>
        </node>
        <node concept="3clFbJ" id="5nlyqYpt091" role="3cqZAp">
          <node concept="3clFbS" id="5nlyqYpt093" role="3clFbx">
            <node concept="3clFbJ" id="5nlyqYptgIu" role="3cqZAp">
              <node concept="3clFbS" id="5nlyqYptgIw" role="3clFbx">
                <node concept="3clFbF" id="5nlyqYpt11s" role="3cqZAp">
                  <node concept="2OqwBi" id="5nlyqYpt1rw" role="3clFbG">
                    <node concept="2OqwBi" id="5nlyqYpt14v" role="2Oq$k0">
                      <node concept="37vLTw" id="5nlyqYpt11q" role="2Oq$k0">
                        <ref role="3cqZAo" node="5nlyqYpsRVS" resolve="sb" />
                      </node>
                      <node concept="liA8E" id="5nlyqYpt1js" role="2OqNvi">
                        <ref role="37wK5l" to="e2lb:~StringBuilder.append(java.lang.String):java.lang.StringBuilder" resolve="append" />
                        <node concept="Xl_RD" id="5nlyqYpt1jY" role="37wK5m">
                          <property role="Xl_RC" value=", " />
                        </node>
                      </node>
                    </node>
                    <node concept="liA8E" id="5nlyqYpt1SG" role="2OqNvi">
                      <ref role="37wK5l" to="e2lb:~StringBuilder.append(java.lang.Object):java.lang.StringBuilder" resolve="append" />
                      <node concept="0kSF2" id="5nlyqYptijC" role="37wK5m">
                        <node concept="3uibUv" id="5nlyqYptirv" role="0kSFW">
                          <ref role="3uigEE" to="e2lb:~Integer" resolve="Integer" />
                        </node>
                        <node concept="2OqwBi" id="5nlyqYpt2BV" role="0kSFX">
                          <node concept="2OqwBi" id="5nlyqYpt26q" role="2Oq$k0">
                            <node concept="13iPFW" id="5nlyqYpt22M" role="2Oq$k0" />
                            <node concept="3TrEf2" id="5nlyqYpt2oe" role="2OqNvi">
                              <ref role="3Tt5mk" to="pfd6:5nlyqYp8A3k" />
                            </node>
                          </node>
                          <node concept="2qgKlT" id="5nlyqYptidl" role="2OqNvi">
                            <ref role="37wK5l" node="7NL3iVCCIMl" resolve="getCompileTimeConstant" />
                          </node>
                        </node>
                      </node>
                    </node>
                  </node>
                </node>
              </node>
              <node concept="2OqwBi" id="5nlyqYpthl1" role="3clFbw">
                <node concept="2OqwBi" id="5nlyqYptgQ3" role="2Oq$k0">
                  <node concept="13iPFW" id="5nlyqYptgMw" role="2Oq$k0" />
                  <node concept="3TrEf2" id="5nlyqYpth4U" role="2OqNvi">
                    <ref role="3Tt5mk" to="pfd6:5nlyqYp8A3k" />
                  </node>
                </node>
                <node concept="2qgKlT" id="5nlyqYpthtK" role="2OqNvi">
                  <ref role="37wK5l" node="6IDtJdlj7J2" resolve="isCompileTimeConstant" />
                </node>
              </node>
            </node>
          </node>
          <node concept="2OqwBi" id="5nlyqYpt0P_" role="3clFbw">
            <node concept="2OqwBi" id="5nlyqYpt0kL" role="2Oq$k0">
              <node concept="13iPFW" id="5nlyqYpt0gj" role="2Oq$k0" />
              <node concept="3TrEf2" id="5nlyqYpt0_V" role="2OqNvi">
                <ref role="3Tt5mk" to="pfd6:5nlyqYp8A3k" />
              </node>
            </node>
            <node concept="3x8VRR" id="5nlyqYpt108" role="2OqNvi" />
          </node>
        </node>
        <node concept="3clFbF" id="5nlyqYpt30Z" role="3cqZAp">
          <node concept="2OqwBi" id="5nlyqYpt3bN" role="3clFbG">
            <node concept="37vLTw" id="5nlyqYpt30X" role="2Oq$k0">
              <ref role="3cqZAo" node="5nlyqYpsRVS" resolve="sb" />
            </node>
            <node concept="liA8E" id="5nlyqYpt3sW" role="2OqNvi">
              <ref role="37wK5l" to="e2lb:~StringBuilder.append(java.lang.String):java.lang.StringBuilder" resolve="append" />
              <node concept="Xl_RD" id="5nlyqYpt3vF" role="37wK5m">
                <property role="Xl_RC" value="&gt;" />
              </node>
            </node>
          </node>
        </node>
        <node concept="3cpWs6" id="5nlyqYpsOs0" role="3cqZAp">
          <node concept="2OqwBi" id="5nlyqYpt3EQ" role="3cqZAk">
            <node concept="37vLTw" id="5nlyqYpt3zN" role="2Oq$k0">
              <ref role="3cqZAo" node="5nlyqYpsRVS" resolve="sb" />
            </node>
            <node concept="liA8E" id="5nlyqYpt3W_" role="2OqNvi">
              <ref role="37wK5l" to="e2lb:~StringBuilder.toString():java.lang.String" resolve="toString" />
            </node>
          </node>
        </node>
      </node>
      <node concept="17QB3L" id="5nlyqYpsOgK" role="3clF45" />
    </node>
  </node>
  <node concept="13h7C7" id="7NL3iVCCKbt">
    <property role="3GE5qa" value="literals" />
    <ref role="13h7C2" to="pfd6:m1E9k98BVA" resolve="IntegerLiteral" />
    <node concept="13hLZK" id="7NL3iVCCKbu" role="13h7CW">
      <node concept="3clFbS" id="7NL3iVCCKbv" role="2VODD2" />
    </node>
    <node concept="13i0hz" id="7NL3iVCDLkS" role="13h7CS">
      <property role="TrG5h" value="getCompileTimeConstant" />
      <property role="13i0it" value="false" />
      <property role="13i0iv" value="false" />
      <ref role="13i0hy" node="7NL3iVCCIMl" resolve="getCompileTimeConstant" />
      <node concept="3Tm1VV" id="7NL3iVCDLkT" role="1B3o_S" />
      <node concept="3clFbS" id="7NL3iVCDLkY" role="3clF47">
        <node concept="3cpWs6" id="7NL3iVCDLl3" role="3cqZAp">
          <node concept="2OqwBi" id="7NL3iVCDLu$" role="3cqZAk">
            <node concept="13iPFW" id="7NL3iVCDLsf" role="2Oq$k0" />
            <node concept="3TrcHB" id="7NL3iVCDLDw" role="2OqNvi">
              <ref role="3TsBF5" to="pfd6:m1E9k98YZm" resolve="value" />
            </node>
          </node>
        </node>
      </node>
      <node concept="3uibUv" id="7NL3iVCDLkZ" role="3clF45">
        <ref role="3uigEE" to="e2lb:~Object" resolve="Object" />
      </node>
    </node>
  </node>
</model>

