<?xml version="1.0" encoding="UTF-8"?>
<model ref="r:680bd1b1-ab31-4a9e-84a7-3379439db03a(de.ppme.expressions.editor)">
  <persistence version="9" />
  <languages>
    <use id="18bc6592-03a6-4e29-a83a-7ff23bde13ba" name="jetbrains.mps.lang.editor" version="-1" />
    <devkit ref="fbc25dd2-5da4-483a-8b19-70928e1b62d7(jetbrains.mps.devkit.general-purpose)" />
  </languages>
  <imports>
    <import index="pfd6" ref="r:9e939139-f0d1-4eb5-9ac6-55348163d9b2(de.ppme.expressions.structure)" />
    <import index="tpch" ref="r:00000000-0000-4000-0000-011c8959028d(jetbrains.mps.lang.structure.editor)" />
    <import index="tpco" ref="r:00000000-0000-4000-0000-011c89590284(jetbrains.mps.lang.core.editor)" />
    <import index="t3eg" ref="8865b7a8-5271-43d3-884c-6fd1d9cfdd34/f:java_stub#8865b7a8-5271-43d3-884c-6fd1d9cfdd34#org.jetbrains.mps.openapi.language(MPS.OpenAPI/org.jetbrains.mps.openapi.language@java_stub)" />
    <import index="tpen" ref="r:00000000-0000-4000-0000-011c895902c3(jetbrains.mps.baseLanguage.editor)" />
    <import index="eqcn" ref="r:84ce93e4-8a21-447c-8911-c0a4415308db(de.ppme.base.editor)" />
  </imports>
  <registry>
    <language id="18bc6592-03a6-4e29-a83a-7ff23bde13ba" name="jetbrains.mps.lang.editor">
      <concept id="1402906326895675325" name="jetbrains.mps.lang.editor.structure.CellActionMap_FunctionParm_selectedNode" flags="nn" index="0IXxy" />
      <concept id="1071666914219" name="jetbrains.mps.lang.editor.structure.ConceptEditorDeclaration" flags="ig" index="24kQdi" />
      <concept id="1140524381322" name="jetbrains.mps.lang.editor.structure.CellModel_ListWithRole" flags="ng" index="2czfm3">
        <property id="1140524450557" name="separatorText" index="2czwfO" />
        <child id="1140524464360" name="cellLayout" index="2czzBx" />
      </concept>
      <concept id="1106270571710" name="jetbrains.mps.lang.editor.structure.CellLayout_Vertical" flags="nn" index="2iRkQZ" />
      <concept id="1237303669825" name="jetbrains.mps.lang.editor.structure.CellLayout_Indent" flags="nn" index="l2Vlx" />
      <concept id="1142886221719" name="jetbrains.mps.lang.editor.structure.QueryFunction_NodeCondition" flags="in" index="pkWqt" />
      <concept id="1142886811589" name="jetbrains.mps.lang.editor.structure.ConceptFunctionParameter_node" flags="nn" index="pncrf" />
      <concept id="1080736578640" name="jetbrains.mps.lang.editor.structure.BaseEditorComponent" flags="ig" index="2wURMF">
        <child id="1080736633877" name="cellModel" index="2wV5jI" />
      </concept>
      <concept id="3547227755871693971" name="jetbrains.mps.lang.editor.structure.PredefinedSelector" flags="ng" index="2B6iha">
        <property id="2162403111523065396" name="cellId" index="1lyBwo" />
      </concept>
      <concept id="1078939183254" name="jetbrains.mps.lang.editor.structure.CellModel_Component" flags="sg" stub="3162947552742194261" index="PMmxH">
        <reference id="1078939183255" name="editorComponent" index="PMmxG" />
      </concept>
      <concept id="4323500428121233431" name="jetbrains.mps.lang.editor.structure.EditorCellId" flags="ng" index="2SqB2G" />
      <concept id="1214320119173" name="jetbrains.mps.lang.editor.structure.SideTransformAnchorTagStyleClassItem" flags="ln" index="2V7CMv">
        <property id="1214320119174" name="tag" index="2V7CMs" />
      </concept>
      <concept id="1186414536763" name="jetbrains.mps.lang.editor.structure.BooleanStyleSheetItem" flags="ln" index="VOi$J">
        <property id="1186414551515" name="flag" index="VOm3f" />
      </concept>
      <concept id="1186414928363" name="jetbrains.mps.lang.editor.structure.SelectableStyleSheetItem" flags="ln" index="VPM3Z" />
      <concept id="1233758997495" name="jetbrains.mps.lang.editor.structure.PunctuationLeftStyleClassItem" flags="ln" index="11L4FC" />
      <concept id="1233759184865" name="jetbrains.mps.lang.editor.structure.PunctuationRightStyleClassItem" flags="ln" index="11LMrY" />
      <concept id="1139535219966" name="jetbrains.mps.lang.editor.structure.CellActionMapDeclaration" flags="ig" index="1h_SRR">
        <reference id="1139535219968" name="applicableConcept" index="1h_SK9" />
        <child id="1139535219969" name="item" index="1h_SK8" />
      </concept>
      <concept id="1139535280617" name="jetbrains.mps.lang.editor.structure.CellActionMapItem" flags="lg" index="1hA7zw">
        <property id="1139535298778" name="actionId" index="1hAc7j" />
        <property id="1139537298254" name="description" index="1hHO97" />
        <child id="1139535280620" name="executeFunction" index="1hA7z_" />
      </concept>
      <concept id="1139535439104" name="jetbrains.mps.lang.editor.structure.CellActionMap_ExecuteFunction" flags="in" index="1hAIg9" />
      <concept id="1381004262292414836" name="jetbrains.mps.lang.editor.structure.ICellStyle" flags="ng" index="1k5N5V">
        <reference id="1381004262292426837" name="parentStyleClass" index="1k5W1q" />
      </concept>
      <concept id="1075375595203" name="jetbrains.mps.lang.editor.structure.CellModel_Error" flags="sg" stub="8104358048506729356" index="1xolST">
        <property id="1075375595204" name="text" index="1xolSY" />
      </concept>
      <concept id="1139848536355" name="jetbrains.mps.lang.editor.structure.CellModel_WithRole" flags="ng" index="1$h60E">
        <property id="1139852716018" name="noTargetText" index="1$x2rV" />
        <reference id="1140103550593" name="relationDeclaration" index="1NtTu8" />
      </concept>
      <concept id="1073389214265" name="jetbrains.mps.lang.editor.structure.EditorCellModel" flags="ng" index="3EYTF0">
        <reference id="1139959269582" name="actionMap" index="1ERwB7" />
        <child id="1142887637401" name="renderingCondition" index="pqm2j" />
        <child id="4323500428121274054" name="id" index="2SqHTX" />
      </concept>
      <concept id="1073389446423" name="jetbrains.mps.lang.editor.structure.CellModel_Collection" flags="sn" stub="3013115976261988961" index="3EZMnI">
        <child id="1106270802874" name="cellLayout" index="2iSdaV" />
        <child id="1073389446424" name="childCellModel" index="3EZMnx" />
      </concept>
      <concept id="1073389577006" name="jetbrains.mps.lang.editor.structure.CellModel_Constant" flags="sn" stub="3610246225209162225" index="3F0ifn">
        <property id="1073389577007" name="text" index="3F0ifm" />
      </concept>
      <concept id="1073389658414" name="jetbrains.mps.lang.editor.structure.CellModel_Property" flags="sg" stub="730538219796134133" index="3F0A7n" />
      <concept id="1219418625346" name="jetbrains.mps.lang.editor.structure.IStyleContainer" flags="ng" index="3F0Thp">
        <child id="1219418656006" name="styleItem" index="3F10Kt" />
      </concept>
      <concept id="1073389882823" name="jetbrains.mps.lang.editor.structure.CellModel_RefNode" flags="sg" stub="730538219795960754" index="3F1sOY" />
      <concept id="1073390211982" name="jetbrains.mps.lang.editor.structure.CellModel_RefNodeList" flags="sg" stub="2794558372793454595" index="3F2HdR" />
      <concept id="3647146066980922272" name="jetbrains.mps.lang.editor.structure.SelectInEditorOperation" flags="nn" index="1OKiuA">
        <child id="1948540814633499358" name="editorContext" index="lBI5i" />
        <child id="1948540814635895774" name="cellSelector" index="lGT1i" />
        <child id="3604384757217586546" name="selectionStart" index="3dN3m$" />
      </concept>
      <concept id="1161622981231" name="jetbrains.mps.lang.editor.structure.ConceptFunctionParameter_editorContext" flags="nn" index="1Q80Hx" />
      <concept id="1088612959204" name="jetbrains.mps.lang.editor.structure.CellModel_Alternation" flags="sg" stub="8104358048506729361" index="1QoScp">
        <property id="1088613081987" name="vertical" index="1QpmdY" />
        <child id="1145918517974" name="alternationCondition" index="3e4ffs" />
        <child id="1088612958265" name="ifTrueCellModel" index="1QoS34" />
        <child id="1088612973955" name="ifFalseCellModel" index="1QoVPY" />
      </concept>
      <concept id="1166049232041" name="jetbrains.mps.lang.editor.structure.AbstractComponent" flags="ng" index="1XWOmA">
        <reference id="1166049300910" name="conceptDeclaration" index="1XX52x" />
      </concept>
    </language>
    <language id="f3061a53-9226-4cc5-a443-f952ceaf5816" name="jetbrains.mps.baseLanguage">
      <concept id="1215693861676" name="jetbrains.mps.baseLanguage.structure.BaseAssignmentExpression" flags="nn" index="d038R">
        <child id="1068498886297" name="rValue" index="37vLTx" />
        <child id="1068498886295" name="lValue" index="37vLTJ" />
      </concept>
      <concept id="1202948039474" name="jetbrains.mps.baseLanguage.structure.InstanceMethodCallOperation" flags="nn" index="liA8E" />
      <concept id="1197027756228" name="jetbrains.mps.baseLanguage.structure.DotExpression" flags="nn" index="2OqwBi">
        <child id="1197027771414" name="operand" index="2Oq$k0" />
        <child id="1197027833540" name="operation" index="2OqNvi" />
      </concept>
      <concept id="1137021947720" name="jetbrains.mps.baseLanguage.structure.ConceptFunction" flags="in" index="2VMwT0">
        <child id="1137022507850" name="body" index="2VODD2" />
      </concept>
      <concept id="1070534058343" name="jetbrains.mps.baseLanguage.structure.NullLiteral" flags="nn" index="10Nm6u" />
      <concept id="1068431474542" name="jetbrains.mps.baseLanguage.structure.VariableDeclaration" flags="ng" index="33uBYm">
        <child id="1068431790190" name="initializer" index="33vP2m" />
      </concept>
      <concept id="1068498886296" name="jetbrains.mps.baseLanguage.structure.VariableReference" flags="nn" index="37vLTw">
        <reference id="1068581517664" name="variableDeclaration" index="3cqZAo" />
      </concept>
      <concept id="1068498886294" name="jetbrains.mps.baseLanguage.structure.AssignmentExpression" flags="nn" index="37vLTI" />
      <concept id="4972933694980447171" name="jetbrains.mps.baseLanguage.structure.BaseVariableDeclaration" flags="ng" index="19Szcq">
        <child id="5680397130376446158" name="type" index="1tU5fm" />
      </concept>
      <concept id="1068580123152" name="jetbrains.mps.baseLanguage.structure.EqualsExpression" flags="nn" index="3clFbC" />
      <concept id="1068580123155" name="jetbrains.mps.baseLanguage.structure.ExpressionStatement" flags="nn" index="3clFbF">
        <child id="1068580123156" name="expression" index="3clFbG" />
      </concept>
      <concept id="1068580123157" name="jetbrains.mps.baseLanguage.structure.Statement" flags="nn" index="3clFbH" />
      <concept id="1068580123159" name="jetbrains.mps.baseLanguage.structure.IfStatement" flags="nn" index="3clFbJ">
        <child id="1068580123160" name="condition" index="3clFbw" />
        <child id="1068580123161" name="ifTrue" index="3clFbx" />
      </concept>
      <concept id="1068580123136" name="jetbrains.mps.baseLanguage.structure.StatementList" flags="sn" stub="5293379017992965193" index="3clFbS">
        <child id="1068581517665" name="statement" index="3cqZAp" />
      </concept>
      <concept id="1068580320020" name="jetbrains.mps.baseLanguage.structure.IntegerConstant" flags="nn" index="3cmrfG">
        <property id="1068580320021" name="value" index="3cmrfH" />
      </concept>
      <concept id="1068581242864" name="jetbrains.mps.baseLanguage.structure.LocalVariableDeclarationStatement" flags="nn" index="3cpWs8">
        <child id="1068581242865" name="localVariableDeclaration" index="3cpWs9" />
      </concept>
      <concept id="1068581242863" name="jetbrains.mps.baseLanguage.structure.LocalVariableDeclaration" flags="nr" index="3cpWsn" />
      <concept id="1081506762703" name="jetbrains.mps.baseLanguage.structure.GreaterThanExpression" flags="nn" index="3eOSWO" />
      <concept id="1081516740877" name="jetbrains.mps.baseLanguage.structure.NotExpression" flags="nn" index="3fqX7Q">
        <child id="1081516765348" name="expression" index="3fr31v" />
      </concept>
      <concept id="1204053956946" name="jetbrains.mps.baseLanguage.structure.IMethodCall" flags="ng" index="1ndlxa">
        <reference id="1068499141037" name="baseMethodDeclaration" index="37wK5l" />
      </concept>
      <concept id="1081773326031" name="jetbrains.mps.baseLanguage.structure.BinaryOperation" flags="nn" index="3uHJSO">
        <child id="1081773367579" name="rightExpression" index="3uHU7w" />
        <child id="1081773367580" name="leftExpression" index="3uHU7B" />
      </concept>
      <concept id="1080120340718" name="jetbrains.mps.baseLanguage.structure.AndExpression" flags="nn" index="1Wc70l" />
    </language>
    <language id="7866978e-a0f0-4cc7-81bc-4d213d9375e1" name="jetbrains.mps.lang.smodel">
      <concept id="1177026924588" name="jetbrains.mps.lang.smodel.structure.RefConcept_Reference" flags="nn" index="chp4Y">
        <reference id="1177026940964" name="conceptDeclaration" index="cht4Q" />
      </concept>
      <concept id="1138411891628" name="jetbrains.mps.lang.smodel.structure.SNodeOperation" flags="nn" index="eCIE_">
        <child id="1144104376918" name="parameter" index="1xVPHs" />
      </concept>
      <concept id="7453996997717780434" name="jetbrains.mps.lang.smodel.structure.Node_GetSConceptOperation" flags="nn" index="2yIwOk" />
      <concept id="1171305280644" name="jetbrains.mps.lang.smodel.structure.Node_GetDescendantsOperation" flags="nn" index="2Rf3mk" />
      <concept id="1139621453865" name="jetbrains.mps.lang.smodel.structure.Node_IsInstanceOfOperation" flags="nn" index="1mIQ4w">
        <child id="1177027386292" name="conceptArgument" index="cj9EA" />
      </concept>
      <concept id="1172008320231" name="jetbrains.mps.lang.smodel.structure.Node_IsNotNullOperation" flags="nn" index="3x8VRR" />
      <concept id="1144101972840" name="jetbrains.mps.lang.smodel.structure.OperationParm_Concept" flags="ng" index="1xMEDy">
        <child id="1207343664468" name="conceptArgument" index="ri$Ld" />
      </concept>
      <concept id="1140131837776" name="jetbrains.mps.lang.smodel.structure.Node_ReplaceWithAnotherOperation" flags="nn" index="1P9Npp">
        <child id="1140131861877" name="replacementNode" index="1P9ThW" />
      </concept>
      <concept id="1138055754698" name="jetbrains.mps.lang.smodel.structure.SNodeType" flags="in" index="3Tqbb2">
        <reference id="1138405853777" name="concept" index="ehGHo" />
      </concept>
      <concept id="1138056143562" name="jetbrains.mps.lang.smodel.structure.SLinkAccess" flags="nn" index="3TrEf2">
        <reference id="1138056516764" name="link" index="3Tt5mk" />
      </concept>
    </language>
    <language id="ceab5195-25ea-4f22-9b92-103b95ca8c0c" name="jetbrains.mps.lang.core">
      <concept id="1133920641626" name="jetbrains.mps.lang.core.structure.BaseConcept" flags="ng" index="2VYdi">
        <property id="1193676396447" name="virtualPackage" index="3GE5qa" />
      </concept>
      <concept id="1169194658468" name="jetbrains.mps.lang.core.structure.INamedConcept" flags="ng" index="TrEIO">
        <property id="1169194664001" name="name" index="TrG5h" />
      </concept>
    </language>
    <language id="83888646-71ce-4f1c-9c53-c54016f6ad4f" name="jetbrains.mps.baseLanguage.collections">
      <concept id="1162935959151" name="jetbrains.mps.baseLanguage.collections.structure.GetSizeOperation" flags="nn" index="34oBXx" />
    </language>
  </registry>
  <node concept="24kQdi" id="5l83jlMfAMM">
    <property role="3GE5qa" value="expr" />
    <ref role="1XX52x" to="pfd6:5l83jlMf$Lk" resolve="BinaryExpression" />
    <node concept="3EZMnI" id="5l83jlMfAMO" role="2wV5jI">
      <node concept="3F1sOY" id="5l83jlMfAOv" role="3EZMnx">
        <property role="1$x2rV" value="..." />
        <ref role="1NtTu8" to="pfd6:5l83jlMf$RD" />
        <ref role="1ERwB7" node="1AGkceJlpvC" resolve="BinaryExpression_Left_Actions" />
      </node>
      <node concept="PMmxH" id="5l83jlMfAN2" role="3EZMnx">
        <ref role="PMmxG" to="tpco:2wZex4PafBj" resolve="alias" />
        <ref role="1k5W1q" to="eqcn:5l83jlMgWkl" resolve="Operator" />
        <ref role="1ERwB7" node="1AGkceJl9Ox" resolve="BinaryExpression_Symbol_Actions" />
      </node>
      <node concept="3F1sOY" id="5l83jlMfANV" role="3EZMnx">
        <property role="1$x2rV" value="..." />
        <ref role="1NtTu8" to="pfd6:5l83jlMf$RF" />
        <ref role="1ERwB7" node="1AGkceJlFNN" resolve="BinaryExpression_Right_Actions" />
      </node>
      <node concept="l2Vlx" id="5l83jlMfAMR" role="2iSdaV" />
    </node>
  </node>
  <node concept="24kQdi" id="5l83jlMfFCi">
    <property role="3GE5qa" value="expr" />
    <ref role="1XX52x" to="pfd6:5l83jlMf$Lb" resolve="Expression" />
    <node concept="1QoScp" id="5l83jlMfFCk" role="2wV5jI">
      <property role="1QpmdY" value="true" />
      <node concept="pkWqt" id="5l83jlMfFCn" role="3e4ffs">
        <node concept="3clFbS" id="5l83jlMfFCp" role="2VODD2">
          <node concept="3clFbF" id="5l83jlMfFTZ" role="3cqZAp">
            <node concept="2OqwBi" id="5l83jlMfHBu" role="3clFbG">
              <node concept="2OqwBi" id="5l83jlMfGil" role="2Oq$k0">
                <node concept="pncrf" id="5l83jlMfFTY" role="2Oq$k0" />
                <node concept="2yIwOk" id="5l83jlMfHoV" role="2OqNvi" />
              </node>
              <node concept="liA8E" id="5l83jlMfHRP" role="2OqNvi">
                <ref role="37wK5l" to="t3eg:~SAbstractConcept.isAbstract():boolean" resolve="isAbstract" />
              </node>
            </node>
          </node>
        </node>
      </node>
      <node concept="PMmxH" id="5l83jlMfKoV" role="1QoVPY">
        <ref role="PMmxG" to="tpco:2wZex4PafBj" resolve="alias" />
      </node>
      <node concept="1xolST" id="5l83jlMfFR7" role="1QoS34">
        <property role="1xolSY" value="&lt;expr&gt;" />
      </node>
    </node>
  </node>
  <node concept="24kQdi" id="5l83jlMfP52">
    <property role="3GE5qa" value="literals.boolean" />
    <ref role="1XX52x" to="pfd6:5l83jlMfP4a" resolve="BooleanLiteral" />
    <node concept="3EZMnI" id="2Xvn13Hcgm4" role="2wV5jI">
      <node concept="l2Vlx" id="2Xvn13Hcgm5" role="2iSdaV" />
      <node concept="PMmxH" id="2Xvn13HcyRq" role="3EZMnx">
        <ref role="PMmxG" to="tpco:2wZex4PafBj" resolve="alias" />
        <ref role="1k5W1q" to="tpch:24YP6ZDyde4" resolve="Keyword" />
      </node>
    </node>
  </node>
  <node concept="24kQdi" id="5l83jlMfWTy">
    <ref role="1XX52x" to="pfd6:5l83jlMfWSw" resolve="Sheet" />
    <node concept="3F2HdR" id="5l83jlMfWT$" role="2wV5jI">
      <ref role="1NtTu8" to="pfd6:5l83jlMfWT7" />
      <node concept="2iRkQZ" id="5l83jlMfWTA" role="2czzBx" />
    </node>
  </node>
  <node concept="24kQdi" id="5l83jlMfYp5">
    <property role="3GE5qa" value="literals.real" />
    <ref role="1XX52x" to="pfd6:5l83jlMfYoB" resolve="DecimalLiteral" />
    <node concept="3EZMnI" id="m1E9k9enBZ" role="2wV5jI">
      <node concept="l2Vlx" id="m1E9k9enC0" role="2iSdaV" />
      <node concept="3F0A7n" id="5l83jlMfYp7" role="3EZMnx">
        <ref role="1NtTu8" to="pfd6:5l83jlMfYoC" resolve="value" />
        <ref role="1k5W1q" to="tpen:hshT4rC" resolve="NumericLiteral" />
      </node>
    </node>
  </node>
  <node concept="24kQdi" id="5l83jlMgWp6">
    <property role="3GE5qa" value="expr" />
    <ref role="1XX52x" to="pfd6:5l83jlMgWog" resolve="ParenthesizedExpression" />
    <node concept="3EZMnI" id="5l83jlMgWp8" role="2wV5jI">
      <node concept="3F0ifn" id="5l83jlMgW_k" role="3EZMnx">
        <property role="3F0ifm" value="(" />
        <ref role="1k5W1q" to="eqcn:5l83jlMgW$8" resolve="Parenthesis" />
        <node concept="11LMrY" id="5l83jlMgWBB" role="3F10Kt">
          <property role="VOm3f" value="true" />
        </node>
        <node concept="2SqB2G" id="5l83jlMh4ug" role="2SqHTX">
          <property role="TrG5h" value="leftParenthesis" />
        </node>
      </node>
      <node concept="3F1sOY" id="5l83jlMgWpW" role="3EZMnx">
        <ref role="1NtTu8" to="pfd6:5l83jlMfE3N" />
      </node>
      <node concept="3F0ifn" id="5l83jlMgWqL" role="3EZMnx">
        <property role="3F0ifm" value=")" />
        <ref role="1k5W1q" to="eqcn:5l83jlMgW$8" resolve="Parenthesis" />
        <node concept="11L4FC" id="5l83jlMgWD1" role="3F10Kt">
          <property role="VOm3f" value="true" />
        </node>
        <node concept="2SqB2G" id="5l83jlMh4uT" role="2SqHTX">
          <property role="TrG5h" value="rightParenthesis" />
        </node>
      </node>
      <node concept="l2Vlx" id="5l83jlMgWpb" role="2iSdaV" />
    </node>
  </node>
  <node concept="24kQdi" id="6fgLCPsB3Ao">
    <property role="3GE5qa" value="types" />
    <ref role="1XX52x" to="pfd6:6fgLCPsAWoz" resolve="Type" />
    <node concept="1QoScp" id="6fgLCPsB4uy" role="2wV5jI">
      <property role="1QpmdY" value="true" />
      <node concept="1xolST" id="6fgLCPsB4zD" role="1QoS34">
        <property role="1xolSY" value="&lt;type&gt;" />
      </node>
      <node concept="pkWqt" id="6fgLCPsB4u_" role="3e4ffs">
        <node concept="3clFbS" id="6fgLCPsB4uB" role="2VODD2">
          <node concept="3clFbF" id="6fgLCPsBke5" role="3cqZAp">
            <node concept="2OqwBi" id="6fgLCPsBwiR" role="3clFbG">
              <node concept="2OqwBi" id="6fgLCPsBkAQ" role="2Oq$k0">
                <node concept="pncrf" id="6fgLCPsBke4" role="2Oq$k0" />
                <node concept="2yIwOk" id="6fgLCPsBvSf" role="2OqNvi" />
              </node>
              <node concept="liA8E" id="6fgLCPsBw$Y" role="2OqNvi">
                <ref role="37wK5l" to="t3eg:~SAbstractConcept.isAbstract():boolean" resolve="isAbstract" />
              </node>
            </node>
          </node>
        </node>
      </node>
      <node concept="PMmxH" id="6fgLCPsB4A6" role="1QoVPY">
        <ref role="PMmxG" to="tpco:2wZex4PafBj" resolve="alias" />
      </node>
    </node>
  </node>
  <node concept="24kQdi" id="6fgLCPsBxc$">
    <property role="3GE5qa" value="types" />
    <ref role="1XX52x" to="pfd6:6fgLCPsBwMC" resolve="PrimitiveType" />
    <node concept="PMmxH" id="6fgLCPsBxcA" role="2wV5jI">
      <ref role="PMmxG" to="tpco:2wZex4PafBj" resolve="alias" />
    </node>
  </node>
  <node concept="24kQdi" id="6fgLCPsD6m9">
    <property role="3GE5qa" value="literals" />
    <ref role="1XX52x" to="pfd6:6fgLCPsD6lb" resolve="StringLiteral" />
    <node concept="3EZMnI" id="6fgLCPsD6mk" role="2wV5jI">
      <node concept="3F0ifn" id="6fgLCPsD6mu" role="3EZMnx">
        <property role="3F0ifm" value="&quot;" />
        <ref role="1k5W1q" to="eqcn:6fgLCPsD6$p" resolve="String" />
        <node concept="11LMrY" id="6fgLCPsD6oE" role="3F10Kt">
          <property role="VOm3f" value="true" />
        </node>
      </node>
      <node concept="3F0A7n" id="6fgLCPsD6mH" role="3EZMnx">
        <ref role="1NtTu8" to="pfd6:6fgLCPsD6ll" resolve="value" />
        <ref role="1k5W1q" to="eqcn:6fgLCPsD6$p" resolve="String" />
      </node>
      <node concept="3F0ifn" id="6fgLCPsD6mU" role="3EZMnx">
        <property role="3F0ifm" value="&quot;" />
        <ref role="1k5W1q" to="eqcn:6fgLCPsD6$p" resolve="String" />
        <node concept="11L4FC" id="6fgLCPsD6qs" role="3F10Kt">
          <property role="VOm3f" value="true" />
        </node>
      </node>
      <node concept="l2Vlx" id="6fgLCPsD6mn" role="2iSdaV" />
    </node>
  </node>
  <node concept="24kQdi" id="7CEicFMI1rq">
    <property role="3GE5qa" value="expr" />
    <ref role="1XX52x" to="pfd6:5l83jlMfE3M" resolve="UnaryExpression" />
    <node concept="3EZMnI" id="7CEicFMI1rs" role="2wV5jI">
      <node concept="PMmxH" id="7CEicFMI1rA" role="3EZMnx">
        <ref role="PMmxG" to="tpco:2wZex4PafBj" resolve="alias" />
        <ref role="1k5W1q" to="tpch:24YP6ZDyde4" resolve="Keyword" />
        <ref role="1ERwB7" node="7CEicFMHXb$" resolve="deleteUnaryOperation" />
        <node concept="11LMrY" id="7CEicFMIepj" role="3F10Kt">
          <property role="VOm3f" value="true" />
        </node>
      </node>
      <node concept="3F0ifn" id="7CEicFMI1sV" role="3EZMnx">
        <property role="3F0ifm" value="(" />
        <ref role="1k5W1q" to="eqcn:5l83jlMgW$8" resolve="Parenthesis" />
        <node concept="pkWqt" id="7CEicFMI1tr" role="pqm2j">
          <node concept="3clFbS" id="7CEicFMI1ts" role="2VODD2">
            <node concept="3clFbF" id="7CEicFMI1yp" role="3cqZAp">
              <node concept="1Wc70l" id="7CEicFMI2Oa" role="3clFbG">
                <node concept="3eOSWO" id="7CEicFMI57T" role="3uHU7w">
                  <node concept="3cmrfG" id="7CEicFMI5cR" role="3uHU7w">
                    <property role="3cmrfH" value="1" />
                  </node>
                  <node concept="2OqwBi" id="7CEicFMI67T" role="3uHU7B">
                    <node concept="2OqwBi" id="7CEicFMI3xg" role="2Oq$k0">
                      <node concept="2OqwBi" id="7CEicFMI34x" role="2Oq$k0">
                        <node concept="pncrf" id="7CEicFMI2VT" role="2Oq$k0" />
                        <node concept="3TrEf2" id="7CEicFMI3ih" role="2OqNvi">
                          <ref role="3Tt5mk" to="pfd6:5l83jlMfE3N" />
                        </node>
                      </node>
                      <node concept="2Rf3mk" id="7CEicFMI3KJ" role="2OqNvi">
                        <node concept="1xMEDy" id="7CEicFMI3KL" role="1xVPHs">
                          <node concept="chp4Y" id="7CEicFMI3Zj" role="ri$Ld">
                            <ref role="cht4Q" to="pfd6:5l83jlMf$Lb" resolve="Expression" />
                          </node>
                        </node>
                      </node>
                    </node>
                    <node concept="34oBXx" id="7CEicFMIa5n" role="2OqNvi" />
                  </node>
                </node>
                <node concept="3fqX7Q" id="7CEicFMI2vh" role="3uHU7B">
                  <node concept="2OqwBi" id="7CEicFMI2vj" role="3fr31v">
                    <node concept="2OqwBi" id="7CEicFMI2vk" role="2Oq$k0">
                      <node concept="pncrf" id="7CEicFMI2vl" role="2Oq$k0" />
                      <node concept="3TrEf2" id="7CEicFMI2vm" role="2OqNvi">
                        <ref role="3Tt5mk" to="pfd6:5l83jlMfE3N" />
                      </node>
                    </node>
                    <node concept="1mIQ4w" id="7CEicFMI2vn" role="2OqNvi">
                      <node concept="chp4Y" id="7CEicFMI2As" role="cj9EA">
                        <ref role="cht4Q" to="pfd6:5l83jlMfE3M" resolve="UnaryExpression" />
                      </node>
                    </node>
                  </node>
                </node>
              </node>
            </node>
          </node>
        </node>
        <node concept="11LMrY" id="7CEicFMIdNL" role="3F10Kt">
          <property role="VOm3f" value="true" />
        </node>
      </node>
      <node concept="3F1sOY" id="7CEicFMIdYx" role="3EZMnx">
        <ref role="1NtTu8" to="pfd6:5l83jlMfE3N" />
      </node>
      <node concept="3F0ifn" id="7CEicFMI1th" role="3EZMnx">
        <property role="3F0ifm" value=")" />
        <ref role="1k5W1q" to="eqcn:5l83jlMgW$8" resolve="Parenthesis" />
        <node concept="pkWqt" id="7CEicFMIajP" role="pqm2j">
          <node concept="3clFbS" id="7CEicFMIajQ" role="2VODD2">
            <node concept="3clFbF" id="7CEicFMIapF" role="3cqZAp">
              <node concept="1Wc70l" id="7CEicFMIapH" role="3clFbG">
                <node concept="3eOSWO" id="7CEicFMIapI" role="3uHU7w">
                  <node concept="3cmrfG" id="7CEicFMIapJ" role="3uHU7w">
                    <property role="3cmrfH" value="1" />
                  </node>
                  <node concept="2OqwBi" id="7CEicFMIapK" role="3uHU7B">
                    <node concept="2OqwBi" id="7CEicFMIapL" role="2Oq$k0">
                      <node concept="2OqwBi" id="7CEicFMIapM" role="2Oq$k0">
                        <node concept="pncrf" id="7CEicFMIapN" role="2Oq$k0" />
                        <node concept="3TrEf2" id="7CEicFMIapO" role="2OqNvi">
                          <ref role="3Tt5mk" to="pfd6:5l83jlMfE3N" />
                        </node>
                      </node>
                      <node concept="2Rf3mk" id="7CEicFMIapP" role="2OqNvi">
                        <node concept="1xMEDy" id="7CEicFMIapQ" role="1xVPHs">
                          <node concept="chp4Y" id="7CEicFMIapR" role="ri$Ld">
                            <ref role="cht4Q" to="pfd6:5l83jlMf$Lb" resolve="Expression" />
                          </node>
                        </node>
                      </node>
                    </node>
                    <node concept="34oBXx" id="7CEicFMIapS" role="2OqNvi" />
                  </node>
                </node>
                <node concept="3fqX7Q" id="7CEicFMIapT" role="3uHU7B">
                  <node concept="2OqwBi" id="7CEicFMIapU" role="3fr31v">
                    <node concept="2OqwBi" id="7CEicFMIapV" role="2Oq$k0">
                      <node concept="pncrf" id="7CEicFMIapW" role="2Oq$k0" />
                      <node concept="3TrEf2" id="7CEicFMIapX" role="2OqNvi">
                        <ref role="3Tt5mk" to="pfd6:5l83jlMfE3N" />
                      </node>
                    </node>
                    <node concept="1mIQ4w" id="7CEicFMIapY" role="2OqNvi">
                      <node concept="chp4Y" id="7CEicFMIapZ" role="cj9EA">
                        <ref role="cht4Q" to="pfd6:5l83jlMfE3M" resolve="UnaryExpression" />
                      </node>
                    </node>
                  </node>
                </node>
              </node>
            </node>
          </node>
        </node>
        <node concept="11L4FC" id="7CEicFMIdtr" role="3F10Kt">
          <property role="VOm3f" value="true" />
        </node>
      </node>
      <node concept="l2Vlx" id="7CEicFMI1rv" role="2iSdaV" />
    </node>
  </node>
  <node concept="1h_SRR" id="7CEicFMHXb$">
    <property role="3GE5qa" value="expr.logical" />
    <property role="TrG5h" value="deleteUnaryOperation" />
    <ref role="1h_SK9" to="pfd6:5l83jlMfE3M" resolve="UnaryExpression" />
    <node concept="1hA7zw" id="7CEicFMHXAT" role="1h_SK8">
      <property role="1hAc7j" value="delete_action_id" />
      <node concept="1hAIg9" id="7CEicFMHXAU" role="1hA7z_">
        <node concept="3clFbS" id="7CEicFMHXAV" role="2VODD2">
          <node concept="3clFbF" id="7CEicFMHXFb" role="3cqZAp">
            <node concept="2OqwBi" id="7CEicFMHXGW" role="3clFbG">
              <node concept="0IXxy" id="7CEicFMHXFv" role="2Oq$k0" />
              <node concept="1P9Npp" id="7CEicFMHY$z" role="2OqNvi">
                <node concept="2OqwBi" id="7CEicFMHYAW" role="1P9ThW">
                  <node concept="0IXxy" id="7CEicFMHY_d" role="2Oq$k0" />
                  <node concept="3TrEf2" id="7CEicFMHYLA" role="2OqNvi">
                    <ref role="3Tt5mk" to="pfd6:5l83jlMfE3N" />
                  </node>
                </node>
              </node>
            </node>
          </node>
        </node>
      </node>
    </node>
    <node concept="1hA7zw" id="7CEicFMInDF" role="1h_SK8">
      <property role="1hAc7j" value="backspace_action_id" />
      <node concept="1hAIg9" id="7CEicFMInDG" role="1hA7z_">
        <node concept="3clFbS" id="7CEicFMInDH" role="2VODD2">
          <node concept="3clFbF" id="7CEicFMInFE" role="3cqZAp">
            <node concept="2OqwBi" id="7CEicFMInFG" role="3clFbG">
              <node concept="0IXxy" id="7CEicFMInFH" role="2Oq$k0" />
              <node concept="1P9Npp" id="7CEicFMInFI" role="2OqNvi">
                <node concept="2OqwBi" id="7CEicFMInFJ" role="1P9ThW">
                  <node concept="0IXxy" id="7CEicFMInFK" role="2Oq$k0" />
                  <node concept="3TrEf2" id="7CEicFMInFL" role="2OqNvi">
                    <ref role="3Tt5mk" to="pfd6:5l83jlMfE3N" />
                  </node>
                </node>
              </node>
            </node>
          </node>
        </node>
      </node>
    </node>
  </node>
  <node concept="1h_SRR" id="1AGkceJl9Ox">
    <property role="3GE5qa" value="expr" />
    <property role="TrG5h" value="BinaryExpression_Symbol_Actions" />
    <ref role="1h_SK9" to="pfd6:5l83jlMf$Lk" resolve="BinaryExpression" />
    <node concept="1hA7zw" id="1AGkceJlcgQ" role="1h_SK8">
      <property role="1hAc7j" value="delete_action_id" />
      <property role="1hHO97" value="delete" />
      <node concept="1hAIg9" id="1AGkceJlcgR" role="1hA7z_">
        <node concept="3clFbS" id="1AGkceJlcgS" role="2VODD2">
          <node concept="3cpWs8" id="1AGkceJld9i" role="3cqZAp">
            <node concept="3cpWsn" id="1AGkceJld9l" role="3cpWs9">
              <property role="TrG5h" value="newExpression" />
              <node concept="3Tqbb2" id="1AGkceJld9h" role="1tU5fm">
                <ref role="ehGHo" to="pfd6:5l83jlMf$Lb" resolve="Expression" />
              </node>
              <node concept="2OqwBi" id="1AGkceJldw6" role="33vP2m">
                <node concept="0IXxy" id="1AGkceJld9G" role="2Oq$k0" />
                <node concept="3TrEf2" id="1AGkceJlnOT" role="2OqNvi">
                  <ref role="3Tt5mk" to="pfd6:5l83jlMf$RF" />
                </node>
              </node>
            </node>
          </node>
          <node concept="3clFbJ" id="1AGkceJlnQI" role="3cqZAp">
            <node concept="3clFbS" id="1AGkceJlnQK" role="3clFbx">
              <node concept="3clFbF" id="1AGkceJlnUn" role="3cqZAp">
                <node concept="37vLTI" id="1AGkceJlnVW" role="3clFbG">
                  <node concept="2OqwBi" id="1AGkceJlnYD" role="37vLTx">
                    <node concept="0IXxy" id="1AGkceJlnWz" role="2Oq$k0" />
                    <node concept="3TrEf2" id="1AGkceJloaM" role="2OqNvi">
                      <ref role="3Tt5mk" to="pfd6:5l83jlMf$RD" />
                    </node>
                  </node>
                  <node concept="37vLTw" id="1AGkceJlnUl" role="37vLTJ">
                    <ref role="3cqZAo" node="1AGkceJld9l" resolve="newExpression" />
                  </node>
                </node>
              </node>
            </node>
            <node concept="3clFbC" id="1AGkceJlnTJ" role="3clFbw">
              <node concept="10Nm6u" id="1AGkceJlnU4" role="3uHU7w" />
              <node concept="37vLTw" id="1AGkceJlnRS" role="3uHU7B">
                <ref role="3cqZAo" node="1AGkceJld9l" resolve="newExpression" />
              </node>
            </node>
          </node>
          <node concept="3clFbF" id="1AGkceJlodJ" role="3cqZAp">
            <node concept="2OqwBi" id="1AGkceJlog3" role="3clFbG">
              <node concept="0IXxy" id="1AGkceJlodH" role="2Oq$k0" />
              <node concept="1P9Npp" id="1AGkceJlotk" role="2OqNvi">
                <node concept="37vLTw" id="1AGkceJlotV" role="1P9ThW">
                  <ref role="3cqZAo" node="1AGkceJld9l" resolve="newExpression" />
                </node>
              </node>
            </node>
          </node>
          <node concept="3clFbH" id="1AGkceJqwOb" role="3cqZAp" />
          <node concept="3clFbF" id="1AGkceJqwR6" role="3cqZAp">
            <node concept="2OqwBi" id="1AGkceJqwTK" role="3clFbG">
              <node concept="37vLTw" id="1AGkceJqwR4" role="2Oq$k0">
                <ref role="3cqZAo" node="1AGkceJld9l" resolve="newExpression" />
              </node>
              <node concept="1OKiuA" id="1AGkceJqx2d" role="2OqNvi">
                <node concept="1Q80Hx" id="1AGkceJqx2I" role="lBI5i" />
                <node concept="2B6iha" id="1AGkceJqx4j" role="lGT1i">
                  <property role="1lyBwo" value="first" />
                </node>
                <node concept="3cmrfG" id="1AGkceJqx55" role="3dN3m$">
                  <property role="3cmrfH" value="0" />
                </node>
              </node>
            </node>
          </node>
        </node>
      </node>
    </node>
  </node>
  <node concept="1h_SRR" id="1AGkceJlpvC">
    <property role="3GE5qa" value="expr" />
    <property role="TrG5h" value="BinaryExpression_Left_Actions" />
    <ref role="1h_SK9" to="pfd6:5l83jlMf$Lk" resolve="BinaryExpression" />
    <node concept="1hA7zw" id="1AGkceJlpvD" role="1h_SK8">
      <property role="1hAc7j" value="delete_action_id" />
      <property role="1hHO97" value="replace binary expression with right operand" />
      <node concept="1hAIg9" id="1AGkceJlpvE" role="1hA7z_">
        <node concept="3clFbS" id="1AGkceJlpvF" role="2VODD2">
          <node concept="3cpWs8" id="1AGkceJltrn" role="3cqZAp">
            <node concept="3cpWsn" id="1AGkceJltrq" role="3cpWs9">
              <property role="TrG5h" value="rightExpression" />
              <node concept="3Tqbb2" id="1AGkceJltrl" role="1tU5fm">
                <ref role="ehGHo" to="pfd6:5l83jlMf$Lb" resolve="Expression" />
              </node>
              <node concept="2OqwBi" id="1AGkceJltwj" role="33vP2m">
                <node concept="0IXxy" id="1AGkceJltuh" role="2Oq$k0" />
                <node concept="3TrEf2" id="1AGkceJltGr" role="2OqNvi">
                  <ref role="3Tt5mk" to="pfd6:5l83jlMf$RF" />
                </node>
              </node>
            </node>
          </node>
          <node concept="3clFbF" id="1AGkceJltK8" role="3cqZAp">
            <node concept="2OqwBi" id="1AGkceJltMM" role="3clFbG">
              <node concept="0IXxy" id="1AGkceJltK6" role="2Oq$k0" />
              <node concept="1P9Npp" id="1AGkceJlu0M" role="2OqNvi">
                <node concept="37vLTw" id="1AGkceJlu1p" role="1P9ThW">
                  <ref role="3cqZAo" node="1AGkceJltrq" resolve="rightExpression" />
                </node>
              </node>
            </node>
          </node>
          <node concept="3clFbH" id="1AGkceJqJ1R" role="3cqZAp" />
          <node concept="3clFbF" id="1AGkceJlu9_" role="3cqZAp">
            <node concept="2OqwBi" id="1AGkceJqJ4J" role="3clFbG">
              <node concept="37vLTw" id="1AGkceJqJ3D" role="2Oq$k0">
                <ref role="3cqZAo" node="1AGkceJltrq" resolve="rightExpression" />
              </node>
              <node concept="1OKiuA" id="1AGkceJqJk8" role="2OqNvi">
                <node concept="1Q80Hx" id="1AGkceJqJk$" role="lBI5i" />
                <node concept="2B6iha" id="1AGkceJqJlS" role="lGT1i">
                  <property role="1lyBwo" value="first" />
                </node>
                <node concept="3cmrfG" id="1AGkceJqJmI" role="3dN3m$">
                  <property role="3cmrfH" value="0" />
                </node>
              </node>
            </node>
          </node>
        </node>
      </node>
    </node>
  </node>
  <node concept="1h_SRR" id="1AGkceJlFNN">
    <property role="3GE5qa" value="expr" />
    <property role="TrG5h" value="BinaryExpression_Right_Actions" />
    <ref role="1h_SK9" to="pfd6:5l83jlMf$Lk" resolve="BinaryExpression" />
    <node concept="1hA7zw" id="1AGkceJlFNO" role="1h_SK8">
      <property role="1hAc7j" value="delete_action_id" />
      <property role="1hHO97" value="replace binary expression with left operand" />
      <node concept="1hAIg9" id="1AGkceJlJ3l" role="1hA7z_">
        <node concept="3clFbS" id="1AGkceJlJ3m" role="2VODD2">
          <node concept="3cpWs8" id="1AGkceJlJ3G" role="3cqZAp">
            <node concept="3cpWsn" id="1AGkceJlJ3H" role="3cpWs9">
              <property role="TrG5h" value="leftExpression" />
              <node concept="3Tqbb2" id="1AGkceJlJ3I" role="1tU5fm">
                <ref role="ehGHo" to="pfd6:5l83jlMf$Lb" resolve="Expression" />
              </node>
              <node concept="2OqwBi" id="1AGkceJlJ3J" role="33vP2m">
                <node concept="0IXxy" id="1AGkceJlJ3K" role="2Oq$k0" />
                <node concept="3TrEf2" id="1AGkceJlJNG" role="2OqNvi">
                  <ref role="3Tt5mk" to="pfd6:5l83jlMf$RD" />
                </node>
              </node>
            </node>
          </node>
          <node concept="3clFbF" id="1AGkceJlJ3M" role="3cqZAp">
            <node concept="2OqwBi" id="1AGkceJlJ3N" role="3clFbG">
              <node concept="0IXxy" id="1AGkceJlJ3O" role="2Oq$k0" />
              <node concept="1P9Npp" id="1AGkceJlJ3P" role="2OqNvi">
                <node concept="37vLTw" id="1AGkceJlJ3Q" role="1P9ThW">
                  <ref role="3cqZAo" node="1AGkceJlJ3H" resolve="leftExpression" />
                </node>
              </node>
            </node>
          </node>
          <node concept="3clFbH" id="1AGkceJqJ$v" role="3cqZAp" />
          <node concept="3clFbF" id="1AGkceJqIqZ" role="3cqZAp">
            <node concept="2OqwBi" id="1AGkceJqItF" role="3clFbG">
              <node concept="37vLTw" id="1AGkceJqIqX" role="2Oq$k0">
                <ref role="3cqZAo" node="1AGkceJlJ3H" resolve="leftExpression" />
              </node>
              <node concept="1OKiuA" id="1AGkceJqIH4" role="2OqNvi">
                <node concept="1Q80Hx" id="1AGkceJqIHw" role="lBI5i" />
                <node concept="2B6iha" id="1AGkceJqIIJ" role="lGT1i">
                  <property role="1lyBwo" value="first" />
                </node>
                <node concept="3cmrfG" id="1AGkceJqIJ_" role="3dN3m$">
                  <property role="3cmrfH" value="-1" />
                </node>
              </node>
            </node>
          </node>
        </node>
      </node>
    </node>
  </node>
  <node concept="24kQdi" id="3SvAy0XKTx3">
    <property role="3GE5qa" value="expr" />
    <ref role="1XX52x" to="pfd6:3SvAy0XKTvE" resolve="VectorElementAccess" />
    <node concept="3EZMnI" id="3SvAy0XKTx5" role="2wV5jI">
      <node concept="3F1sOY" id="3SvAy0XKTxc" role="3EZMnx">
        <ref role="1NtTu8" to="pfd6:3SvAy0XKTvF" />
      </node>
      <node concept="3F0ifn" id="3SvAy0XKTxi" role="3EZMnx">
        <property role="3F0ifm" value="[" />
        <node concept="11L4FC" id="3SvAy0XKTBM" role="3F10Kt">
          <property role="VOm3f" value="true" />
        </node>
        <node concept="11LMrY" id="3SvAy0XKTDy" role="3F10Kt">
          <property role="VOm3f" value="true" />
        </node>
      </node>
      <node concept="3F1sOY" id="3SvAy0XKTxq" role="3EZMnx">
        <ref role="1NtTu8" to="pfd6:3SvAy0XKTvH" />
      </node>
      <node concept="3F0ifn" id="3SvAy0XKTx$" role="3EZMnx">
        <property role="3F0ifm" value="]" />
        <node concept="11L4FC" id="3SvAy0XKTEs" role="3F10Kt">
          <property role="VOm3f" value="true" />
        </node>
      </node>
      <node concept="l2Vlx" id="3SvAy0XKTx8" role="2iSdaV" />
    </node>
  </node>
  <node concept="24kQdi" id="3SvAy0XKTJ7">
    <property role="3GE5qa" value="types" />
    <ref role="1XX52x" to="pfd6:3SvAy0XHWyX" resolve="AbstractContainerType" />
    <node concept="3EZMnI" id="3SvAy0XKTJ9" role="2wV5jI">
      <node concept="PMmxH" id="3SvAy0XKTJg" role="3EZMnx">
        <ref role="PMmxG" to="tpco:2wZex4PafBj" resolve="alias" />
      </node>
      <node concept="3F0ifn" id="3SvAy0XKTJl" role="3EZMnx">
        <property role="3F0ifm" value="&lt;" />
        <node concept="11L4FC" id="3SvAy0XKTPc" role="3F10Kt">
          <property role="VOm3f" value="true" />
        </node>
        <node concept="11LMrY" id="3SvAy0XKTQ8" role="3F10Kt">
          <property role="VOm3f" value="true" />
        </node>
      </node>
      <node concept="3F1sOY" id="3SvAy0XKTJC" role="3EZMnx">
        <ref role="1NtTu8" to="pfd6:3SvAy0XHWz0" />
      </node>
      <node concept="3F0ifn" id="3SvAy0XKTJy" role="3EZMnx">
        <property role="3F0ifm" value="&gt;" />
        <node concept="11L4FC" id="3SvAy0XKTRQ" role="3F10Kt">
          <property role="VOm3f" value="true" />
        </node>
      </node>
      <node concept="l2Vlx" id="3SvAy0XKTJc" role="2iSdaV" />
    </node>
  </node>
  <node concept="24kQdi" id="2dq8QBBlAjV">
    <property role="3GE5qa" value="literals.real" />
    <ref role="1XX52x" to="pfd6:2dq8QBBlz5g" resolve="ScientificNumberLiteral" />
    <node concept="3EZMnI" id="2dq8QBBlCmz" role="2wV5jI">
      <node concept="3F0A7n" id="2dq8QBBlCmH" role="3EZMnx">
        <ref role="1NtTu8" to="pfd6:2dq8QBBlAhr" resolve="prefix" />
        <ref role="1k5W1q" to="tpen:hshT4rC" resolve="NumericLiteral" />
      </node>
      <node concept="3F0ifn" id="2dq8QBBlCmQ" role="3EZMnx">
        <property role="3F0ifm" value="E" />
        <ref role="1k5W1q" to="tpen:hshT4rC" resolve="NumericLiteral" />
        <node concept="11L4FC" id="2dq8QBBmQAg" role="3F10Kt">
          <property role="VOm3f" value="true" />
        </node>
        <node concept="11LMrY" id="2dq8QBBmQBc" role="3F10Kt">
          <property role="VOm3f" value="true" />
        </node>
      </node>
      <node concept="3F0A7n" id="2dq8QBBlCn3" role="3EZMnx">
        <ref role="1NtTu8" to="pfd6:2dq8QBBlAhu" resolve="postfix" />
        <ref role="1k5W1q" to="tpen:hshT4rC" resolve="NumericLiteral" />
      </node>
      <node concept="l2Vlx" id="m1E9k9emI3" role="2iSdaV" />
    </node>
  </node>
  <node concept="24kQdi" id="2dq8QBBpPgp">
    <property role="3GE5qa" value="expr.arith" />
    <ref role="1XX52x" to="pfd6:2dq8QBBpO8s" resolve="UnaryMinusExpression" />
    <node concept="3EZMnI" id="2dq8QBBpPgr" role="2wV5jI">
      <node concept="3F0ifn" id="2dq8QBBpPg_" role="3EZMnx">
        <property role="3F0ifm" value="-" />
        <ref role="1k5W1q" to="eqcn:5l83jlMgWkl" resolve="Operator" />
        <node concept="11LMrY" id="2dq8QBBpPhC" role="3F10Kt">
          <property role="VOm3f" value="true" />
        </node>
      </node>
      <node concept="3F1sOY" id="2dq8QBBpPgI" role="3EZMnx">
        <ref role="1NtTu8" to="pfd6:5l83jlMfE3N" />
      </node>
      <node concept="l2Vlx" id="2dq8QBBpPgu" role="2iSdaV" />
    </node>
  </node>
  <node concept="24kQdi" id="m1E9k98Z0G">
    <property role="3GE5qa" value="literals" />
    <ref role="1XX52x" to="pfd6:m1E9k98BVA" resolve="IntegerLiteral" />
    <node concept="3EZMnI" id="m1E9k9enzV" role="2wV5jI">
      <node concept="l2Vlx" id="m1E9k9enzW" role="2iSdaV" />
      <node concept="3F0A7n" id="m1E9k98Zv4" role="3EZMnx">
        <ref role="1NtTu8" to="pfd6:m1E9k98YZm" resolve="value" />
        <ref role="1k5W1q" to="tpen:hshT4rC" resolve="NumericLiteral" />
      </node>
    </node>
  </node>
  <node concept="24kQdi" id="5nlyqYpkvKd">
    <property role="3GE5qa" value="types" />
    <ref role="1XX52x" to="pfd6:3SvAy0XHWnV" resolve="VectorType" />
    <node concept="3EZMnI" id="5nlyqYpkwcK" role="2wV5jI">
      <node concept="PMmxH" id="5nlyqYpkwcU" role="3EZMnx">
        <ref role="PMmxG" to="tpco:2wZex4PafBj" resolve="alias" />
      </node>
      <node concept="3F0ifn" id="5nlyqYpkwcZ" role="3EZMnx">
        <property role="3F0ifm" value="&lt;" />
      </node>
      <node concept="3F1sOY" id="5nlyqYpkwdh" role="3EZMnx">
        <ref role="1NtTu8" to="pfd6:3SvAy0XHWz0" />
        <node concept="2V7CMv" id="5nlyqYpkEJG" role="3F10Kt">
          <property role="2V7CMs" value="ext_1_RTransform" />
        </node>
      </node>
      <node concept="3EZMnI" id="5nlyqYpkwdt" role="3EZMnx">
        <node concept="VPM3Z" id="5nlyqYpkwdv" role="3F10Kt">
          <property role="VOm3f" value="false" />
        </node>
        <node concept="3F0ifn" id="5nlyqYpkwdL" role="3EZMnx">
          <property role="3F0ifm" value="," />
        </node>
        <node concept="3F1sOY" id="5nlyqYpkwdQ" role="3EZMnx">
          <ref role="1NtTu8" to="pfd6:5nlyqYp8A3k" />
        </node>
        <node concept="l2Vlx" id="5nlyqYpkwdy" role="2iSdaV" />
        <node concept="pkWqt" id="5nlyqYpkwdV" role="pqm2j">
          <node concept="3clFbS" id="5nlyqYpkwdW" role="2VODD2">
            <node concept="3clFbF" id="5nlyqYpkwn7" role="3cqZAp">
              <node concept="2OqwBi" id="5nlyqYpkx2G" role="3clFbG">
                <node concept="2OqwBi" id="5nlyqYpkwsL" role="2Oq$k0">
                  <node concept="pncrf" id="5nlyqYpkwn6" role="2Oq$k0" />
                  <node concept="3TrEf2" id="5nlyqYpkwJ3" role="2OqNvi">
                    <ref role="3Tt5mk" to="pfd6:5nlyqYp8A3k" />
                  </node>
                </node>
                <node concept="3x8VRR" id="5nlyqYpkxdx" role="2OqNvi" />
              </node>
            </node>
          </node>
        </node>
      </node>
      <node concept="3F0ifn" id="5nlyqYpkwd7" role="3EZMnx">
        <property role="3F0ifm" value="&gt;" />
        <node concept="2V7CMv" id="5nlyqYprGK8" role="3F10Kt">
          <property role="2V7CMs" value="ext_1_RTransform" />
        </node>
      </node>
      <node concept="l2Vlx" id="5nlyqYpkwcN" role="2iSdaV" />
    </node>
  </node>
  <node concept="24kQdi" id="7Sere_CgRl0">
    <property role="3GE5qa" value="literals" />
    <ref role="1XX52x" to="pfd6:7Sere_CgOA2" resolve="VectorLiteral" />
    <node concept="3EZMnI" id="7Sere_CgToG" role="2wV5jI">
      <node concept="3F2HdR" id="7Sere_CgToN" role="3EZMnx">
        <property role="2czwfO" value=", " />
        <ref role="1NtTu8" to="pfd6:7Sere_CgRih" />
        <node concept="l2Vlx" id="7Sere_CgToP" role="2czzBx" />
      </node>
      <node concept="l2Vlx" id="7Sere_CgToJ" role="2iSdaV" />
    </node>
  </node>
  <node concept="24kQdi" id="gLk$EQLKla">
    <property role="3GE5qa" value="types" />
    <ref role="1XX52x" to="pfd6:3SvAy0XHRc7" resolve="MatrixType" />
    <node concept="3EZMnI" id="gLk$EQLMMB" role="2wV5jI">
      <node concept="PMmxH" id="gLk$EQLMMI" role="3EZMnx">
        <ref role="PMmxG" to="tpco:2wZex4PafBj" resolve="alias" />
      </node>
      <node concept="3F0ifn" id="gLk$EQLOL5" role="3EZMnx">
        <property role="3F0ifm" value="&lt;" />
      </node>
      <node concept="3F1sOY" id="gLk$EQLOM0" role="3EZMnx">
        <ref role="1NtTu8" to="pfd6:3SvAy0XHWz0" />
        <node concept="2V7CMv" id="gLk$EQLOM1" role="3F10Kt">
          <property role="2V7CMs" value="ext_1_RTransform" />
        </node>
      </node>
      <node concept="3F0ifn" id="gLk$EQLOMf" role="3EZMnx">
        <property role="3F0ifm" value="&gt;" />
        <node concept="2V7CMv" id="gLk$EQLOMg" role="3F10Kt">
          <property role="2V7CMs" value="ext_1_RTransform" />
        </node>
      </node>
      <node concept="l2Vlx" id="gLk$EQLMME" role="2iSdaV" />
    </node>
  </node>
</model>

