<?xml version="1.0" encoding="UTF-8"?>
<model ref="r:df32b887-22c8-4f39-b2c3-562001ed98b1(lj)">
  <persistence version="9" />
  <languages>
    <use id="58df54a5-af81-48d5-bb5c-9db2412768a4" name="de.ppme.expressions" version="-1" />
    <use id="63e1a497-af15-4608-bf36-c0aa0aaf901b" name="de.ppme.core" version="-1" />
    <use id="f7af8208-82a7-4aab-9829-b32680223c52" name="de.ppme.ctrl" version="-1" />
    <use id="a206eff4-e667-4146-8006-8cce4ef80954" name="de.ppme.modules" version="-1" />
    <use id="cd53cec3-9093-4895-940d-de1b7abe9936" name="de.ppme.physunits" version="-1" />
    <use id="7d7a484c-83ab-4a7c-b9f3-8672c02bd0f6" name="de.ppme.statements" version="-1" />
  </languages>
  <imports>
    <import index="9ncv" ref="r:9ee405a9-49ec-4da8-b2ea-9f039ffc147d(de.ppme.plugins.plugin)" />
  </imports>
  <registry>
    <language id="7d7a484c-83ab-4a7c-b9f3-8672c02bd0f6" name="de.ppme.statements">
      <concept id="6199572117285223602" name="de.ppme.statements.structure.VariableDeclarationStatement" flags="ng" index="$eJ5c">
        <child id="6199572117285223607" name="variableDeclaration" index="$eJ59" />
      </concept>
      <concept id="6145176214748918949" name="de.ppme.statements.structure.VariableReference" flags="ng" index="B0vAg">
        <reference id="6145176214748918980" name="variableDeclaration" index="B0vBL" />
      </concept>
      <concept id="6145176214748596765" name="de.ppme.statements.structure.Statement" flags="ng" index="B3gsC" />
      <concept id="6145176214748596974" name="de.ppme.statements.structure.StatementList" flags="ng" index="B3gvr">
        <child id="6145176214748596975" name="statement" index="B3gvq" />
      </concept>
      <concept id="6145176214748598314" name="de.ppme.statements.structure.ExpressionStatement" flags="ng" index="B3hOv">
        <child id="6145176214748598315" name="expression" index="B3hOu" />
      </concept>
      <concept id="6145176214748692240" name="de.ppme.statements.structure.VariableDeclaration" flags="ng" index="B3B8_">
        <child id="6145176214748707330" name="init" index="B3FsR" />
      </concept>
      <concept id="7780396616246534422" name="de.ppme.statements.structure.AbstractLoopStatement" flags="ng" index="1wZMim">
        <child id="7780396616246534427" name="body" index="1wZMir" />
      </concept>
    </language>
    <language id="a206eff4-e667-4146-8006-8cce4ef80954" name="de.ppme.modules">
      <concept id="6145176214748008889" name="de.ppme.modules.structure.Phase" flags="ng" index="Bt1Mc">
        <child id="6145176214748202931" name="body" index="BtKE6" />
      </concept>
      <concept id="8340651020914474434" name="de.ppme.modules.structure.Module" flags="ng" index="32DcKF">
        <reference id="7404899961792452988" name="cfg" index="HcygO" />
        <child id="6145176214748042437" name="listOfPhases" index="Bt9BK" />
      </concept>
    </language>
    <language id="58df54a5-af81-48d5-bb5c-9db2412768a4" name="de.ppme.expressions">
      <concept id="4476466017894647997" name="de.ppme.expressions.structure.AbstractContainerType" flags="ng" index="3E5at">
        <child id="4476466017894648000" name="componentType" index="3E5bw" />
      </concept>
      <concept id="4476466017894647291" name="de.ppme.expressions.structure.VectorType" flags="ng" index="3E5Zr">
        <child id="6185001050544693460" name="ndim" index="3cXY_V" />
      </concept>
      <concept id="4476466017895421930" name="de.ppme.expressions.structure.VectorElementAccess" flags="ng" index="3R0Ra">
        <child id="4476466017895421931" name="vector" index="3R0Rb" />
        <child id="4476466017895421933" name="index" index="3R0Rd" />
      </concept>
      <concept id="396783600242163430" name="de.ppme.expressions.structure.IntegerLiteral" flags="ng" index="cCXpN">
        <property id="396783600242257878" name="value" index="cC$t3" />
      </concept>
      <concept id="9083317248185289090" name="de.ppme.expressions.structure.VectorLiteral" flags="ng" index="mjilF">
        <child id="9083317248185300113" name="values" index="mjhxS" />
      </concept>
      <concept id="6145176214748482670" name="de.ppme.expressions.structure.PlusExpression" flags="ng" index="B2O5r" />
      <concept id="6145176214748483203" name="de.ppme.expressions.structure.MinusExpression" flags="ng" index="B2OeQ" />
      <concept id="6145176214748513808" name="de.ppme.expressions.structure.ParenthesizedExpression" flags="ng" index="B2WG_" />
      <concept id="6145176214748154964" name="de.ppme.expressions.structure.BinaryExpression" flags="ng" index="Bt$5x">
        <child id="6145176214748155369" name="left" index="Bt$3s" />
        <child id="6145176214748155371" name="right" index="Bt$3u" />
      </concept>
      <concept id="6145176214748154974" name="de.ppme.expressions.structure.AssignmentExpression" flags="ng" index="Bt$5F" />
      <concept id="6145176214748176626" name="de.ppme.expressions.structure.UnaryExpression" flags="ng" index="BtER7">
        <child id="6145176214748176627" name="expression" index="BtER6" />
      </concept>
      <concept id="6145176214748221741" name="de.ppme.expressions.structure.FalseLiteral" flags="ng" index="BtPKo" />
      <concept id="6145176214748221724" name="de.ppme.expressions.structure.TrueLiteral" flags="ng" index="BtPKD" />
      <concept id="6145176214748221706" name="de.ppme.expressions.structure.BooleanLiteral" flags="ng" index="BtPKZ">
        <property id="7757862620602945941" name="value" index="YYatA" />
      </concept>
      <concept id="6145176214748259879" name="de.ppme.expressions.structure.DecimalLiteral" flags="ng" index="BtYGi">
        <property id="6145176214748259880" name="value" index="BtYGt" />
      </concept>
      <concept id="3234668756578971106" name="de.ppme.expressions.structure.MulExpression" flags="ng" index="2P4BvU" />
      <concept id="3234668756578971110" name="de.ppme.expressions.structure.DivExpression" flags="ng" index="2P4BvY" />
      <concept id="7192466915357234866" name="de.ppme.expressions.structure.RealType" flags="ng" index="ZjH0Z" />
      <concept id="7192466915357234108" name="de.ppme.expressions.structure.IntegerType" flags="ng" index="ZjHkL" />
      <concept id="7192466915357238192" name="de.ppme.expressions.structure.ITyped" flags="ng" index="ZjIkX">
        <child id="7192466915357238193" name="type" index="ZjIkW" />
      </concept>
      <concept id="7192466915357648203" name="de.ppme.expressions.structure.StringLiteral" flags="ng" index="Ztaf6">
        <property id="7192466915357648213" name="value" index="Ztafo" />
      </concept>
      <concept id="2547387476991160656" name="de.ppme.expressions.structure.ScientificNumberLiteral" flags="ng" index="34318T">
        <property id="2547387476991173723" name="prefix" index="3434sM" />
        <property id="2547387476991173726" name="postfix" index="3434sR" />
      </concept>
    </language>
    <language id="cd53cec3-9093-4895-940d-de1b7abe9936" name="de.ppme.physunits">
      <concept id="2470424201075088114" name="de.ppme.physunits.structure.PhysicalUnitRef" flags="ng" index="3ROQXa">
        <reference id="2470424201075088123" name="decl" index="3ROQX3" />
        <child id="2470424201075088121" name="exponent" index="3ROQX1" />
      </concept>
      <concept id="2470424201075088105" name="de.ppme.physunits.structure.PhysicalUnitSpecification" flags="ng" index="3ROQXh">
        <child id="2470424201075104580" name="component" index="3RPaVW" />
      </concept>
      <concept id="2470424201075088077" name="de.ppme.physunits.structure.PhysicalUnit" flags="ng" index="3ROQXP">
        <property id="2470424201075088093" name="desc" index="3ROQX_" />
        <child id="2470424201075138727" name="spec" index="3RP1kv" />
      </concept>
      <concept id="2470424201075138859" name="de.ppme.physunits.structure.PhysicalUnitDeclarations" flags="ng" index="3RP1ij">
        <child id="2470424201075138862" name="units" index="3RP1im" />
      </concept>
      <concept id="2470424201074635707" name="de.ppme.physunits.structure.Exponent" flags="ng" index="3RR4o3">
        <property id="2470424201074636672" name="value" index="3RR48S" />
      </concept>
      <concept id="2470424201075458791" name="de.ppme.physunits.structure.AnnotatedType" flags="ng" index="3RUjtv">
        <child id="2470424201076177711" name="primtype" index="3RTcUn" />
        <child id="2470424201075459312" name="spec" index="3RUj58" />
      </concept>
      <concept id="2470424201075779476" name="de.ppme.physunits.structure.AnnotatedExpression" flags="ng" index="3RVH8G">
        <child id="2470424201076213874" name="expr" index="3RTrRa" />
        <child id="2470424201075779541" name="spec" index="3RVH9H" />
      </concept>
    </language>
    <language id="ceab5195-25ea-4f22-9b92-103b95ca8c0c" name="jetbrains.mps.lang.core">
      <concept id="1169194658468" name="jetbrains.mps.lang.core.structure.INamedConcept" flags="ng" index="TrEIO">
        <property id="1169194664001" name="name" index="TrG5h" />
      </concept>
    </language>
    <language id="f7af8208-82a7-4aab-9829-b32680223c52" name="de.ppme.ctrl">
      <concept id="6166975901158549475" name="de.ppme.ctrl.structure.CtrlPropertyReference" flags="ng" index="zp_wb">
        <reference id="6166975901158549476" name="ctrlProperty" index="zp_wc" />
      </concept>
      <concept id="6397211168290209327" name="de.ppme.ctrl.structure.CtrlProperty" flags="ng" index="2ZRwI6">
        <child id="6397211168290234457" name="value" index="2ZRDnK" />
      </concept>
      <concept id="6397211168290209299" name="de.ppme.ctrl.structure.Ctrl" flags="ng" index="2ZRwIU">
        <child id="6397211168290249098" name="properties" index="2ZRmKz" />
      </concept>
    </language>
    <language id="63e1a497-af15-4608-bf36-c0aa0aaf901b" name="de.ppme.core">
      <concept id="396783600243789055" name="de.ppme.core.structure.ArrowExpression" flags="ng" index="cIIhE">
        <child id="396783600243789433" name="operand" index="cIIrG" />
        <child id="396783600243789435" name="operation" index="cIIrI" />
      </concept>
      <concept id="943869364551957516" name="de.ppme.core.structure.CreateTopologyStatement" flags="ng" index="2xpR0z">
        <child id="943869364552020805" name="boundary_condition" index="2xpBXE" />
        <child id="943869364552020882" name="ghost_size" index="2xpBYX" />
      </concept>
      <concept id="943869364553727788" name="de.ppme.core.structure.CreateParticlesStatement" flags="ng" index="2xw7c3">
        <child id="943869364553728028" name="ghost_size" index="2xw0KN" />
        <child id="943869364553727941" name="topology" index="2xw7fE" />
        <child id="708996761100070897" name="body" index="P$RcX" />
        <child id="708996761100070720" name="displacementBody" index="P$Rec" />
      </concept>
      <concept id="929032500828069707" name="de.ppme.core.structure.PowerExpression" flags="ng" index="CgG_C" />
      <concept id="8007716293499730002" name="de.ppme.core.structure.ParticleListType" flags="ng" index="2Z2qvo">
        <reference id="8007716293502450881" name="plist" index="2ZsMdb" />
      </concept>
      <concept id="8007716293503019137" name="de.ppme.core.structure.ParticleMemberAccess" flags="ng" index="2ZuZsb">
        <reference id="8007716293503019139" name="decl" index="2ZuZs9" />
      </concept>
      <concept id="3413548270338329844" name="de.ppme.core.structure.PropertyType" flags="ng" index="32th3$">
        <child id="3413548270339400481" name="descr" index="32pvWL" />
        <child id="3413548270338330298" name="dtype" index="32thaE" />
        <child id="3413548270338330394" name="ndim" index="32thca" />
        <child id="3413548270338330401" name="zero" index="32thcL" />
      </concept>
      <concept id="6810947015889353876" name="de.ppme.core.structure.ComputeNeighlistStatment" flags="ng" index="34$yiH">
        <child id="6810947015889355265" name="parts" index="34$HCS" />
      </concept>
      <concept id="6810947015890677431" name="de.ppme.core.structure.ApplyBCMemberAccess" flags="ng" index="34FJqe" />
      <concept id="2945754496565952264" name="de.ppme.core.structure.TimeloopStatement" flags="ng" index="1jGXcj">
        <child id="2945754496565952266" name="body" index="1jGXch" />
      </concept>
      <concept id="2430378650381774185" name="de.ppme.core.structure.NeighborsExpression" flags="ng" index="1s29RC">
        <child id="2430378650381776079" name="parts" index="1s28he" />
        <child id="2430378650381776081" name="p" index="1s28hg" />
      </concept>
      <concept id="7988859962165330229" name="de.ppme.core.structure.ParticleLoopStatment" flags="ng" index="1zUE3U">
        <child id="7988859962166182297" name="variable" index="1zBU1m" />
        <child id="7988859962165330230" name="iterable" index="1zUE3T" />
      </concept>
      <concept id="6068049259195233141" name="de.ppme.core.structure.CreateNeighborListStatement" flags="ng" index="3DOnBj">
        <child id="943869364554310437" name="symmetry" index="2xIQWa" />
        <child id="943869364554310433" name="cutoff" index="2xIQWe" />
        <child id="943869364554310430" name="skin" index="2xIQWL" />
        <child id="6068049259195233143" name="particles" index="3DOnBh" />
      </concept>
      <concept id="6068049259195440621" name="de.ppme.core.structure.MappingStatement" flags="ng" index="3DR9tb">
        <child id="6810947015889562546" name="parts" index="34BZeb" />
        <child id="6068049259195440622" name="mappingType" index="3DR9t8" />
      </concept>
      <concept id="6068049259195440626" name="de.ppme.core.structure.PartialMappingType" flags="ng" index="3DR9tk" />
      <concept id="6068049259195440624" name="de.ppme.core.structure.GhostMappingType" flags="ng" index="3DR9tm" />
      <concept id="6068049259194405279" name="de.ppme.core.structure.ParticleType" flags="ng" index="3DVdGT" />
    </language>
  </registry>
  <node concept="3RP1ij" id="2Xgo$egGInb">
    <property role="TrG5h" value="Units" />
    <node concept="3ROQXP" id="2Xgo$egGInc" role="3RP1im">
      <property role="TrG5h" value="l" />
      <property role="3ROQX_" value="length" />
    </node>
    <node concept="3ROQXP" id="2Xgo$egGIne" role="3RP1im">
      <property role="TrG5h" value="t" />
      <property role="3ROQX_" value="time" />
    </node>
    <node concept="3ROQXP" id="4dLMRvej85o" role="3RP1im">
      <property role="TrG5h" value="mass" />
      <property role="3ROQX_" value="mass" />
    </node>
    <node concept="3ROQXP" id="2Xgo$egGInk" role="3RP1im">
      <property role="TrG5h" value="mps" />
      <property role="3ROQX_" value="meter per second" />
      <node concept="3ROQXh" id="2Xgo$egGIno" role="3RP1kv">
        <node concept="3ROQXa" id="2Xgo$egGInq" role="3RPaVW">
          <ref role="3ROQX3" node="2Xgo$egGInc" resolve="l" />
        </node>
        <node concept="3ROQXa" id="2Xgo$egGInw" role="3RPaVW">
          <ref role="3ROQX3" node="2Xgo$egGIne" resolve="t" />
          <node concept="3RR4o3" id="2Xgo$egGIn_" role="3ROQX1">
            <property role="3RR48S" value="-1" />
          </node>
        </node>
      </node>
    </node>
  </node>
  <node concept="2ZRwIU" id="Opj2YGupV0">
    <property role="TrG5h" value="default" />
    <node concept="2ZRwI6" id="Opj2YGupV1" role="2ZRmKz">
      <property role="TrG5h" value="mass" />
      <node concept="3RVH8G" id="4dLMRvejcqB" role="2ZRDnK">
        <node concept="34318T" id="4dLMRvejcqA" role="3RTrRa">
          <property role="3434sM" value="6.69" />
          <property role="3434sR" value="-18" />
        </node>
        <node concept="3ROQXh" id="4dLMRvejcqC" role="3RVH9H">
          <node concept="3ROQXa" id="3hhwBTDYmua" role="3RPaVW">
            <ref role="3ROQX3" node="4dLMRvej85o" resolve="mass" />
          </node>
        </node>
      </node>
    </node>
    <node concept="2ZRwI6" id="Opj2YGusTM" role="2ZRmKz">
      <property role="TrG5h" value="epsilon" />
      <node concept="34318T" id="Opj2YGusWs" role="2ZRDnK">
        <property role="3434sM" value="1.65677856" />
        <property role="3434sR" value="-13" />
      </node>
    </node>
    <node concept="2ZRwI6" id="Opj2YGusU6" role="2ZRmKz">
      <property role="TrG5h" value="sigma" />
      <node concept="34318T" id="Opj2YGut1L" role="2ZRDnK">
        <property role="3434sM" value="3.605" />
        <property role="3434sR" value="-2" />
      </node>
    </node>
    <node concept="2ZRwI6" id="Opj2YGusUi" role="2ZRmKz">
      <property role="TrG5h" value="delta_t" />
      <node concept="3RVH8G" id="4dLMRvejcrk" role="2ZRDnK">
        <node concept="34318T" id="4dLMRvejcrj" role="3RTrRa">
          <property role="3434sM" value="1.0" />
          <property role="3434sR" value="-7" />
        </node>
        <node concept="3ROQXh" id="4dLMRvejcrl" role="3RVH9H">
          <node concept="3ROQXa" id="3hhwBTDYmvG" role="3RPaVW">
            <ref role="3ROQX3" node="2Xgo$egGIne" resolve="t" />
          </node>
        </node>
      </node>
    </node>
    <node concept="2ZRwI6" id="ON9Gjnksgh" role="2ZRmKz">
      <property role="TrG5h" value="min_phys" />
      <node concept="mjilF" id="ON9GjnksyY" role="2ZRDnK">
        <node concept="BtYGi" id="ON9GjnksEY" role="mjhxS">
          <property role="BtYGt" value="0.0" />
        </node>
        <node concept="BtYGi" id="ON9GjnksFu" role="mjhxS">
          <property role="BtYGt" value="0.0" />
        </node>
        <node concept="BtYGi" id="ON9GjnksG3" role="mjhxS">
          <property role="BtYGt" value="0.0" />
        </node>
      </node>
    </node>
    <node concept="2ZRwI6" id="ON9GjnksGD" role="2ZRmKz">
      <property role="TrG5h" value="max_phys" />
      <node concept="mjilF" id="ON9GjnksGE" role="2ZRDnK">
        <node concept="BtYGi" id="ON9GjnksGF" role="mjhxS">
          <property role="BtYGt" value="1.0" />
        </node>
        <node concept="BtYGi" id="ON9Gjnkt5s" role="mjhxS">
          <property role="BtYGt" value="1.0" />
        </node>
        <node concept="BtYGi" id="ON9Gjnkt63" role="mjhxS">
          <property role="BtYGt" value="1.0" />
        </node>
      </node>
    </node>
    <node concept="2ZRwI6" id="Opj2YGusV2" role="2ZRmKz">
      <property role="TrG5h" value="domain_decomposition" />
      <node concept="cCXpN" id="m1E9k9cirt" role="2ZRDnK">
        <property role="cC$t3" value="7" />
      </node>
    </node>
    <node concept="2ZRwI6" id="Opj2YGut7G" role="2ZRmKz">
      <property role="TrG5h" value="processor_assignment" />
      <node concept="cCXpN" id="m1E9k9citJ" role="2ZRDnK">
        <property role="cC$t3" value="1" />
      </node>
    </node>
    <node concept="2ZRwI6" id="Opj2YGut86" role="2ZRmKz">
      <property role="TrG5h" value="ghost_size" />
      <node concept="BtYGi" id="Opj2YGutgh" role="2ZRDnK">
        <property role="BtYGt" value="0.1" />
      </node>
    </node>
    <node concept="2ZRwI6" id="Opj2YGut8y" role="2ZRmKz">
      <property role="TrG5h" value="Npart" />
      <node concept="cCXpN" id="m1E9k9ciw1" role="2ZRDnK">
        <property role="cC$t3" value="10000" />
      </node>
    </node>
    <node concept="2ZRwI6" id="Opj2YGut90" role="2ZRmKz">
      <property role="TrG5h" value="start_time" />
      <node concept="3RVH8G" id="4dLMRvejcs1" role="2ZRDnK">
        <node concept="BtYGi" id="4dLMRvejcs0" role="3RTrRa">
          <property role="BtYGt" value="0.0" />
        </node>
        <node concept="3ROQXh" id="4dLMRvejcs2" role="3RVH9H">
          <node concept="3ROQXa" id="3hhwBTDYmwt" role="3RPaVW">
            <ref role="3ROQX3" node="2Xgo$egGIne" resolve="t" />
          </node>
        </node>
      </node>
    </node>
    <node concept="2ZRwI6" id="Opj2YGut9w" role="2ZRmKz">
      <property role="TrG5h" value="stop_time" />
      <node concept="3RVH8G" id="4dLMRvejcsI" role="2ZRDnK">
        <node concept="BtYGi" id="4dLMRvejcsH" role="3RTrRa">
          <property role="BtYGt" value="1.0" />
        </node>
        <node concept="3ROQXh" id="4dLMRvejcsJ" role="3RVH9H">
          <node concept="3ROQXa" id="3hhwBTDYmxe" role="3RPaVW">
            <ref role="3ROQX3" node="2Xgo$egGIne" resolve="t" />
          </node>
        </node>
      </node>
    </node>
  </node>
  <node concept="32DcKF" id="2Xgo$egGInN">
    <property role="TrG5h" value="Lennard-Jones (Units)" />
    <ref role="HcygO" node="Opj2YGupV0" resolve="default" />
    <node concept="Bt1Mc" id="2Xgo$egGIMJ" role="Bt9BK">
      <property role="TrG5h" value="all-in-one" />
      <node concept="B3gvr" id="2Xgo$egGIMK" role="BtKE6">
        <node concept="$eJ5c" id="4dLMRvejgZU" role="B3gvq">
          <node concept="B3B8_" id="4dLMRvejgZV" role="$eJ59">
            <property role="TrG5h" value="cutoff" />
            <node concept="ZjH0Z" id="4dLMRvejh00" role="ZjIkW" />
          </node>
        </node>
        <node concept="$eJ5c" id="4dLMRvejh0q" role="B3gvq">
          <node concept="B3B8_" id="4dLMRvejh0r" role="$eJ59">
            <property role="TrG5h" value="skin" />
            <node concept="ZjH0Z" id="4dLMRvejh0s" role="ZjIkW" />
          </node>
        </node>
        <node concept="$eJ5c" id="4dLMRvejh0F" role="B3gvq">
          <node concept="B3B8_" id="4dLMRvejh0G" role="$eJ59">
            <property role="TrG5h" value="E_prc" />
            <node concept="ZjH0Z" id="4dLMRvejh0H" role="ZjIkW" />
          </node>
        </node>
        <node concept="B3gsC" id="4dLMRvejh1Z" role="B3gvq" />
        <node concept="B3hOv" id="4dLMRvejh2m" role="B3gvq">
          <node concept="Bt$5F" id="4dLMRvejoJS" role="B3hOu">
            <node concept="2P4BvU" id="4dLMRvejoKM" role="Bt$3u">
              <node concept="B2WG_" id="4dLMRvejoLm" role="Bt$3u">
                <node concept="2P4BvY" id="4dLMRvejr5l" role="BtER6">
                  <node concept="BtYGi" id="4dLMRvejr76" role="Bt$3u">
                    <property role="BtYGt" value="1.1" />
                  </node>
                  <node concept="BtYGi" id="4dLMRvejoMN" role="Bt$3s">
                    <property role="BtYGt" value="2.5" />
                  </node>
                </node>
              </node>
              <node concept="zp_wb" id="3hhwBTDYqS4" role="Bt$3s">
                <ref role="zp_wc" node="Opj2YGusU6" resolve="sigma" />
              </node>
            </node>
            <node concept="B0vAg" id="4dLMRvejoJI" role="Bt$3s">
              <ref role="B0vBL" node="4dLMRvejgZV" resolve="cutoff" />
            </node>
          </node>
        </node>
        <node concept="B3hOv" id="4dLMRvejvFt" role="B3gvq">
          <node concept="Bt$5F" id="4dLMRvejvG5" role="B3hOu">
            <node concept="2P4BvU" id="4dLMRvejvH7" role="Bt$3u">
              <node concept="B0vAg" id="4dLMRvejvHB" role="Bt$3u">
                <ref role="B0vBL" node="4dLMRvejgZV" resolve="cutoff" />
              </node>
              <node concept="BtYGi" id="4dLMRvejvGG" role="Bt$3s">
                <property role="BtYGt" value="0.1" />
              </node>
            </node>
            <node concept="B0vAg" id="4dLMRvejvFV" role="Bt$3s">
              <ref role="B0vBL" node="4dLMRvejh0r" resolve="skin" />
            </node>
          </node>
        </node>
        <node concept="B3hOv" id="4dLMRvejvID" role="B3gvq">
          <node concept="Bt$5F" id="4dLMRvejvJn" role="B3hOu">
            <node concept="2P4BvU" id="4dLMRvejvNj" role="Bt$3u">
              <node concept="B2WG_" id="4dLMRvejvOa" role="Bt$3u">
                <node concept="B2OeQ" id="4dLMRvejwWx" role="BtER6">
                  <node concept="CgG_C" id="4dLMRvejx7B" role="Bt$3u">
                    <node concept="B2WG_" id="4dLMRvejx5m" role="Bt$3s">
                      <node concept="2P4BvY" id="4dLMRvejxCA" role="BtER6">
                        <node concept="B2WG_" id="4dLMRvejxFE" role="Bt$3u">
                          <node concept="B2O5r" id="4dLMRvejxMa" role="BtER6">
                            <node concept="B0vAg" id="4dLMRvejxPk" role="Bt$3u">
                              <ref role="B0vBL" node="4dLMRvejh0r" resolve="skin" />
                            </node>
                            <node concept="B0vAg" id="4dLMRvejxIH" role="Bt$3s">
                              <ref role="B0vBL" node="4dLMRvejgZV" resolve="cutoff" />
                            </node>
                          </node>
                        </node>
                        <node concept="zp_wb" id="3hhwBTDY$Gc" role="Bt$3s">
                          <ref role="zp_wc" node="Opj2YGusU6" resolve="sigma" />
                        </node>
                      </node>
                    </node>
                    <node concept="cCXpN" id="4dLMRvejx9S" role="Bt$3u">
                      <property role="cC$t3" value="6" />
                    </node>
                  </node>
                  <node concept="CgG_C" id="4dLMRvejx0S" role="Bt$3s">
                    <node concept="B2WG_" id="4dLMRvejwYH" role="Bt$3s">
                      <node concept="2P4BvY" id="4dLMRvejxeA" role="BtER6">
                        <node concept="B2WG_" id="4dLMRvejxh4" role="Bt$3u">
                          <node concept="B2O5r" id="4dLMRvejxmi" role="BtER6">
                            <node concept="B0vAg" id="4dLMRvejxoQ" role="Bt$3u">
                              <ref role="B0vBL" node="4dLMRvejh0r" resolve="skin" />
                            </node>
                            <node concept="B0vAg" id="4dLMRvejxjx" role="Bt$3s">
                              <ref role="B0vBL" node="4dLMRvejgZV" resolve="cutoff" />
                            </node>
                          </node>
                        </node>
                        <node concept="zp_wb" id="3hhwBTDYyJP" role="Bt$3s">
                          <ref role="zp_wc" node="Opj2YGusU6" resolve="sigma" />
                        </node>
                      </node>
                    </node>
                    <node concept="cCXpN" id="4dLMRvejx35" role="Bt$3u">
                      <property role="cC$t3" value="12" />
                    </node>
                  </node>
                </node>
              </node>
              <node concept="2P4BvU" id="4dLMRvejvM4" role="Bt$3s">
                <node concept="BtYGi" id="4dLMRvejvLD" role="Bt$3s">
                  <property role="BtYGt" value="4.0" />
                </node>
                <node concept="zp_wb" id="3hhwBTDYuRj" role="Bt$3u">
                  <ref role="zp_wc" node="Opj2YGusTM" resolve="epsilon" />
                </node>
              </node>
            </node>
            <node concept="B0vAg" id="4dLMRvejvJd" role="Bt$3s">
              <ref role="B0vBL" node="4dLMRvejh0G" resolve="E_prc" />
            </node>
          </node>
        </node>
        <node concept="B3gsC" id="4dLMRvejxSQ" role="B3gvq" />
        <node concept="2xpR0z" id="4dLMRvejy1z" role="B3gvq">
          <property role="TrG5h" value="topo" />
          <node concept="Ztaf6" id="4dLMRvejy1_" role="2xpBXE">
            <property role="Ztafo" value="ppm_param_bcdef_periodic" />
          </node>
          <node concept="B2O5r" id="4dLMRvejy6U" role="2xpBYX">
            <node concept="B0vAg" id="4dLMRvejyaB" role="Bt$3u">
              <ref role="B0vBL" node="4dLMRvejh0r" resolve="skin" />
            </node>
            <node concept="B0vAg" id="4dLMRvejy6I" role="Bt$3s">
              <ref role="B0vBL" node="4dLMRvejgZV" resolve="cutoff" />
            </node>
          </node>
        </node>
        <node concept="B3gsC" id="4dLMRvejyej" role="B3gvq" />
        <node concept="2xw7c3" id="4dLMRvejynw" role="B3gvq">
          <property role="TrG5h" value="parts" />
          <node concept="2Z2qvo" id="4dLMRvejynx" role="ZjIkW">
            <ref role="2ZsMdb" node="4dLMRvejynw" resolve="parts" />
            <node concept="3DVdGT" id="4dLMRvejyny" role="3E5bw" />
          </node>
          <node concept="B0vAg" id="4dLMRvejytt" role="2xw7fE">
            <ref role="B0vBL" node="4dLMRvejy1z" resolve="topo" />
          </node>
          <node concept="B2O5r" id="4dLMRvejyux" role="2xw0KN">
            <node concept="B0vAg" id="4dLMRvejyyO" role="Bt$3u">
              <ref role="B0vBL" node="4dLMRvejh0r" resolve="skin" />
            </node>
            <node concept="B0vAg" id="4dLMRvejytV" role="Bt$3s">
              <ref role="B0vBL" node="4dLMRvejgZV" resolve="cutoff" />
            </node>
          </node>
          <node concept="B3gvr" id="4dLMRvejyB9" role="P$RcX">
            <node concept="$eJ5c" id="4dLMRvejyFt" role="B3gvq">
              <node concept="B3B8_" id="4dLMRvejyFu" role="$eJ59">
                <property role="TrG5h" value="v" />
                <node concept="32th3$" id="4dLMRvejyFz" role="ZjIkW">
                  <node concept="Ztaf6" id="4dLMRvejyFW" role="32pvWL">
                    <property role="Ztafo" value="velocity" />
                  </node>
                  <node concept="BtPKD" id="4dLMRvejyIB" role="32thcL">
                    <property role="YYatA" value="true" />
                  </node>
                  <node concept="3RUjtv" id="4dLMRvejzHw" role="32thaE">
                    <node concept="ZjH0Z" id="4dLMRvejzHv" role="3RTcUn" />
                    <node concept="3ROQXh" id="4dLMRvejzHx" role="3RUj58">
                      <node concept="3ROQXa" id="3hhwBTDYAK8" role="3RPaVW">
                        <ref role="3ROQX3" node="2Xgo$egGInk" resolve="mps" />
                      </node>
                    </node>
                  </node>
                </node>
              </node>
            </node>
            <node concept="$eJ5c" id="4dLMRvejyJK" role="B3gvq">
              <node concept="B3B8_" id="4dLMRvejyJL" role="$eJ59">
                <property role="TrG5h" value="a" />
                <node concept="32th3$" id="4dLMRvejyJM" role="ZjIkW">
                  <node concept="Ztaf6" id="4dLMRvejyJN" role="32pvWL">
                    <property role="Ztafo" value="acceleration" />
                  </node>
                  <node concept="BtPKD" id="4dLMRvejyJO" role="32thcL">
                    <property role="YYatA" value="true" />
                  </node>
                  <node concept="3RUjtv" id="4dLMRvejyP0" role="32thaE">
                    <node concept="ZjH0Z" id="4dLMRvejyOZ" role="3RTcUn" />
                    <node concept="3ROQXh" id="4dLMRvejyP1" role="3RUj58">
                      <node concept="3ROQXa" id="3hhwBTDYEtJ" role="3RPaVW">
                        <ref role="3ROQX3" node="2Xgo$egGInc" resolve="l" />
                      </node>
                      <node concept="3ROQXa" id="4dLMRvejyU1" role="3RPaVW">
                        <ref role="3ROQX3" node="2Xgo$egGIne" resolve="t" />
                        <node concept="3RR4o3" id="4dLMRvejyWK" role="3ROQX1">
                          <property role="3RR48S" value="-2" />
                        </node>
                      </node>
                    </node>
                  </node>
                </node>
              </node>
            </node>
            <node concept="$eJ5c" id="4dLMRvejyKB" role="B3gvq">
              <node concept="B3B8_" id="4dLMRvejyKC" role="$eJ59">
                <property role="TrG5h" value="F" />
                <node concept="32th3$" id="4dLMRvejyKD" role="ZjIkW">
                  <node concept="Ztaf6" id="4dLMRvejyKE" role="32pvWL">
                    <property role="Ztafo" value="force" />
                  </node>
                  <node concept="BtPKD" id="4dLMRvejyKF" role="32thcL">
                    <property role="YYatA" value="true" />
                  </node>
                  <node concept="3RUjtv" id="4dLMRvejzkE" role="32thaE">
                    <node concept="ZjH0Z" id="4dLMRvejzkD" role="3RTcUn" />
                    <node concept="3ROQXh" id="4dLMRvejzkF" role="3RUj58">
                      <node concept="3ROQXa" id="3hhwBTDYGkH" role="3RPaVW">
                        <ref role="3ROQX3" node="4dLMRvej85o" resolve="mass" />
                      </node>
                      <node concept="3ROQXa" id="3hhwBTDYIbX" role="3RPaVW">
                        <ref role="3ROQX3" node="2Xgo$egGInc" resolve="l" />
                      </node>
                      <node concept="3ROQXa" id="4dLMRvejzv7" role="3RPaVW">
                        <ref role="3ROQX3" node="2Xgo$egGIne" resolve="t" />
                        <node concept="3RR4o3" id="4dLMRvejzyq" role="3ROQX1">
                          <property role="3RR48S" value="-2" />
                        </node>
                      </node>
                    </node>
                  </node>
                </node>
              </node>
            </node>
            <node concept="$eJ5c" id="4dLMRvejyKV" role="B3gvq">
              <node concept="B3B8_" id="4dLMRvejyKW" role="$eJ59">
                <property role="TrG5h" value="E" />
                <node concept="32th3$" id="4dLMRvejyKX" role="ZjIkW">
                  <node concept="Ztaf6" id="4dLMRvejyKY" role="32pvWL">
                    <property role="Ztafo" value="energy" />
                  </node>
                  <node concept="BtPKD" id="4dLMRvejyKZ" role="32thcL">
                    <property role="YYatA" value="true" />
                  </node>
                  <node concept="cCXpN" id="4Zbv1O0vLyj" role="32thca">
                    <property role="cC$t3" value="1" />
                  </node>
                </node>
              </node>
            </node>
            <node concept="$eJ5c" id="ti97EHXQx_" role="B3gvq">
              <node concept="B3B8_" id="ti97EHXQxA" role="$eJ59">
                <property role="TrG5h" value="pos" />
                <node concept="32th3$" id="ti97EHXQxB" role="ZjIkW">
                  <node concept="Ztaf6" id="ti97EHXQxC" role="32pvWL">
                    <property role="Ztafo" value="position" />
                  </node>
                  <node concept="cCXpN" id="ti97EHXQyW" role="32thca">
                    <property role="cC$t3" value="3" />
                  </node>
                  <node concept="3RUjtv" id="ti97EHXQ$S" role="32thaE">
                    <node concept="ZjH0Z" id="ti97EHXQ$R" role="3RTcUn" />
                    <node concept="3ROQXh" id="ti97EHXQ$T" role="3RUj58">
                      <node concept="3ROQXa" id="3hhwBTDYLUt" role="3RPaVW">
                        <ref role="3ROQX3" node="2Xgo$egGInc" resolve="l" />
                      </node>
                    </node>
                  </node>
                </node>
              </node>
            </node>
          </node>
          <node concept="B3gvr" id="4XypWeriP8g" role="P$Rec" />
        </node>
        <node concept="B3gsC" id="4dLMRvejzOp" role="B3gvq" />
        <node concept="3DOnBj" id="4dLMRvej$0k" role="B3gvq">
          <property role="TrG5h" value="nlist" />
          <node concept="B0vAg" id="ti97EI9yZa" role="3DOnBh">
            <ref role="B0vBL" node="4dLMRvejynw" resolve="parts" />
          </node>
          <node concept="B0vAg" id="4dLMRvej$7x" role="2xIQWL">
            <ref role="B0vBL" node="4dLMRvejh0r" resolve="skin" />
          </node>
          <node concept="B0vAg" id="4dLMRvej$ci" role="2xIQWe">
            <ref role="B0vBL" node="4dLMRvejgZV" resolve="cutoff" />
          </node>
          <node concept="BtPKo" id="4dLMRvej$h6" role="2xIQWa">
            <property role="YYatA" value="false" />
          </node>
        </node>
        <node concept="B3gsC" id="4dLMRvejr7Y" role="B3gvq" />
        <node concept="B3hOv" id="4dLMRvej$Kv" role="B3gvq">
          <node concept="cIIhE" id="7rj0D7TiTc9" role="B3hOu">
            <node concept="B0vAg" id="7rj0D7TiTbw" role="cIIrG">
              <ref role="B0vBL" node="4dLMRvejynw" resolve="parts" />
            </node>
            <node concept="34FJqe" id="7rj0D7TiTdo" role="cIIrI" />
          </node>
        </node>
        <node concept="B3gsC" id="4dLMRvej_2K" role="B3gvq" />
        <node concept="$eJ5c" id="4dLMRvej_bu" role="B3gvq">
          <node concept="B3B8_" id="4dLMRvej_bw" role="$eJ59">
            <property role="TrG5h" value="Ev_tot" />
            <node concept="ZjH0Z" id="4dLMRvej_iC" role="ZjIkW" />
          </node>
        </node>
        <node concept="$eJ5c" id="4dLMRvej_iM" role="B3gvq">
          <node concept="B3B8_" id="4dLMRvej_iN" role="$eJ59">
            <property role="TrG5h" value="Ep_tot" />
            <node concept="ZjH0Z" id="4dLMRvej_iO" role="ZjIkW" />
          </node>
        </node>
        <node concept="$eJ5c" id="4dLMRvej_Ew" role="B3gvq">
          <node concept="B3B8_" id="4dLMRvej_Ex" role="$eJ59">
            <property role="TrG5h" value="E_tot" />
            <node concept="ZjH0Z" id="4dLMRvej_Ey" role="ZjIkW" />
          </node>
        </node>
        <node concept="$eJ5c" id="4dLMRvej_pT" role="B3gvq">
          <node concept="B3B8_" id="4dLMRvej_pU" role="$eJ59">
            <property role="TrG5h" value="Ev_tot_old" />
            <node concept="ZjH0Z" id="4dLMRvej_pV" role="ZjIkW" />
          </node>
        </node>
        <node concept="$eJ5c" id="4dLMRvej_x3" role="B3gvq">
          <node concept="B3B8_" id="4dLMRvej_x4" role="$eJ59">
            <property role="TrG5h" value="Ep_tot_old" />
            <node concept="ZjH0Z" id="4dLMRvej_x5" role="ZjIkW" />
          </node>
        </node>
        <node concept="B3gsC" id="4dLMRvejAab" role="B3gvq" />
        <node concept="$eJ5c" id="4dLMRvejA0f" role="B3gvq">
          <node concept="B3B8_" id="4dLMRvejA0g" role="$eJ59">
            <property role="TrG5h" value="r_pq" />
            <node concept="3E5Zr" id="4dLMRvejArY" role="ZjIkW">
              <node concept="cCXpN" id="4dLMRvejAsS" role="3cXY_V">
                <property role="cC$t3" value="3" />
              </node>
              <node concept="3RUjtv" id="ti97EIdaHH" role="3E5bw">
                <node concept="ZjH0Z" id="ti97EIdaHI" role="3RTcUn" />
                <node concept="3ROQXh" id="ti97EIdaHJ" role="3RUj58">
                  <node concept="3ROQXa" id="3hhwBTDYNL_" role="3RPaVW">
                    <ref role="3ROQX3" node="2Xgo$egGInc" resolve="l" />
                  </node>
                </node>
              </node>
            </node>
          </node>
        </node>
        <node concept="$eJ5c" id="4dLMRvejA2r" role="B3gvq">
          <node concept="B3B8_" id="4dLMRvejA2s" role="$eJ59">
            <property role="TrG5h" value="dF" />
            <node concept="3E5Zr" id="4dLMRvejAuk" role="ZjIkW">
              <node concept="cCXpN" id="4dLMRvejAve" role="3cXY_V">
                <property role="cC$t3" value="3" />
              </node>
              <node concept="3RUjtv" id="3hhwBTE1Q0Q" role="3E5bw">
                <node concept="ZjH0Z" id="3hhwBTE1Q0R" role="3RTcUn" />
                <node concept="3ROQXh" id="3hhwBTE1Q0S" role="3RUj58">
                  <node concept="3ROQXa" id="3hhwBTE1SWd" role="3RPaVW">
                    <ref role="3ROQX3" node="4dLMRvej85o" resolve="mass" />
                  </node>
                  <node concept="3ROQXa" id="3hhwBTE1YOM" role="3RPaVW">
                    <ref role="3ROQX3" node="2Xgo$egGInc" resolve="l" />
                  </node>
                  <node concept="3ROQXa" id="3hhwBTE21O2" role="3RPaVW">
                    <ref role="3ROQX3" node="2Xgo$egGIne" resolve="t" />
                    <node concept="3RR4o3" id="3hhwBTE24Nh" role="3ROQX1">
                      <property role="3RR48S" value="-2" />
                    </node>
                  </node>
                </node>
              </node>
            </node>
          </node>
        </node>
        <node concept="$eJ5c" id="4dLMRvejAji" role="B3gvq">
          <node concept="B3B8_" id="4dLMRvejAjj" role="$eJ59">
            <property role="TrG5h" value="r_s_pq2" />
            <node concept="3RUjtv" id="ti97EIdC5J" role="ZjIkW">
              <node concept="ZjH0Z" id="ti97EIdC5I" role="3RTcUn" />
              <node concept="3ROQXh" id="ti97EIdC5K" role="3RUj58">
                <node concept="3ROQXa" id="3hhwBTDYYTU" role="3RPaVW">
                  <ref role="3ROQX3" node="2Xgo$egGInc" resolve="l" />
                  <node concept="3RR4o3" id="3hhwBTDZ0Hd" role="3ROQX1">
                    <property role="3RR48S" value="2" />
                  </node>
                </node>
              </node>
            </node>
          </node>
        </node>
        <node concept="B3gsC" id="4dLMRvejAEM" role="B3gvq" />
        <node concept="$eJ5c" id="4dLMRvejAwE" role="B3gvq">
          <node concept="B3B8_" id="4dLMRvejAwF" role="$eJ59">
            <property role="TrG5h" value="st" />
            <node concept="ZjHkL" id="4dLMRvejAMf" role="ZjIkW" />
            <node concept="cCXpN" id="4dLMRvejB2M" role="B3FsR">
              <property role="cC$t3" value="0" />
            </node>
          </node>
        </node>
        <node concept="B3gsC" id="ti97EHLw0Y" role="B3gvq" />
        <node concept="1jGXcj" id="4dLMRvejBir" role="B3gvq">
          <property role="TrG5h" value="t" />
          <node concept="B3gvr" id="4dLMRvejBit" role="1jGXch">
            <node concept="1zUE3U" id="4dLMRvejBq0" role="B3gvq">
              <node concept="B0vAg" id="4dLMRvejBqv" role="1zUE3T">
                <ref role="B0vBL" node="4dLMRvejynw" resolve="parts" />
              </node>
              <node concept="B3B8_" id="4dLMRvejBq2" role="1zBU1m">
                <property role="TrG5h" value="p" />
                <node concept="3DVdGT" id="4dLMRvejBqb" role="ZjIkW" />
              </node>
              <node concept="B3gvr" id="4dLMRvejBq3" role="1wZMir">
                <node concept="B3hOv" id="4dLMRvejBqK" role="B3gvq">
                  <node concept="Bt$5F" id="ti97EHOZLH" role="B3hOu">
                    <node concept="2P4BvY" id="ti97EHP0yS" role="Bt$3u">
                      <node concept="zp_wb" id="3hhwBTDZ4xU" role="Bt$3u">
                        <ref role="zp_wc" node="Opj2YGupV1" resolve="mass" />
                      </node>
                      <node concept="cIIhE" id="ti97EHOZZ_" role="Bt$3s">
                        <node concept="B0vAg" id="ti97EHOZLK" role="cIIrG">
                          <ref role="B0vBL" node="4dLMRvejBq2" resolve="p" />
                        </node>
                        <node concept="2ZuZsb" id="ti97EHP0cs" role="cIIrI">
                          <ref role="2ZuZs9" node="4dLMRvejyKC" resolve="F" />
                        </node>
                      </node>
                    </node>
                    <node concept="cIIhE" id="4dLMRvejBr2" role="Bt$3s">
                      <node concept="B0vAg" id="4dLMRvejBqS" role="cIIrG">
                        <ref role="B0vBL" node="4dLMRvejBq2" resolve="p" />
                      </node>
                      <node concept="2ZuZsb" id="4dLMRvejBs2" role="cIIrI">
                        <ref role="2ZuZs9" node="4dLMRvejyJL" resolve="a" />
                      </node>
                    </node>
                  </node>
                </node>
                <node concept="B3hOv" id="ti97EHXR_D" role="B3gvq">
                  <node concept="Bt$5F" id="ti97EHXTEB" role="B3hOu">
                    <node concept="B2O5r" id="ti97EHY1H$" role="Bt$3u">
                      <node concept="2P4BvU" id="ti97EHY7b4" role="Bt$3u">
                        <node concept="CgG_C" id="ti97EHY9an" role="Bt$3u">
                          <node concept="zp_wb" id="3hhwBTDZaxD" role="Bt$3s">
                            <ref role="zp_wc" node="Opj2YGusUi" resolve="delta_t" />
                          </node>
                          <node concept="cCXpN" id="ti97EHYa8L" role="Bt$3u">
                            <property role="cC$t3" value="2" />
                          </node>
                        </node>
                        <node concept="2P4BvU" id="ti97EHY4oL" role="Bt$3s">
                          <node concept="BtYGi" id="ti97EHY3vV" role="Bt$3s">
                            <property role="BtYGt" value="0.5" />
                          </node>
                          <node concept="cIIhE" id="ti97EHY5gQ" role="Bt$3u">
                            <node concept="B0vAg" id="ti97EHY4oO" role="cIIrG">
                              <ref role="B0vBL" node="4dLMRvejBq2" resolve="p" />
                            </node>
                            <node concept="2ZuZsb" id="ti97EHY69s" role="cIIrI">
                              <ref role="2ZuZs9" node="4dLMRvejyJL" resolve="a" />
                            </node>
                          </node>
                        </node>
                      </node>
                      <node concept="B2O5r" id="ti97EHXWKt" role="Bt$3s">
                        <node concept="cIIhE" id="ti97EHXVb5" role="Bt$3s">
                          <node concept="B0vAg" id="ti97EHXUqT" role="cIIrG">
                            <ref role="B0vBL" node="4dLMRvejBq2" resolve="p" />
                          </node>
                          <node concept="2ZuZsb" id="ti97EHXVW0" role="cIIrI">
                            <ref role="2ZuZs9" node="ti97EHXQxA" resolve="pos" />
                          </node>
                        </node>
                        <node concept="2P4BvU" id="ti97EHXZZL" role="Bt$3u">
                          <node concept="cIIhE" id="ti97EHXYlF" role="Bt$3s">
                            <node concept="B0vAg" id="ti97EHXXyP" role="cIIrG">
                              <ref role="B0vBL" node="4dLMRvejBq2" resolve="p" />
                            </node>
                            <node concept="2ZuZsb" id="ti97EHXZ87" role="cIIrI">
                              <ref role="2ZuZs9" node="4dLMRvejyFu" resolve="v" />
                            </node>
                          </node>
                          <node concept="zp_wb" id="3hhwBTDZ8xs" role="Bt$3u">
                            <ref role="zp_wc" node="Opj2YGusUi" resolve="delta_t" />
                          </node>
                        </node>
                      </node>
                    </node>
                    <node concept="cIIhE" id="ti97EHXSgq" role="Bt$3s">
                      <node concept="B0vAg" id="ti97EHXSgg" role="cIIrG">
                        <ref role="B0vBL" node="4dLMRvejBq2" resolve="p" />
                      </node>
                      <node concept="2ZuZsb" id="ti97EHXSVy" role="cIIrI">
                        <ref role="2ZuZs9" node="ti97EHXQxA" resolve="pos" />
                      </node>
                    </node>
                  </node>
                </node>
                <node concept="B3hOv" id="ti97EHYfIW" role="B3gvq">
                  <node concept="Bt$5F" id="ti97EHYimj" role="B3hOu">
                    <node concept="3RVH8G" id="ti97EHYldQ" role="Bt$3u">
                      <node concept="BtYGi" id="ti97EHYldP" role="3RTrRa">
                        <property role="BtYGt" value="0.0" />
                      </node>
                      <node concept="3ROQXh" id="ti97EHYldR" role="3RVH9H">
                        <node concept="3ROQXa" id="3hhwBTDZeLQ" role="3RPaVW">
                          <ref role="3ROQX3" node="4dLMRvej85o" resolve="mass" />
                        </node>
                        <node concept="3ROQXa" id="3hhwBTDZl91" role="3RPaVW">
                          <ref role="3ROQX3" node="2Xgo$egGInc" resolve="l" />
                        </node>
                        <node concept="3ROQXa" id="3hhwBTDZpo4" role="3RPaVW">
                          <ref role="3ROQX3" node="2Xgo$egGIne" resolve="t" />
                          <node concept="3RR4o3" id="3hhwBTDZrvW" role="3ROQX1">
                            <property role="3RR48S" value="-2" />
                          </node>
                        </node>
                      </node>
                    </node>
                    <node concept="cIIhE" id="ti97EHYg$D" role="Bt$3s">
                      <node concept="B0vAg" id="ti97EHYg$v" role="cIIrG">
                        <ref role="B0vBL" node="4dLMRvejBq2" resolve="p" />
                      </node>
                      <node concept="2ZuZsb" id="ti97EHYhqo" role="cIIrI">
                        <ref role="2ZuZs9" node="4dLMRvejyKC" resolve="F" />
                      </node>
                    </node>
                  </node>
                </node>
                <node concept="B3hOv" id="ti97EHYx1m" role="B3gvq">
                  <node concept="Bt$5F" id="ti97EHY$1M" role="B3hOu">
                    <node concept="BtYGi" id="ti97EHY_2V" role="Bt$3u">
                      <property role="BtYGt" value="0.0" />
                    </node>
                    <node concept="cIIhE" id="ti97EHYy14" role="Bt$3s">
                      <node concept="B0vAg" id="ti97EHYy0U" role="cIIrG">
                        <ref role="B0vBL" node="4dLMRvejBq2" resolve="p" />
                      </node>
                      <node concept="2ZuZsb" id="ti97EHYz0C" role="cIIrI">
                        <ref role="2ZuZs9" node="4dLMRvejyKW" resolve="E" />
                      </node>
                    </node>
                  </node>
                </node>
              </node>
            </node>
            <node concept="B3gsC" id="ti97EHYA97" role="B3gvq" />
            <node concept="B3hOv" id="ti97EHYDcC" role="B3gvq">
              <node concept="cIIhE" id="ti97EHYEjA" role="B3hOu">
                <node concept="B0vAg" id="ti97EHYEe8" role="cIIrG">
                  <ref role="B0vBL" node="4dLMRvejynw" resolve="parts" />
                </node>
                <node concept="34FJqe" id="ti97EHYEpZ" role="cIIrI" />
              </node>
            </node>
            <node concept="3DR9tb" id="ti97EHYFwz" role="B3gvq">
              <node concept="3DR9tk" id="ti97EHYGya" role="3DR9t8" />
              <node concept="B0vAg" id="ti97EHYGxY" role="34BZeb">
                <ref role="B0vBL" node="4dLMRvejynw" resolve="parts" />
              </node>
            </node>
            <node concept="3DR9tb" id="ti97EHYGBF" role="B3gvq">
              <node concept="3DR9tm" id="ti97EHYIEM" role="3DR9t8" />
              <node concept="B0vAg" id="ti97EHYGBH" role="34BZeb">
                <ref role="B0vBL" node="4dLMRvejynw" resolve="parts" />
              </node>
            </node>
            <node concept="34$yiH" id="ti97EHYJRj" role="B3gvq">
              <node concept="B0vAg" id="ti97EHYKSM" role="34$HCS">
                <ref role="B0vBL" node="4dLMRvejynw" resolve="parts" />
              </node>
            </node>
            <node concept="B3gsC" id="ti97EHYKSY" role="B3gvq" />
            <node concept="1zUE3U" id="ti97EHYP4w" role="B3gvq">
              <node concept="B0vAg" id="ti97EHYQ6D" role="1zUE3T">
                <ref role="B0vBL" node="4dLMRvejynw" resolve="parts" />
              </node>
              <node concept="B3B8_" id="ti97EHYP4G" role="1zBU1m">
                <property role="TrG5h" value="p" />
                <node concept="3DVdGT" id="ti97EHYQ6l" role="ZjIkW" />
              </node>
              <node concept="B3gvr" id="ti97EHYP4M" role="1wZMir">
                <node concept="1zUE3U" id="ti97EHYQ74" role="B3gvq">
                  <node concept="1s29RC" id="ti97EHYQ7z" role="1zUE3T">
                    <node concept="B0vAg" id="ti97EHYQ7V" role="1s28hg">
                      <ref role="B0vBL" node="ti97EHYP4G" resolve="p" />
                    </node>
                    <node concept="B0vAg" id="ti97EHYQ88" role="1s28he">
                      <ref role="B0vBL" node="4dLMRvej$0k" resolve="nlist" />
                    </node>
                  </node>
                  <node concept="B3B8_" id="ti97EHYQ76" role="1zBU1m">
                    <property role="TrG5h" value="q" />
                    <node concept="3DVdGT" id="ti97EHYQ7f" role="ZjIkW" />
                  </node>
                  <node concept="B3gvr" id="ti97EHYQ77" role="1wZMir">
                    <node concept="B3hOv" id="ti97EHYQ8v" role="B3gvq">
                      <node concept="Bt$5F" id="ti97EHYQ8Y" role="B3hOu">
                        <node concept="B2OeQ" id="ti97EId5eg" role="Bt$3u">
                          <node concept="cIIhE" id="ti97EId7px" role="Bt$3u">
                            <node concept="B0vAg" id="ti97EId6mH" role="cIIrG">
                              <ref role="B0vBL" node="ti97EHYQ76" resolve="q" />
                            </node>
                            <node concept="2ZuZsb" id="ti97EId8su" role="cIIrI">
                              <ref role="2ZuZs9" node="ti97EHXQxA" resolve="pos" />
                            </node>
                          </node>
                          <node concept="cIIhE" id="ti97EHYQaE" role="Bt$3s">
                            <node concept="B0vAg" id="ti97EHYQ91" role="cIIrG">
                              <ref role="B0vBL" node="ti97EHYP4G" resolve="p" />
                            </node>
                            <node concept="2ZuZsb" id="ti97EHYQiR" role="cIIrI">
                              <ref role="2ZuZs9" node="ti97EHXQxA" resolve="pos" />
                            </node>
                          </node>
                        </node>
                        <node concept="B0vAg" id="ti97EHYQ8B" role="Bt$3s">
                          <ref role="B0vBL" node="4dLMRvejA0g" resolve="r_pq" />
                        </node>
                      </node>
                    </node>
                    <node concept="B3hOv" id="ti97EIdiMg" role="B3gvq">
                      <node concept="Bt$5F" id="ti97EIdjWT" role="B3hOu">
                        <node concept="B2O5r" id="ti97EIdreE" role="Bt$3u">
                          <node concept="CgG_C" id="ti97EIdwgP" role="Bt$3u">
                            <node concept="3R0Ra" id="ti97EIdtIi" role="Bt$3s">
                              <node concept="cCXpN" id="ti97EIduZx" role="3R0Rd">
                                <property role="cC$t3" value="2" />
                              </node>
                              <node concept="B0vAg" id="ti97EIdsty" role="3R0Rb">
                                <ref role="B0vBL" node="4dLMRvejA0g" resolve="r_pq" />
                              </node>
                            </node>
                            <node concept="cCXpN" id="ti97EIdxy7" role="Bt$3u">
                              <property role="cC$t3" value="2" />
                            </node>
                          </node>
                          <node concept="B2O5r" id="ti97EIdmmN" role="Bt$3s">
                            <node concept="CgG_C" id="ti97EId_qT" role="Bt$3s">
                              <node concept="3R0Ra" id="ti97EIdjYt" role="Bt$3s">
                                <node concept="cCXpN" id="ti97EIdlaA" role="3R0Rd">
                                  <property role="cC$t3" value="0" />
                                </node>
                                <node concept="B0vAg" id="ti97EIdjXj" role="3R0Rb">
                                  <ref role="B0vBL" node="4dLMRvejA0g" resolve="r_pq" />
                                </node>
                              </node>
                              <node concept="cCXpN" id="ti97EIdAIm" role="Bt$3u">
                                <property role="cC$t3" value="2" />
                              </node>
                            </node>
                            <node concept="CgG_C" id="ti97EIdyPi" role="Bt$3u">
                              <node concept="3R0Ra" id="ti97EIdoLe" role="Bt$3s">
                                <node concept="cCXpN" id="ti97EIdpZU" role="3R0Rd">
                                  <property role="cC$t3" value="1" />
                                </node>
                                <node concept="B0vAg" id="ti97EIdnyX" role="3R0Rb">
                                  <ref role="B0vBL" node="4dLMRvejA0g" resolve="r_pq" />
                                </node>
                              </node>
                              <node concept="cCXpN" id="ti97EId$79" role="Bt$3u">
                                <property role="cC$t3" value="2" />
                              </node>
                            </node>
                          </node>
                        </node>
                        <node concept="B0vAg" id="ti97EIdjWI" role="Bt$3s">
                          <ref role="B0vBL" node="4dLMRvejAjj" resolve="r_s_pq2" />
                        </node>
                      </node>
                    </node>
                    <node concept="B3hOv" id="ti97EIdJeq" role="B3gvq">
                      <node concept="Bt$5F" id="ti97EIdKDQ" role="B3hOu">
                        <node concept="2P4BvU" id="ti97EIdNNk" role="Bt$3u">
                          <node concept="B2WG_" id="ti97EIdNNn" role="Bt$3u">
                            <node concept="B2OeQ" id="ti97EIe5dC" role="BtER6">
                              <node concept="B2WG_" id="ti97EIe6Qh" role="Bt$3u">
                                <node concept="2P4BvY" id="ti97EIea84" role="BtER6">
                                  <node concept="CgG_C" id="ti97EIedxl" role="Bt$3u">
                                    <node concept="B0vAg" id="ti97EIebK_" role="Bt$3s">
                                      <ref role="B0vBL" node="4dLMRvejAjj" resolve="r_s_pq2" />
                                    </node>
                                    <node concept="cCXpN" id="ti97EIefbT" role="Bt$3u">
                                      <property role="cC$t3" value="4" />
                                    </node>
                                  </node>
                                  <node concept="CgG_C" id="ti97EIegU1" role="Bt$3s">
                                    <node concept="zp_wb" id="3hhwBTDZ$eG" role="Bt$3s">
                                      <ref role="zp_wc" node="Opj2YGusU6" resolve="sigma" />
                                    </node>
                                    <node concept="cCXpN" id="ti97EIei_4" role="Bt$3u">
                                      <property role="cC$t3" value="6" />
                                    </node>
                                  </node>
                                </node>
                              </node>
                              <node concept="2P4BvU" id="ti97EIdSp_" role="Bt$3s">
                                <node concept="3RVH8G" id="3hhwBTDZPPW" role="Bt$3s">
                                  <node concept="BtYGi" id="3hhwBTDZPPV" role="3RTrRa">
                                    <property role="BtYGt" value="2.0" />
                                  </node>
                                  <node concept="3ROQXh" id="3hhwBTDZPPX" role="3RVH9H">
                                    <node concept="3ROQXa" id="3hhwBTDZPPY" role="3RPaVW">
                                      <ref role="3ROQX3" node="2Xgo$egGInc" resolve="l" />
                                      <node concept="3RR4o3" id="3hhwBTDZSvE" role="3ROQX1">
                                        <property role="3RR48S" value="6" />
                                      </node>
                                    </node>
                                  </node>
                                </node>
                                <node concept="B2WG_" id="ti97EIdSpC" role="Bt$3u">
                                  <node concept="2P4BvY" id="ti97EIe1Ut" role="BtER6">
                                    <node concept="CgG_C" id="ti97EIekjr" role="Bt$3u">
                                      <node concept="B0vAg" id="ti97EIe3wf" role="Bt$3s">
                                        <ref role="B0vBL" node="4dLMRvejAjj" resolve="r_s_pq2" />
                                      </node>
                                      <node concept="cCXpN" id="ti97EIelZs" role="Bt$3u">
                                        <property role="cC$t3" value="7" />
                                      </node>
                                    </node>
                                    <node concept="CgG_C" id="ti97EIenK0" role="Bt$3s">
                                      <node concept="zp_wb" id="3hhwBTDZy1C" role="Bt$3s">
                                        <ref role="zp_wc" node="Opj2YGusU6" resolve="sigma" />
                                      </node>
                                      <node concept="cCXpN" id="ti97EIepsw" role="Bt$3u">
                                        <property role="cC$t3" value="12" />
                                      </node>
                                    </node>
                                  </node>
                                </node>
                              </node>
                            </node>
                          </node>
                          <node concept="2P4BvU" id="3hhwBTE1mQd" role="Bt$3s">
                            <node concept="3RVH8G" id="3hhwBTE1sl1" role="Bt$3s">
                              <node concept="cCXpN" id="3hhwBTE1sl0" role="3RTrRa">
                                <property role="cC$t3" value="1" />
                              </node>
                              <node concept="3ROQXh" id="3hhwBTE1sl2" role="3RVH9H">
                                <node concept="3ROQXa" id="3hhwBTE1sl3" role="3RPaVW">
                                  <ref role="3ROQX3" node="2Xgo$egGIne" resolve="t" />
                                  <node concept="3RR4o3" id="3hhwBTE1vaA" role="3ROQX1">
                                    <property role="3RR48S" value="-2" />
                                  </node>
                                </node>
                              </node>
                            </node>
                            <node concept="B2WG_" id="ti97EIdKFi" role="Bt$3u">
                              <node concept="2P4BvU" id="ti97EIdKP0" role="BtER6">
                                <node concept="B0vAg" id="ti97EIdMhW" role="Bt$3u">
                                  <ref role="B0vBL" node="4dLMRvejA0g" resolve="r_pq" />
                                </node>
                                <node concept="2P4BvU" id="ti97EIdKK5" role="Bt$3s">
                                  <node concept="3RVH8G" id="3hhwBTDZXSu" role="Bt$3s">
                                    <node concept="BtYGi" id="3hhwBTDZXSt" role="3RTrRa">
                                      <property role="BtYGt" value="24.0" />
                                    </node>
                                    <node concept="3ROQXh" id="3hhwBTDZXSv" role="3RVH9H">
                                      <node concept="3ROQXa" id="3hhwBTE1Hp1" role="3RPaVW">
                                        <ref role="3ROQX3" node="2Xgo$egGInc" resolve="l" />
                                        <node concept="3RR4o3" id="3hhwBTE1KdO" role="3ROQX1">
                                          <property role="3RR48S" value="8" />
                                        </node>
                                      </node>
                                    </node>
                                  </node>
                                  <node concept="zp_wb" id="3hhwBTDZvQW" role="Bt$3u">
                                    <ref role="zp_wc" node="Opj2YGupV1" resolve="mass" />
                                  </node>
                                </node>
                              </node>
                            </node>
                          </node>
                        </node>
                        <node concept="B0vAg" id="ti97EIdKDv" role="Bt$3s">
                          <ref role="B0vBL" node="4dLMRvejA2s" resolve="dF" />
                        </node>
                      </node>
                    </node>
                    <node concept="B3hOv" id="ti97EIet4G" role="B3gvq">
                      <node concept="Bt$5F" id="ti97EIeyvu" role="B3hOu">
                        <node concept="B2O5r" id="ti97EIeChN" role="Bt$3u">
                          <node concept="B0vAg" id="ti97EIeEdW" role="Bt$3u">
                            <ref role="B0vBL" node="4dLMRvejA2s" resolve="dF" />
                          </node>
                          <node concept="cIIhE" id="ti97EIe$oW" role="Bt$3s">
                            <node concept="B0vAg" id="ti97EIeyvx" role="cIIrG">
                              <ref role="B0vBL" node="ti97EHYP4G" resolve="p" />
                            </node>
                            <node concept="2ZuZsb" id="ti97EIeAhd" role="cIIrI">
                              <ref role="2ZuZs9" node="4dLMRvejyKC" resolve="F" />
                            </node>
                          </node>
                        </node>
                        <node concept="cIIhE" id="ti97EIeuQF" role="Bt$3s">
                          <node concept="B0vAg" id="ti97EIeuQx" role="cIIrG">
                            <ref role="B0vBL" node="ti97EHYP4G" resolve="p" />
                          </node>
                          <node concept="2ZuZsb" id="ti97EIewCi" role="cIIrI">
                            <ref role="2ZuZs9" node="4dLMRvejyKC" resolve="F" />
                          </node>
                        </node>
                      </node>
                    </node>
                    <node concept="B3hOv" id="ti97EIeIb5" role="B3gvq">
                      <node concept="Bt$5F" id="ti97EIeOan" role="B3hOu">
                        <node concept="B2OeQ" id="ti97EIfkXt" role="Bt$3u">
                          <node concept="B0vAg" id="ti97EIfn8K" role="Bt$3u">
                            <ref role="B0vBL" node="4dLMRvejh0G" resolve="E_prc" />
                          </node>
                          <node concept="B2O5r" id="ti97EIeWgf" role="Bt$3s">
                            <node concept="cIIhE" id="ti97EIeSc3" role="Bt$3s">
                              <node concept="B0vAg" id="ti97EIeQbu" role="cIIrG">
                                <ref role="B0vBL" node="ti97EHYP4G" resolve="p" />
                              </node>
                              <node concept="2ZuZsb" id="ti97EIeUde" role="cIIrI">
                                <ref role="2ZuZs9" node="4dLMRvejyKW" resolve="E" />
                              </node>
                            </node>
                            <node concept="2P4BvU" id="ti97EIf4nM" role="Bt$3u">
                              <node concept="2P4BvU" id="ti97EIf0j$" role="Bt$3s">
                                <node concept="3RVH8G" id="4Zbv1O0vOWA" role="Bt$3s">
                                  <node concept="cCXpN" id="4Zbv1O0vOW_" role="3RTrRa">
                                    <property role="cC$t3" value="4" />
                                  </node>
                                  <node concept="3ROQXh" id="4Zbv1O0vOWB" role="3RVH9H">
                                    <node concept="3ROQXa" id="4Zbv1O0vOWC" role="3RPaVW">
                                      <ref role="3ROQX3" node="4dLMRvej85o" resolve="mass" />
                                      <node concept="3RR4o3" id="4Zbv1O0w89C" role="3ROQX1">
                                        <property role="3RR48S" value="-1" />
                                      </node>
                                    </node>
                                    <node concept="3ROQXa" id="4Zbv1O0vVlN" role="3RPaVW">
                                      <ref role="3ROQX3" node="2Xgo$egGInc" resolve="l" />
                                      <node concept="3RR4o3" id="4Zbv1O0vYyK" role="3ROQX1">
                                        <property role="3RR48S" value="12" />
                                      </node>
                                    </node>
                                  </node>
                                </node>
                                <node concept="zp_wb" id="3hhwBTDZA_z" role="Bt$3u">
                                  <ref role="zp_wc" node="Opj2YGupV1" resolve="mass" />
                                </node>
                              </node>
                              <node concept="B2WG_" id="ti97EIf4nP" role="Bt$3u">
                                <node concept="B2OeQ" id="ti97EIfcBg" role="BtER6">
                                  <node concept="B2WG_" id="3hhwBTE2epL" role="Bt$3u">
                                    <node concept="2P4BvU" id="3hhwBTE2epI" role="BtER6">
                                      <node concept="3RVH8G" id="3hhwBTE2nGC" role="Bt$3s">
                                        <node concept="BtYGi" id="3hhwBTE2nGB" role="3RTrRa">
                                          <property role="BtYGt" value="1.0" />
                                        </node>
                                        <node concept="3ROQXh" id="3hhwBTE2nGD" role="3RVH9H">
                                          <node concept="3ROQXa" id="3hhwBTE2EqJ" role="3RPaVW">
                                            <ref role="3ROQX3" node="2Xgo$egGInc" resolve="l" />
                                            <node concept="3RR4o3" id="3hhwBTE2Hyw" role="3ROQX1">
                                              <property role="3RR48S" value="-6" />
                                            </node>
                                          </node>
                                        </node>
                                      </node>
                                      <node concept="2P4BvY" id="ti97EIfgJL" role="Bt$3u">
                                        <node concept="CgG_C" id="ti97EIfA1b" role="Bt$3u">
                                          <node concept="B0vAg" id="ti97EIfiN_" role="Bt$3s">
                                            <ref role="B0vBL" node="4dLMRvejAjj" resolve="r_s_pq2" />
                                          </node>
                                          <node concept="cCXpN" id="ti97EIfC9N" role="Bt$3u">
                                            <property role="cC$t3" value="3" />
                                          </node>
                                        </node>
                                        <node concept="CgG_C" id="ti97EIfxKN" role="Bt$3s">
                                          <node concept="zp_wb" id="3hhwBTDZD3j" role="Bt$3s">
                                            <ref role="zp_wc" node="Opj2YGusU6" resolve="sigma" />
                                          </node>
                                          <node concept="cCXpN" id="ti97EIfzRu" role="Bt$3u">
                                            <property role="cC$t3" value="6" />
                                          </node>
                                        </node>
                                      </node>
                                    </node>
                                  </node>
                                  <node concept="2P4BvY" id="ti97EIf8u3" role="Bt$3s">
                                    <node concept="CgG_C" id="ti97EIfpiI" role="Bt$3s">
                                      <node concept="zp_wb" id="3hhwBTDZAEw" role="Bt$3s">
                                        <ref role="zp_wc" node="Opj2YGusU6" resolve="sigma" />
                                      </node>
                                      <node concept="cCXpN" id="ti97EIfrmX" role="Bt$3u">
                                        <property role="cC$t3" value="12" />
                                      </node>
                                    </node>
                                    <node concept="CgG_C" id="ti97EIftx9" role="Bt$3u">
                                      <node concept="B0vAg" id="ti97EIfawr" role="Bt$3s">
                                        <ref role="B0vBL" node="4dLMRvejAjj" resolve="r_s_pq2" />
                                      </node>
                                      <node concept="cCXpN" id="ti97EIfvBl" role="Bt$3u">
                                        <property role="cC$t3" value="6" />
                                      </node>
                                    </node>
                                  </node>
                                </node>
                              </node>
                            </node>
                          </node>
                        </node>
                        <node concept="cIIhE" id="ti97EIeKau" role="Bt$3s">
                          <node concept="B0vAg" id="ti97EIeKak" role="cIIrG">
                            <ref role="B0vBL" node="ti97EHYP4G" resolve="p" />
                          </node>
                          <node concept="2ZuZsb" id="ti97EIeM9l" role="cIIrI">
                            <ref role="2ZuZs9" node="4dLMRvejyKW" resolve="E" />
                          </node>
                        </node>
                      </node>
                    </node>
                    <node concept="B3gsC" id="3hhwBTE3X51" role="B3gvq" />
                  </node>
                </node>
              </node>
            </node>
            <node concept="B3gsC" id="ti97EIfElD" role="B3gvq" />
            <node concept="1zUE3U" id="ti97EIfIN6" role="B3gvq">
              <node concept="B0vAg" id="ti97EIfL2m" role="1zUE3T">
                <ref role="B0vBL" node="4dLMRvejynw" resolve="parts" />
              </node>
              <node concept="B3B8_" id="ti97EIfINa" role="1zBU1m">
                <property role="TrG5h" value="p" />
                <node concept="3DVdGT" id="ti97EIfL22" role="ZjIkW" />
              </node>
              <node concept="B3gvr" id="ti97EIfINc" role="1wZMir">
                <node concept="B3hOv" id="ti97EIfL2B" role="B3gvq">
                  <node concept="Bt$5F" id="ti97EIfL8S" role="B3hOu">
                    <node concept="B2O5r" id="ti97EIfRZ0" role="Bt$3u">
                      <node concept="2P4BvU" id="ti97EIgmCk" role="Bt$3u">
                        <node concept="zp_wb" id="3hhwBTDZFv4" role="Bt$3u">
                          <ref role="zp_wc" node="Opj2YGusUi" resolve="delta_t" />
                        </node>
                        <node concept="2P4BvU" id="ti97EIfYQO" role="Bt$3s">
                          <node concept="BtYGi" id="ti97EIfW$6" role="Bt$3s">
                            <property role="BtYGt" value="0.5" />
                          </node>
                          <node concept="B2WG_" id="ti97EIfYQR" role="Bt$3u">
                            <node concept="B2O5r" id="ti97EIg89r" role="BtER6">
                              <node concept="2P4BvY" id="ti97EIghEb" role="Bt$3u">
                                <node concept="zp_wb" id="3hhwBTDZHV2" role="Bt$3u">
                                  <ref role="zp_wc" node="Opj2YGupV1" resolve="mass" />
                                </node>
                                <node concept="cIIhE" id="ti97EIgcQb" role="Bt$3s">
                                  <node concept="B0vAg" id="ti97EIgavf" role="cIIrG">
                                    <ref role="B0vBL" node="ti97EIfINa" resolve="p" />
                                  </node>
                                  <node concept="2ZuZsb" id="ti97EIgfc3" role="cIIrI">
                                    <ref role="2ZuZs9" node="4dLMRvejyKC" resolve="F" />
                                  </node>
                                </node>
                              </node>
                              <node concept="cIIhE" id="ti97EIg3q$" role="Bt$3s">
                                <node concept="B0vAg" id="ti97EIg18G" role="cIIrG">
                                  <ref role="B0vBL" node="ti97EIfINa" resolve="p" />
                                </node>
                                <node concept="2ZuZsb" id="ti97EIg5Hk" role="cIIrI">
                                  <ref role="2ZuZs9" node="4dLMRvejyJL" resolve="a" />
                                </node>
                              </node>
                            </node>
                          </node>
                        </node>
                      </node>
                      <node concept="cIIhE" id="ti97EIfNpJ" role="Bt$3s">
                        <node concept="B0vAg" id="ti97EIfL8V" role="cIIrG">
                          <ref role="B0vBL" node="ti97EIfINa" resolve="p" />
                        </node>
                        <node concept="2ZuZsb" id="ti97EIfPE1" role="cIIrI">
                          <ref role="2ZuZs9" node="4dLMRvejyFu" resolve="v" />
                        </node>
                      </node>
                    </node>
                    <node concept="cIIhE" id="ti97EIfL2T" role="Bt$3s">
                      <node concept="B0vAg" id="ti97EIfL2J" role="cIIrG">
                        <ref role="B0vBL" node="ti97EIfINa" resolve="p" />
                      </node>
                      <node concept="2ZuZsb" id="ti97EIfL3U" role="cIIrI">
                        <ref role="2ZuZs9" node="4dLMRvejyFu" resolve="v" />
                      </node>
                    </node>
                  </node>
                </node>
              </node>
            </node>
            <node concept="B3hOv" id="ti97EIgzTp" role="B3gvq">
              <node concept="Bt$5F" id="ti97EIgA$i" role="B3hOu">
                <node concept="B2O5r" id="ti97EIgDbX" role="Bt$3u">
                  <node concept="zp_wb" id="3hhwBTDZKzj" role="Bt$3u">
                    <ref role="zp_wc" node="Opj2YGusUi" resolve="delta_t" />
                  </node>
                  <node concept="3RVH8G" id="3hhwBTE2bcp" role="Bt$3s">
                    <node concept="B0vAg" id="3hhwBTE2bco" role="3RTrRa">
                      <ref role="B0vBL" node="4dLMRvejBir" resolve="t" />
                    </node>
                    <node concept="3ROQXh" id="3hhwBTE2bcq" role="3RVH9H">
                      <node concept="3ROQXa" id="3hhwBTE2bcr" role="3RPaVW">
                        <ref role="3ROQX3" node="2Xgo$egGIne" resolve="t" />
                      </node>
                    </node>
                  </node>
                </node>
                <node concept="B0vAg" id="ti97EIgA$6" role="Bt$3s">
                  <ref role="B0vBL" node="4dLMRvejBir" resolve="t" />
                </node>
              </node>
            </node>
            <node concept="B3gsC" id="ti97EIgNNu" role="B3gvq" />
            <node concept="3DR9tb" id="ti97EIgQyG" role="B3gvq">
              <node concept="3DR9tm" id="ti97EIgTeD" role="3DR9t8" />
              <node concept="B0vAg" id="ti97EIgTeL" role="34BZeb">
                <ref role="B0vBL" node="4dLMRvejynw" resolve="parts" />
              </node>
            </node>
            <node concept="B3gsC" id="ti97EIgTlV" role="B3gvq" />
            <node concept="B3hOv" id="ti97EIgYHQ" role="B3gvq">
              <node concept="Bt$5F" id="ti97EIh1qc" role="B3hOu">
                <node concept="B2O5r" id="ti97EIh1ro" role="Bt$3u">
                  <node concept="cCXpN" id="ti97EIh1s0" role="Bt$3u">
                    <property role="cC$t3" value="1" />
                  </node>
                  <node concept="B0vAg" id="ti97EIh1qK" role="Bt$3s">
                    <ref role="B0vBL" node="4dLMRvejAwF" resolve="st" />
                  </node>
                </node>
                <node concept="B0vAg" id="ti97EIh1pW" role="Bt$3s">
                  <ref role="B0vBL" node="4dLMRvejAwF" resolve="st" />
                </node>
              </node>
            </node>
          </node>
        </node>
        <node concept="B3gsC" id="4dLMRvej$lY" role="B3gvq" />
      </node>
    </node>
  </node>
</model>

