<?xml version="1.0" encoding="UTF-8"?>
<model ref="r:365749b6-5931-4578-8032-f16237c915e0(de.ppme.ctrl.typesystem)">
  <persistence version="9" />
  <languages>
    <use id="7a5dda62-9140-4668-ab76-d5ed1746f2b2" name="jetbrains.mps.lang.typesystem" version="0" />
    <devkit ref="fbc25dd2-5da4-483a-8b19-70928e1b62d7(jetbrains.mps.devkit.general-purpose)" />
  </languages>
  <imports>
    <import index="pfd6" ref="r:9e939139-f0d1-4eb5-9ac6-55348163d9b2(de.ppme.expressions.structure)" />
    <import index="lm2c" ref="r:10261a70-d383-49ff-b567-775cda9fba27(de.ppme.ctrl.structure)" implicit="true" />
  </imports>
  <registry>
    <language id="f3061a53-9226-4cc5-a443-f952ceaf5816" name="jetbrains.mps.baseLanguage">
      <concept id="4836112446988635817" name="jetbrains.mps.baseLanguage.structure.UndefinedType" flags="in" index="2jxLKc" />
      <concept id="1197027756228" name="jetbrains.mps.baseLanguage.structure.DotExpression" flags="nn" index="2OqwBi">
        <child id="1197027771414" name="operand" index="2Oq$k0" />
        <child id="1197027833540" name="operation" index="2OqNvi" />
      </concept>
      <concept id="4972933694980447171" name="jetbrains.mps.baseLanguage.structure.BaseVariableDeclaration" flags="ng" index="19Szcq">
        <child id="5680397130376446158" name="type" index="1tU5fm" />
      </concept>
      <concept id="1068580123157" name="jetbrains.mps.baseLanguage.structure.Statement" flags="nn" index="3clFbH" />
      <concept id="1068580123136" name="jetbrains.mps.baseLanguage.structure.StatementList" flags="sn" stub="5293379017992965193" index="3clFbS">
        <child id="1068581517665" name="statement" index="3cqZAp" />
      </concept>
    </language>
    <language id="3a13115c-633c-4c5c-bbcc-75c4219e9555" name="jetbrains.mps.lang.quotation">
      <concept id="5455284157993863837" name="jetbrains.mps.lang.quotation.structure.NodeBuilder" flags="nn" index="2pJPEk">
        <child id="5455284157993863838" name="quotedNode" index="2pJPEn" />
      </concept>
      <concept id="5455284157993863840" name="jetbrains.mps.lang.quotation.structure.NodeBuilderNode" flags="nn" index="2pJPED">
        <reference id="5455284157993910961" name="concept" index="2pJxaS" />
      </concept>
    </language>
    <language id="7a5dda62-9140-4668-ab76-d5ed1746f2b2" name="jetbrains.mps.lang.typesystem">
      <concept id="1185788614172" name="jetbrains.mps.lang.typesystem.structure.NormalTypeClause" flags="ng" index="mw_s8">
        <child id="1185788644032" name="normalType" index="mwGJk" />
      </concept>
      <concept id="1185805035213" name="jetbrains.mps.lang.typesystem.structure.WhenConcreteStatement" flags="nn" index="nvevp">
        <child id="1185805047793" name="body" index="nvhr_" />
        <child id="1185805056450" name="argument" index="nvjzm" />
        <child id="1205761991995" name="argumentRepresentator" index="2X0Ygz" />
      </concept>
      <concept id="1205762105978" name="jetbrains.mps.lang.typesystem.structure.WhenConcreteVariableDeclaration" flags="ng" index="2X1qdy" />
      <concept id="1205762656241" name="jetbrains.mps.lang.typesystem.structure.WhenConcreteVariableReference" flags="nn" index="2X3wrD">
        <reference id="1205762683928" name="whenConcreteVar" index="2X3Bk0" />
      </concept>
      <concept id="1195213580585" name="jetbrains.mps.lang.typesystem.structure.AbstractCheckingRule" flags="ig" index="18hYwZ">
        <child id="1195213635060" name="body" index="18ibNy" />
      </concept>
      <concept id="1174642788531" name="jetbrains.mps.lang.typesystem.structure.ConceptReference" flags="ig" index="1YaCAy">
        <reference id="1174642800329" name="concept" index="1YaFvo" />
      </concept>
      <concept id="1174643105530" name="jetbrains.mps.lang.typesystem.structure.InferenceRule" flags="ig" index="1YbPZF" />
      <concept id="1174648085619" name="jetbrains.mps.lang.typesystem.structure.AbstractRule" flags="ng" index="1YuPPy">
        <child id="1174648101952" name="applicableNode" index="1YuTPh" />
      </concept>
      <concept id="1174650418652" name="jetbrains.mps.lang.typesystem.structure.ApplicableNodeReference" flags="nn" index="1YBJjd">
        <reference id="1174650432090" name="applicableNode" index="1YBMHb" />
      </concept>
      <concept id="1174657487114" name="jetbrains.mps.lang.typesystem.structure.TypeOfExpression" flags="nn" index="1Z2H0r">
        <child id="1174657509053" name="term" index="1Z2MuG" />
      </concept>
      <concept id="1174658326157" name="jetbrains.mps.lang.typesystem.structure.CreateEquationStatement" flags="nn" index="1Z5TYs" />
      <concept id="1174660718586" name="jetbrains.mps.lang.typesystem.structure.AbstractEquationStatement" flags="nn" index="1Zf1VF">
        <property id="1206359757216" name="checkOnly" index="3wDh2S" />
        <child id="1174660783413" name="leftExpression" index="1ZfhK$" />
        <child id="1174660783414" name="rightExpression" index="1ZfhKB" />
      </concept>
      <concept id="1174663118805" name="jetbrains.mps.lang.typesystem.structure.CreateLessThanInequationStatement" flags="nn" index="1ZobV4" />
    </language>
    <language id="7866978e-a0f0-4cc7-81bc-4d213d9375e1" name="jetbrains.mps.lang.smodel">
      <concept id="1138056143562" name="jetbrains.mps.lang.smodel.structure.SLinkAccess" flags="nn" index="3TrEf2">
        <reference id="1138056516764" name="link" index="3Tt5mk" />
      </concept>
    </language>
    <language id="ceab5195-25ea-4f22-9b92-103b95ca8c0c" name="jetbrains.mps.lang.core">
      <concept id="1169194658468" name="jetbrains.mps.lang.core.structure.INamedConcept" flags="ng" index="TrEIO">
        <property id="1169194664001" name="name" index="TrG5h" />
      </concept>
    </language>
  </registry>
  <node concept="1YbPZF" id="6r3vkxc0ttj">
    <property role="TrG5h" value="typeof_CtrlProperty" />
    <node concept="3clFbS" id="6r3vkxc0ttk" role="18ibNy">
      <node concept="nvevp" id="ON9GjniBFS" role="3cqZAp">
        <node concept="3clFbS" id="ON9GjniBFU" role="nvhr_">
          <node concept="1Z5TYs" id="ON9GjniCbm" role="3cqZAp">
            <node concept="mw_s8" id="ON9GjniCbC" role="1ZfhKB">
              <node concept="2X3wrD" id="ON9GjniCbA" role="mwGJk">
                <ref role="2X3Bk0" node="ON9GjniBFY" resolve="t" />
              </node>
            </node>
            <node concept="mw_s8" id="ON9GjniCbp" role="1ZfhK$">
              <node concept="1Z2H0r" id="ON9GjniC9_" role="mwGJk">
                <node concept="1YBJjd" id="ON9GjniCa1" role="1Z2MuG">
                  <ref role="1YBMHb" node="6r3vkxc0ttm" resolve="prop" />
                </node>
              </node>
            </node>
          </node>
        </node>
        <node concept="1Z2H0r" id="ON9GjniBH7" role="nvjzm">
          <node concept="2OqwBi" id="ON9GjniBL$" role="1Z2MuG">
            <node concept="1YBJjd" id="ON9GjniBHz" role="2Oq$k0">
              <ref role="1YBMHb" node="6r3vkxc0ttm" resolve="prop" />
            </node>
            <node concept="3TrEf2" id="ON9GjniC63" role="2OqNvi">
              <ref role="3Tt5mk" to="lm2c:5z7tqBB6u1p" />
            </node>
          </node>
        </node>
        <node concept="2X1qdy" id="ON9GjniBFY" role="2X0Ygz">
          <property role="TrG5h" value="t" />
          <node concept="2jxLKc" id="ON9GjniBFZ" role="1tU5fm" />
        </node>
      </node>
    </node>
    <node concept="1YaCAy" id="6r3vkxc0ttm" role="1YuTPh">
      <property role="TrG5h" value="prop" />
      <ref role="1YaFvo" to="lm2c:5z7tqBB6nSJ" resolve="CtrlProperty" />
    </node>
  </node>
  <node concept="1YbPZF" id="5mlvYxQWME6">
    <property role="TrG5h" value="typeof_CtrlPropertyReference" />
    <node concept="3clFbS" id="5mlvYxQWME7" role="18ibNy">
      <node concept="1Z5TYs" id="5mlvYxQWMP4" role="3cqZAp">
        <node concept="mw_s8" id="5mlvYxQWMPo" role="1ZfhKB">
          <node concept="1Z2H0r" id="5mlvYxQWMPk" role="mwGJk">
            <node concept="2OqwBi" id="5mlvYxQWMRq" role="1Z2MuG">
              <node concept="1YBJjd" id="5mlvYxQWMPD" role="2Oq$k0">
                <ref role="1YBMHb" node="5mlvYxQWME9" resolve="propRef" />
              </node>
              <node concept="3TrEf2" id="5mlvYxQWN1e" role="2OqNvi">
                <ref role="3Tt5mk" to="lm2c:5mlvYxQWMv$" />
              </node>
            </node>
          </node>
        </node>
        <node concept="mw_s8" id="5mlvYxQWMP7" role="1ZfhK$">
          <node concept="1Z2H0r" id="5mlvYxQWMJl" role="mwGJk">
            <node concept="1YBJjd" id="5mlvYxQWMJY" role="1Z2MuG">
              <ref role="1YBMHb" node="5mlvYxQWME9" resolve="propRef" />
            </node>
          </node>
        </node>
      </node>
    </node>
    <node concept="1YaCAy" id="5mlvYxQWME9" role="1YuTPh">
      <property role="TrG5h" value="propRef" />
      <ref role="1YaFvo" to="lm2c:5mlvYxQWMvz" resolve="CtrlPropertyReference" />
    </node>
  </node>
  <node concept="1YbPZF" id="2NTMEjkMnmF">
    <property role="TrG5h" value="typeof_CtrlPropertyReferenceSpecification" />
    <node concept="3clFbS" id="2NTMEjkMnmG" role="18ibNy">
      <node concept="1ZobV4" id="2NTMEjkMohc" role="3cqZAp">
        <property role="3wDh2S" value="true" />
        <node concept="mw_s8" id="2NTMEjkM$Jp" role="1ZfhKB">
          <node concept="2pJPEk" id="2NTMEjkM$Jl" role="mwGJk">
            <node concept="2pJPED" id="2NTMEjkM$J$" role="2pJPEn">
              <ref role="2pJxaS" to="pfd6:dGdbRZjYf0" resolve="StringType" />
            </node>
          </node>
        </node>
        <node concept="mw_s8" id="2NTMEjkMohm" role="1ZfhK$">
          <node concept="1Z2H0r" id="2NTMEjkMohi" role="mwGJk">
            <node concept="2OqwBi" id="2NTMEjkMqEj" role="1Z2MuG">
              <node concept="1YBJjd" id="2NTMEjkMohB" role="2Oq$k0">
                <ref role="1YBMHb" node="2NTMEjkMnmI" resolve="spec" />
              </node>
              <node concept="3TrEf2" id="2NTMEjkM$Iq" role="2OqNvi">
                <ref role="3Tt5mk" to="lm2c:2NTMEjkMnme" />
              </node>
            </node>
          </node>
        </node>
      </node>
      <node concept="3clFbH" id="2NTMEjl1tCw" role="3cqZAp" />
      <node concept="1ZobV4" id="2NTMEjl1tDL" role="3cqZAp">
        <property role="3wDh2S" value="true" />
        <node concept="mw_s8" id="2NTMEjl1ujl" role="1ZfhKB">
          <node concept="1Z2H0r" id="2NTMEjl1ujh" role="mwGJk">
            <node concept="2OqwBi" id="2NTMEjl1ukT" role="1Z2MuG">
              <node concept="1YBJjd" id="2NTMEjl1ujA" role="2Oq$k0">
                <ref role="1YBMHb" node="2NTMEjkMnmI" resolve="spec" />
              </node>
              <node concept="3TrEf2" id="2NTMEjl1utu" role="2OqNvi">
                <ref role="3Tt5mk" to="lm2c:2NTMEjkMnla" />
              </node>
            </node>
          </node>
        </node>
        <node concept="mw_s8" id="2NTMEjl1tE5" role="1ZfhK$">
          <node concept="1Z2H0r" id="2NTMEjl1tE1" role="mwGJk">
            <node concept="2OqwBi" id="2NTMEjl1u9U" role="1Z2MuG">
              <node concept="1YBJjd" id="2NTMEjl1tEm" role="2Oq$k0">
                <ref role="1YBMHb" node="2NTMEjkMnmI" resolve="spec" />
              </node>
              <node concept="3TrEf2" id="2NTMEjl1uig" role="2OqNvi">
                <ref role="3Tt5mk" to="lm2c:2NTMEjl1tAv" />
              </node>
            </node>
          </node>
        </node>
      </node>
      <node concept="1ZobV4" id="2NTMEjl1uw5" role="3cqZAp">
        <property role="3wDh2S" value="true" />
        <node concept="mw_s8" id="2NTMEjl1uw6" role="1ZfhKB">
          <node concept="1Z2H0r" id="2NTMEjl1uw7" role="mwGJk">
            <node concept="2OqwBi" id="2NTMEjl1uw8" role="1Z2MuG">
              <node concept="1YBJjd" id="2NTMEjl1uw9" role="2Oq$k0">
                <ref role="1YBMHb" node="2NTMEjkMnmI" resolve="spec" />
              </node>
              <node concept="3TrEf2" id="2NTMEjl1uwa" role="2OqNvi">
                <ref role="3Tt5mk" to="lm2c:2NTMEjkMnla" />
              </node>
            </node>
          </node>
        </node>
        <node concept="mw_s8" id="2NTMEjl1uwb" role="1ZfhK$">
          <node concept="1Z2H0r" id="2NTMEjl1uwc" role="mwGJk">
            <node concept="2OqwBi" id="2NTMEjl1uwd" role="1Z2MuG">
              <node concept="1YBJjd" id="2NTMEjl1uwe" role="2Oq$k0">
                <ref role="1YBMHb" node="2NTMEjkMnmI" resolve="spec" />
              </node>
              <node concept="3TrEf2" id="2NTMEjl1uD4" role="2OqNvi">
                <ref role="3Tt5mk" to="lm2c:2NTMEjl1tB1" />
              </node>
            </node>
          </node>
        </node>
      </node>
    </node>
    <node concept="1YaCAy" id="2NTMEjkMnmI" role="1YuTPh">
      <property role="TrG5h" value="spec" />
      <ref role="1YaFvo" to="lm2c:2NTMEjkMn3F" resolve="CtrlPropertySpecification" />
    </node>
  </node>
</model>

