<?xml version="1.0" encoding="UTF-8"?>
<model ref="r:41e24068-cf4f-4002-a288-9d3e4be66000(de.ppme.statements.editor)">
  <persistence version="9" />
  <languages>
    <use id="18bc6592-03a6-4e29-a83a-7ff23bde13ba" name="jetbrains.mps.lang.editor" version="-1" />
    <devkit ref="fbc25dd2-5da4-483a-8b19-70928e1b62d7(jetbrains.mps.devkit.general-purpose)" />
  </languages>
  <imports>
    <import index="eqcn" ref="r:84ce93e4-8a21-447c-8911-c0a4415308db(de.ppme.base.editor)" />
    <import index="pfd6" ref="r:9e939139-f0d1-4eb5-9ac6-55348163d9b2(de.ppme.expressions.structure)" />
    <import index="tpco" ref="r:00000000-0000-4000-0000-011c89590284(jetbrains.mps.lang.core.editor)" />
    <import index="c9eo" ref="r:493484be-3d66-4fd8-b261-ed47cd8c6981(de.ppme.statements.structure)" />
    <import index="tpck" ref="r:00000000-0000-4000-0000-011c89590288(jetbrains.mps.lang.core.structure)" implicit="true" />
  </imports>
  <registry>
    <language id="18bc6592-03a6-4e29-a83a-7ff23bde13ba" name="jetbrains.mps.lang.editor">
      <concept id="1071666914219" name="jetbrains.mps.lang.editor.structure.ConceptEditorDeclaration" flags="ig" index="24kQdi" />
      <concept id="1140524381322" name="jetbrains.mps.lang.editor.structure.CellModel_ListWithRole" flags="ng" index="2czfm3">
        <property id="1140524450557" name="separatorText" index="2czwfO" />
        <child id="1140524464360" name="cellLayout" index="2czzBx" />
      </concept>
      <concept id="1106270549637" name="jetbrains.mps.lang.editor.structure.CellLayout_Horizontal" flags="nn" index="2iRfu4" />
      <concept id="1237303669825" name="jetbrains.mps.lang.editor.structure.CellLayout_Indent" flags="nn" index="l2Vlx" />
      <concept id="1237307900041" name="jetbrains.mps.lang.editor.structure.IndentLayoutIndentStyleClassItem" flags="ln" index="lj46D" />
      <concept id="1237375020029" name="jetbrains.mps.lang.editor.structure.IndentLayoutNewLineChildrenStyleClassItem" flags="ln" index="pj6Ft" />
      <concept id="1142886221719" name="jetbrains.mps.lang.editor.structure.QueryFunction_NodeCondition" flags="in" index="pkWqt" />
      <concept id="1142886811589" name="jetbrains.mps.lang.editor.structure.ConceptFunctionParameter_node" flags="nn" index="pncrf" />
      <concept id="1237385578942" name="jetbrains.mps.lang.editor.structure.IndentLayoutOnNewLineStyleClassItem" flags="ln" index="pVoyu" />
      <concept id="1080736578640" name="jetbrains.mps.lang.editor.structure.BaseEditorComponent" flags="ig" index="2wURMF">
        <child id="1080736633877" name="cellModel" index="2wV5jI" />
      </concept>
      <concept id="1239814640496" name="jetbrains.mps.lang.editor.structure.CellLayout_VerticalGrid" flags="nn" index="2EHx9g" />
      <concept id="1078939183254" name="jetbrains.mps.lang.editor.structure.CellModel_Component" flags="sg" stub="3162947552742194261" index="PMmxH">
        <reference id="1078939183255" name="editorComponent" index="PMmxG" />
      </concept>
      <concept id="1214320119173" name="jetbrains.mps.lang.editor.structure.SideTransformAnchorTagStyleClassItem" flags="ln" index="2V7CMv">
        <property id="1214320119174" name="tag" index="2V7CMs" />
      </concept>
      <concept id="1186414536763" name="jetbrains.mps.lang.editor.structure.BooleanStyleSheetItem" flags="ln" index="VOi$J">
        <property id="1186414551515" name="flag" index="VOm3f" />
      </concept>
      <concept id="1186414860679" name="jetbrains.mps.lang.editor.structure.EditableStyleClassItem" flags="ln" index="VPxyj" />
      <concept id="1186414928363" name="jetbrains.mps.lang.editor.structure.SelectableStyleSheetItem" flags="ln" index="VPM3Z" />
      <concept id="1088013125922" name="jetbrains.mps.lang.editor.structure.CellModel_RefCell" flags="sg" stub="730538219795941030" index="1iCGBv">
        <child id="1088186146602" name="editorComponent" index="1sWHZn" />
      </concept>
      <concept id="1088185857835" name="jetbrains.mps.lang.editor.structure.InlineEditorComponent" flags="ig" index="1sVBvm" />
      <concept id="1139848536355" name="jetbrains.mps.lang.editor.structure.CellModel_WithRole" flags="ng" index="1$h60E">
        <property id="1139852716018" name="noTargetText" index="1$x2rV" />
        <property id="1140017977771" name="readOnly" index="1Intyy" />
        <reference id="1140103550593" name="relationDeclaration" index="1NtTu8" />
      </concept>
      <concept id="1073389214265" name="jetbrains.mps.lang.editor.structure.EditorCellModel" flags="ng" index="3EYTF0">
        <property id="1130859485024" name="attractsFocus" index="1cu_pB" />
        <child id="1198512004906" name="focusPolicyApplicable" index="cStSX" />
        <child id="1142887637401" name="renderingCondition" index="pqm2j" />
      </concept>
      <concept id="1073389446423" name="jetbrains.mps.lang.editor.structure.CellModel_Collection" flags="sn" stub="3013115976261988961" index="3EZMnI">
        <child id="1106270802874" name="cellLayout" index="2iSdaV" />
        <child id="1073389446424" name="childCellModel" index="3EZMnx" />
      </concept>
      <concept id="1073389577006" name="jetbrains.mps.lang.editor.structure.CellModel_Constant" flags="sn" stub="3610246225209162225" index="3F0ifn">
        <property id="1073389577007" name="text" index="3F0ifm" />
      </concept>
      <concept id="1073389658414" name="jetbrains.mps.lang.editor.structure.CellModel_Property" flags="sg" stub="730538219796134133" index="3F0A7n" />
      <concept id="1219418625346" name="jetbrains.mps.lang.editor.structure.IStyleContainer" flags="ng" index="3F0Thp">
        <child id="1219418656006" name="styleItem" index="3F10Kt" />
      </concept>
      <concept id="1073389882823" name="jetbrains.mps.lang.editor.structure.CellModel_RefNode" flags="sg" stub="730538219795960754" index="3F1sOY" />
      <concept id="1073390211982" name="jetbrains.mps.lang.editor.structure.CellModel_RefNodeList" flags="sg" stub="2794558372793454595" index="3F2HdR" />
      <concept id="1166049232041" name="jetbrains.mps.lang.editor.structure.AbstractComponent" flags="ng" index="1XWOmA">
        <reference id="1166049300910" name="conceptDeclaration" index="1XX52x" />
      </concept>
    </language>
    <language id="f3061a53-9226-4cc5-a443-f952ceaf5816" name="jetbrains.mps.baseLanguage">
      <concept id="1197027756228" name="jetbrains.mps.baseLanguage.structure.DotExpression" flags="nn" index="2OqwBi">
        <child id="1197027771414" name="operand" index="2Oq$k0" />
        <child id="1197027833540" name="operation" index="2OqNvi" />
      </concept>
      <concept id="1137021947720" name="jetbrains.mps.baseLanguage.structure.ConceptFunction" flags="in" index="2VMwT0">
        <child id="1137022507850" name="body" index="2VODD2" />
      </concept>
      <concept id="1068580123155" name="jetbrains.mps.baseLanguage.structure.ExpressionStatement" flags="nn" index="3clFbF">
        <child id="1068580123156" name="expression" index="3clFbG" />
      </concept>
      <concept id="1068580123136" name="jetbrains.mps.baseLanguage.structure.StatementList" flags="sn" stub="5293379017992965193" index="3clFbS">
        <child id="1068581517665" name="statement" index="3cqZAp" />
      </concept>
    </language>
    <language id="7866978e-a0f0-4cc7-81bc-4d213d9375e1" name="jetbrains.mps.lang.smodel">
      <concept id="1171999116870" name="jetbrains.mps.lang.smodel.structure.Node_IsNullOperation" flags="nn" index="3w_OXm" />
      <concept id="1172008320231" name="jetbrains.mps.lang.smodel.structure.Node_IsNotNullOperation" flags="nn" index="3x8VRR" />
      <concept id="1138056143562" name="jetbrains.mps.lang.smodel.structure.SLinkAccess" flags="nn" index="3TrEf2">
        <reference id="1138056516764" name="link" index="3Tt5mk" />
      </concept>
      <concept id="1138056282393" name="jetbrains.mps.lang.smodel.structure.SLinkListAccess" flags="nn" index="3Tsc0h">
        <reference id="1138056546658" name="link" index="3TtcxE" />
      </concept>
    </language>
    <language id="ceab5195-25ea-4f22-9b92-103b95ca8c0c" name="jetbrains.mps.lang.core">
      <concept id="1133920641626" name="jetbrains.mps.lang.core.structure.BaseConcept" flags="ng" index="2VYdi">
        <property id="1193676396447" name="virtualPackage" index="3GE5qa" />
      </concept>
    </language>
    <language id="83888646-71ce-4f1c-9c53-c54016f6ad4f" name="jetbrains.mps.baseLanguage.collections">
      <concept id="1176501494711" name="jetbrains.mps.baseLanguage.collections.structure.IsNotEmptyOperation" flags="nn" index="3GX2aA" />
    </language>
  </registry>
  <node concept="24kQdi" id="5l83jlMhgC$">
    <ref role="1XX52x" to="c9eo:5l83jlMhgCt" resolve="Statement" />
    <node concept="3F0ifn" id="5l83jlMhgCA" role="2wV5jI">
      <property role="3F0ifm" value="" />
      <node concept="VPxyj" id="5l83jlMii74" role="3F10Kt">
        <property role="VOm3f" value="true" />
      </node>
    </node>
  </node>
  <node concept="24kQdi" id="5l83jlMhgXY">
    <ref role="1XX52x" to="c9eo:5l83jlMhgFI" resolve="StatementList" />
    <node concept="3EZMnI" id="5l83jlMhgY0" role="2wV5jI">
      <node concept="3F2HdR" id="5l83jlMhgY$" role="3EZMnx">
        <ref role="1NtTu8" to="c9eo:5l83jlMhgFJ" />
        <node concept="l2Vlx" id="5l83jlMhgYB" role="2czzBx" />
        <node concept="pj6Ft" id="5l83jlMhgYI" role="3F10Kt">
          <property role="VOm3f" value="true" />
        </node>
        <node concept="pVoyu" id="5l83jlMhgYL" role="3F10Kt">
          <property role="VOm3f" value="true" />
        </node>
        <node concept="lj46D" id="5l83jlMhgYQ" role="3F10Kt">
          <property role="VOm3f" value="true" />
        </node>
      </node>
      <node concept="l2Vlx" id="5l83jlMhgY3" role="2iSdaV" />
    </node>
  </node>
  <node concept="24kQdi" id="5l83jlMhh0W">
    <ref role="1XX52x" to="c9eo:5l83jlMhh0E" resolve="ExpressionStatement" />
    <node concept="3EZMnI" id="5l83jlMhh0Y" role="2wV5jI">
      <node concept="3F1sOY" id="5l83jlMhh15" role="3EZMnx">
        <ref role="1NtTu8" to="c9eo:5l83jlMhh0F" />
      </node>
      <node concept="l2Vlx" id="5l83jlMhh11" role="2iSdaV" />
    </node>
  </node>
  <node concept="24kQdi" id="5l83jlMhLtL">
    <property role="3GE5qa" value="variables" />
    <ref role="1XX52x" to="c9eo:5l83jlMhBWg" resolve="VariableDeclaration" />
    <node concept="3EZMnI" id="6b3yt4I5nZo" role="2wV5jI">
      <node concept="2iRfu4" id="6b3yt4I5nZp" role="2iSdaV" />
      <node concept="3F1sOY" id="6fgLCPsByWF" role="3EZMnx">
        <property role="1cu_pB" value="2" />
        <ref role="1NtTu8" to="pfd6:6fgLCPsByeL" />
        <node concept="pkWqt" id="6fgLCPsBz3r" role="cStSX">
          <node concept="3clFbS" id="6fgLCPsBz3s" role="2VODD2">
            <node concept="3clFbF" id="6fgLCPsBz8p" role="3cqZAp">
              <node concept="2OqwBi" id="6fgLCPsBzOr" role="3clFbG">
                <node concept="2OqwBi" id="6fgLCPsBze3" role="2Oq$k0">
                  <node concept="pncrf" id="6fgLCPsBz8o" role="2Oq$k0" />
                  <node concept="3TrEf2" id="6fgLCPsBzwu" role="2OqNvi">
                    <ref role="3Tt5mk" to="pfd6:6fgLCPsByeL" />
                  </node>
                </node>
                <node concept="3w_OXm" id="6fgLCPsB$dZ" role="2OqNvi" />
              </node>
            </node>
          </node>
        </node>
      </node>
      <node concept="3F0A7n" id="5l83jlMhLtX" role="3EZMnx">
        <ref role="1NtTu8" to="tpck:h0TrG11" resolve="name" />
      </node>
      <node concept="3EZMnI" id="5l83jlMhLu6" role="3EZMnx">
        <node concept="VPM3Z" id="5l83jlMhLu8" role="3F10Kt">
          <property role="VOm3f" value="false" />
        </node>
        <node concept="3F0ifn" id="5l83jlMhLuo" role="3EZMnx">
          <property role="3F0ifm" value="=" />
        </node>
        <node concept="3F1sOY" id="5l83jlMhLuz" role="3EZMnx">
          <ref role="1NtTu8" to="c9eo:5l83jlMhFC2" />
        </node>
        <node concept="l2Vlx" id="5l83jlMhLub" role="2iSdaV" />
        <node concept="pkWqt" id="5l83jlMhLvN" role="pqm2j">
          <node concept="3clFbS" id="5l83jlMhLvO" role="2VODD2">
            <node concept="3clFbF" id="5l83jlMhL$M" role="3cqZAp">
              <node concept="2OqwBi" id="5l83jlMhMeJ" role="3clFbG">
                <node concept="2OqwBi" id="5l83jlMhLE1" role="2Oq$k0">
                  <node concept="pncrf" id="5l83jlMhL$L" role="2Oq$k0" />
                  <node concept="3TrEf2" id="5l83jlMhLWY" role="2OqNvi">
                    <ref role="3Tt5mk" to="c9eo:5l83jlMhFC2" />
                  </node>
                </node>
                <node concept="3x8VRR" id="5l83jlMhMsJ" role="2OqNvi" />
              </node>
            </node>
          </node>
        </node>
      </node>
    </node>
  </node>
  <node concept="24kQdi" id="5l83jlMivjn">
    <property role="3GE5qa" value="variables" />
    <ref role="1XX52x" to="c9eo:5l83jlMivi_" resolve="VariableReference" />
    <node concept="1iCGBv" id="5l83jlMivjO" role="2wV5jI">
      <ref role="1NtTu8" to="c9eo:5l83jlMivj4" />
      <node concept="1sVBvm" id="5l83jlMivjQ" role="1sWHZn">
        <node concept="3F0A7n" id="5l83jlMivk0" role="2wV5jI">
          <property role="1Intyy" value="true" />
          <ref role="1NtTu8" to="tpck:h0TrG11" resolve="name" />
        </node>
      </node>
    </node>
  </node>
  <node concept="24kQdi" id="5o9jvTMcVSj">
    <property role="3GE5qa" value="variables" />
    <ref role="1XX52x" to="c9eo:5o9jvTMcVMM" resolve="VariableDeclarationStatement" />
    <node concept="3EZMnI" id="5o9jvTMcVT_" role="2wV5jI">
      <node concept="3F1sOY" id="5o9jvTMcVTG" role="3EZMnx">
        <ref role="1NtTu8" to="c9eo:5o9jvTMcVMR" />
      </node>
      <node concept="l2Vlx" id="5o9jvTMcVTC" role="2iSdaV" />
    </node>
  </node>
  <node concept="24kQdi" id="3yJ4dri0bLg">
    <ref role="1XX52x" to="c9eo:3yJ4dri0bx9" resolve="PrintStatement" />
    <node concept="3EZMnI" id="3yJ4dri0bMy" role="2wV5jI">
      <node concept="PMmxH" id="3yJ4dri0bMD" role="3EZMnx">
        <ref role="PMmxG" to="tpco:2wZex4PafBj" resolve="alias" />
      </node>
      <node concept="l2Vlx" id="3yJ4dri0bM_" role="2iSdaV" />
      <node concept="3F2HdR" id="3yJ4dri3boH" role="3EZMnx">
        <property role="2czwfO" value="," />
        <ref role="1NtTu8" to="c9eo:3yJ4dri0bKx" />
        <node concept="l2Vlx" id="3yJ4dri3boK" role="2czzBx" />
      </node>
      <node concept="3F0ifn" id="1RtLc$XKSMA" role="3EZMnx">
        <property role="3F0ifm" value="," />
      </node>
      <node concept="3F1sOY" id="1RtLc$XKSMM" role="3EZMnx">
        <property role="1$x2rV" value="1" />
        <ref role="1NtTu8" to="c9eo:1RtLc$XKLYm" />
      </node>
    </node>
  </node>
  <node concept="24kQdi" id="3yJ4dri0Ss_">
    <ref role="1XX52x" to="c9eo:3yJ4dri0HDh" resolve="IfStatement" />
    <node concept="3EZMnI" id="3yJ4dri0StX" role="2wV5jI">
      <node concept="PMmxH" id="3yJ4dri0Sub" role="3EZMnx">
        <ref role="PMmxG" to="tpco:2wZex4PafBj" resolve="alias" />
      </node>
      <node concept="3F1sOY" id="3yJ4dri0Suf" role="3EZMnx">
        <ref role="1NtTu8" to="c9eo:3yJ4dri0HIg" />
      </node>
      <node concept="3F0ifn" id="3yJ4dri0Suk" role="3EZMnx">
        <property role="3F0ifm" value="then" />
      </node>
      <node concept="3F1sOY" id="3yJ4dri0SuX" role="3EZMnx">
        <ref role="1NtTu8" to="c9eo:3yJ4dri0Ss3" />
        <node concept="pVoyu" id="3yJ4dri0Sv6" role="3F10Kt">
          <property role="VOm3f" value="true" />
        </node>
        <node concept="lj46D" id="3yJ4dri0Sv9" role="3F10Kt">
          <property role="VOm3f" value="true" />
        </node>
        <node concept="pVoyu" id="3yJ4dri0SD_" role="3F10Kt">
          <property role="VOm3f" value="true" />
        </node>
      </node>
      <node concept="3F2HdR" id="3yJ4dri1fCx" role="3EZMnx">
        <ref role="1NtTu8" to="c9eo:3yJ4dri1fJ0" />
        <node concept="l2Vlx" id="3yJ4dri1fC$" role="2czzBx" />
        <node concept="pkWqt" id="3yJ4dri1fXx" role="pqm2j">
          <node concept="3clFbS" id="3yJ4dri1fXy" role="2VODD2">
            <node concept="3clFbF" id="3yJ4dri1g04" role="3cqZAp">
              <node concept="2OqwBi" id="3yJ4dri1hfo" role="3clFbG">
                <node concept="2OqwBi" id="3yJ4dri1g4t" role="2Oq$k0">
                  <node concept="pncrf" id="3yJ4dri1g03" role="2Oq$k0" />
                  <node concept="3Tsc0h" id="3yJ4dri1gqQ" role="2OqNvi">
                    <ref role="3TtcxE" to="c9eo:3yJ4dri1fJ0" />
                  </node>
                </node>
                <node concept="3GX2aA" id="3yJ4dri1iJe" role="2OqNvi" />
              </node>
            </node>
          </node>
        </node>
        <node concept="pVoyu" id="3yJ4dri1iR2" role="3F10Kt">
          <property role="VOm3f" value="true" />
        </node>
      </node>
      <node concept="3EZMnI" id="3yJ4dri0SDg" role="3EZMnx">
        <node concept="VPM3Z" id="3yJ4dri0SDi" role="3F10Kt">
          <property role="VOm3f" value="false" />
        </node>
        <node concept="3F0ifn" id="3yJ4dri0SDL" role="3EZMnx">
          <property role="3F0ifm" value="else" />
        </node>
        <node concept="3F1sOY" id="3yJ4dri0SDV" role="3EZMnx">
          <ref role="1NtTu8" to="c9eo:3yJ4dri0Ss0" />
          <node concept="pVoyu" id="3yJ4dri0SE1" role="3F10Kt">
            <property role="VOm3f" value="true" />
          </node>
          <node concept="lj46D" id="3yJ4dri0SE4" role="3F10Kt">
            <property role="VOm3f" value="true" />
          </node>
        </node>
        <node concept="l2Vlx" id="3yJ4dri0SDl" role="2iSdaV" />
        <node concept="pkWqt" id="3yJ4dri0SHd" role="pqm2j">
          <node concept="3clFbS" id="3yJ4dri0SHe" role="2VODD2">
            <node concept="3clFbF" id="3yJ4dri0SMb" role="3cqZAp">
              <node concept="2OqwBi" id="3yJ4dri0TIX" role="3clFbG">
                <node concept="2OqwBi" id="3yJ4dri0TeI" role="2Oq$k0">
                  <node concept="pncrf" id="3yJ4dri0Taj" role="2Oq$k0" />
                  <node concept="3TrEf2" id="3yJ4dri0TtH" role="2OqNvi">
                    <ref role="3Tt5mk" to="c9eo:3yJ4dri0Ss0" />
                  </node>
                </node>
                <node concept="3x8VRR" id="3yJ4dri0TY$" role="2OqNvi" />
              </node>
            </node>
          </node>
        </node>
      </node>
      <node concept="3F0ifn" id="3yJ4dri0Su$" role="3EZMnx">
        <property role="3F0ifm" value="end" />
        <node concept="pVoyu" id="3yJ4dri0SuM" role="3F10Kt">
          <property role="VOm3f" value="true" />
        </node>
      </node>
      <node concept="PMmxH" id="3yJ4dri0ZSl" role="3EZMnx">
        <ref role="PMmxG" to="tpco:2wZex4PafBj" resolve="alias" />
        <node concept="2V7CMv" id="3yJ4dri1Wo1" role="3F10Kt">
          <property role="2V7CMs" value="ext_1_RTransform" />
        </node>
      </node>
      <node concept="l2Vlx" id="3yJ4dri0Su0" role="2iSdaV" />
    </node>
  </node>
  <node concept="24kQdi" id="3yJ4dri1cXx">
    <ref role="1XX52x" to="c9eo:3yJ4dri1cHG" resolve="ElseIfClause" />
    <node concept="3EZMnI" id="3yJ4dri1cXz" role="2wV5jI">
      <node concept="3F0ifn" id="3yJ4dri1cXK" role="3EZMnx">
        <property role="3F0ifm" value="else if" />
      </node>
      <node concept="3F1sOY" id="3yJ4dri1cXU" role="3EZMnx">
        <ref role="1NtTu8" to="c9eo:3yJ4dri1cHH" />
      </node>
      <node concept="3F0ifn" id="3yJ4dri2TJn" role="3EZMnx">
        <property role="3F0ifm" value="then" />
      </node>
      <node concept="3F1sOY" id="3yJ4dri1cY2" role="3EZMnx">
        <ref role="1NtTu8" to="c9eo:3yJ4dri1cHJ" />
        <node concept="lj46D" id="3yJ4dri1cYa" role="3F10Kt">
          <property role="VOm3f" value="true" />
        </node>
        <node concept="pVoyu" id="3yJ4dri1cYk" role="3F10Kt">
          <property role="VOm3f" value="true" />
        </node>
      </node>
      <node concept="l2Vlx" id="3yJ4dri1cXA" role="2iSdaV" />
    </node>
  </node>
  <node concept="24kQdi" id="6JTxo0b1Z8p">
    <property role="3GE5qa" value="loops" />
    <ref role="1XX52x" to="c9eo:6JTxo0b0Q4k" resolve="ForEachStatement" />
    <node concept="3EZMnI" id="6JTxo0b1Zzs" role="2wV5jI">
      <node concept="3F0ifn" id="6JTxo0b1Zzz" role="3EZMnx">
        <property role="3F0ifm" value="foreach" />
      </node>
      <node concept="3F1sOY" id="6JTxo0b1ZzD" role="3EZMnx">
        <ref role="1NtTu8" to="c9eo:6JTxo0b1E1j" />
      </node>
      <node concept="3F0ifn" id="6JTxo0b1ZzL" role="3EZMnx">
        <property role="3F0ifm" value="in" />
      </node>
      <node concept="3F1sOY" id="6JTxo0b1ZzV" role="3EZMnx">
        <ref role="1NtTu8" to="c9eo:6JTxo0b0RKI" />
      </node>
      <node concept="3F0ifn" id="6JTxo0b375t" role="3EZMnx">
        <property role="3F0ifm" value="with" />
      </node>
      <node concept="3F2HdR" id="6JTxo0b37Y9" role="3EZMnx">
        <ref role="1NtTu8" to="c9eo:6JTxo0b37O3" />
        <node concept="2EHx9g" id="6JTxo0b3hzc" role="2czzBx" />
        <node concept="VPM3Z" id="6JTxo0b37Yd" role="3F10Kt">
          <property role="VOm3f" value="false" />
        </node>
      </node>
      <node concept="3F1sOY" id="6JTxo0b1Z$l" role="3EZMnx">
        <ref role="1NtTu8" to="c9eo:6JTxo0b1E4r" />
        <node concept="pVoyu" id="6JTxo0b1Z$t" role="3F10Kt">
          <property role="VOm3f" value="true" />
        </node>
        <node concept="lj46D" id="6JTxo0b1Z$w" role="3F10Kt">
          <property role="VOm3f" value="true" />
        </node>
        <node concept="pVoyu" id="6JTxo0b1Z$_" role="3F10Kt">
          <property role="VOm3f" value="true" />
        </node>
      </node>
      <node concept="3F0ifn" id="6JTxo0b1Z$7" role="3EZMnx">
        <property role="3F0ifm" value="end foreach" />
        <node concept="pVoyu" id="6JTxo0b1Z$G" role="3F10Kt">
          <property role="VOm3f" value="true" />
        </node>
      </node>
      <node concept="l2Vlx" id="6JTxo0b1Zzv" role="2iSdaV" />
    </node>
  </node>
  <node concept="24kQdi" id="m1E9k9kMNb">
    <property role="3GE5qa" value="variables" />
    <ref role="1XX52x" to="c9eo:3z8Mov8aLkc" resolve="LocalVariableDeclaration" />
    <node concept="3EZMnI" id="m1E9k9kMP7" role="2wV5jI">
      <node concept="3F1sOY" id="m1E9k9kMPe" role="3EZMnx">
        <ref role="1NtTu8" to="pfd6:6fgLCPsByeL" />
      </node>
      <node concept="3F0A7n" id="m1E9k9kMPk" role="3EZMnx">
        <ref role="1NtTu8" to="tpck:h0TrG11" resolve="name" />
      </node>
      <node concept="l2Vlx" id="m1E9k9kMPa" role="2iSdaV" />
    </node>
  </node>
  <node concept="24kQdi" id="hRSdiNcJno">
    <property role="3GE5qa" value="variables" />
    <ref role="1XX52x" to="c9eo:hRSdiNcI$6" resolve="LocalVariableDeclarationStatement" />
    <node concept="3EZMnI" id="hRSdiNcJLP" role="2wV5jI">
      <node concept="3F1sOY" id="hRSdiNcJLW" role="3EZMnx">
        <ref role="1NtTu8" to="c9eo:hRSdiNcINU" />
      </node>
      <node concept="l2Vlx" id="hRSdiNcJLS" role="2iSdaV" />
    </node>
  </node>
</model>

