<?xml version="1.0" encoding="UTF-8"?>
<model ref="r:75e18f65-1a4e-4e29-bb4a-4cdf1f6e56db(fieldnoyes)">
  <persistence version="9" />
  <languages>
    <use id="ad43ad83-7356-4c72-888b-881fea736282" name="de.ppme.base" version="-1" />
    <use id="63e1a497-af15-4608-bf36-c0aa0aaf901b" name="de.ppme.core" version="-1" />
    <use id="f7af8208-82a7-4aab-9829-b32680223c52" name="de.ppme.ctrl" version="-1" />
    <use id="13ff48ad-ecdb-4625-9d4a-3a16f2228549" name="de.ppme.analysis" version="-1" />
    <use id="58df54a5-af81-48d5-bb5c-9db2412768a4" name="de.ppme.expressions" version="-1" />
    <use id="7d7a484c-83ab-4a7c-b9f3-8672c02bd0f6" name="de.ppme.statements" version="-1" />
    <use id="a206eff4-e667-4146-8006-8cce4ef80954" name="de.ppme.modules" version="-1" />
  </languages>
  <imports />
  <registry>
    <language id="7d7a484c-83ab-4a7c-b9f3-8672c02bd0f6" name="de.ppme.statements">
      <concept id="6199572117285223602" name="de.ppme.statements.structure.VariableDeclarationStatement" flags="ng" index="$eJ5c">
        <child id="6199572117285223607" name="variableDeclaration" index="$eJ59" />
      </concept>
      <concept id="6145176214748918949" name="de.ppme.statements.structure.VariableReference" flags="ng" index="B0vAg">
        <reference id="6145176214748918980" name="variableDeclaration" index="B0vBL" />
      </concept>
      <concept id="6145176214748596765" name="de.ppme.statements.structure.Statement" flags="ng" index="B3gsC" />
      <concept id="6145176214748596974" name="de.ppme.statements.structure.StatementList" flags="ng" index="B3gvr">
        <child id="6145176214748596975" name="statement" index="B3gvq" />
      </concept>
      <concept id="6145176214748598314" name="de.ppme.statements.structure.ExpressionStatement" flags="ng" index="B3hOv">
        <child id="6145176214748598315" name="expression" index="B3hOu" />
      </concept>
      <concept id="6145176214748692240" name="de.ppme.statements.structure.VariableDeclaration" flags="ng" index="B3B8_" />
      <concept id="7780396616246534422" name="de.ppme.statements.structure.AbstractLoopStatement" flags="ng" index="1wZMim">
        <child id="7780396616246534427" name="body" index="1wZMir" />
      </concept>
    </language>
    <language id="a206eff4-e667-4146-8006-8cce4ef80954" name="de.ppme.modules">
      <concept id="6145176214748008889" name="de.ppme.modules.structure.Phase" flags="ng" index="Bt1Mc">
        <child id="6145176214748202931" name="body" index="BtKE6" />
      </concept>
      <concept id="8340651020914474434" name="de.ppme.modules.structure.Module" flags="ng" index="32DcKF">
        <reference id="7404899961792452988" name="cfg" index="HcygO" />
        <child id="6145176214748042437" name="listOfPhases" index="Bt9BK" />
      </concept>
    </language>
    <language id="58df54a5-af81-48d5-bb5c-9db2412768a4" name="de.ppme.expressions">
      <concept id="4476466017894647997" name="de.ppme.expressions.structure.AbstractContainerType" flags="ng" index="3E5at">
        <child id="4476466017894648000" name="componentType" index="3E5bw" />
      </concept>
      <concept id="396783600242163430" name="de.ppme.expressions.structure.IntegerLiteral" flags="ng" index="cCXpN">
        <property id="396783600242257878" name="value" index="cC$t3" />
      </concept>
      <concept id="9083317248185289090" name="de.ppme.expressions.structure.VectorLiteral" flags="ng" index="mjilF">
        <child id="9083317248185300113" name="values" index="mjhxS" />
      </concept>
      <concept id="6145176214748482670" name="de.ppme.expressions.structure.PlusExpression" flags="ng" index="B2O5r" />
      <concept id="6145176214748483203" name="de.ppme.expressions.structure.MinusExpression" flags="ng" index="B2OeQ" />
      <concept id="6145176214748513808" name="de.ppme.expressions.structure.ParenthesizedExpression" flags="ng" index="B2WG_" />
      <concept id="6145176214748154964" name="de.ppme.expressions.structure.BinaryExpression" flags="ng" index="Bt$5x">
        <child id="6145176214748155369" name="left" index="Bt$3s" />
        <child id="6145176214748155371" name="right" index="Bt$3u" />
      </concept>
      <concept id="6145176214748154974" name="de.ppme.expressions.structure.AssignmentExpression" flags="ng" index="Bt$5F" />
      <concept id="6145176214748176626" name="de.ppme.expressions.structure.UnaryExpression" flags="ng" index="BtER7">
        <child id="6145176214748176627" name="expression" index="BtER6" />
      </concept>
      <concept id="6145176214748259879" name="de.ppme.expressions.structure.DecimalLiteral" flags="ng" index="BtYGi">
        <property id="6145176214748259880" name="value" index="BtYGt" />
      </concept>
      <concept id="3234668756578971106" name="de.ppme.expressions.structure.MulExpression" flags="ng" index="2P4BvU" />
      <concept id="7192466915357234866" name="de.ppme.expressions.structure.RealType" flags="ng" index="ZjH0Z" />
      <concept id="7192466915357238192" name="de.ppme.expressions.structure.ITyped" flags="ng" index="ZjIkX">
        <child id="7192466915357238193" name="type" index="ZjIkW" />
      </concept>
      <concept id="7192466915357648203" name="de.ppme.expressions.structure.StringLiteral" flags="ng" index="Ztaf6">
        <property id="7192466915357648213" name="value" index="Ztafo" />
      </concept>
      <concept id="2547387476991160656" name="de.ppme.expressions.structure.ScientificNumberLiteral" flags="ng" index="34318T">
        <property id="2547387476991173723" name="prefix" index="3434sM" />
        <property id="2547387476991173726" name="postfix" index="3434sR" />
      </concept>
      <concept id="2547387476992279068" name="de.ppme.expressions.structure.UnaryMinuxExpression" flags="ng" index="34fm5P" />
    </language>
    <language id="ceab5195-25ea-4f22-9b92-103b95ca8c0c" name="jetbrains.mps.lang.core">
      <concept id="1169194658468" name="jetbrains.mps.lang.core.structure.INamedConcept" flags="ng" index="TrEIO">
        <property id="1169194664001" name="name" index="TrG5h" />
      </concept>
    </language>
    <language id="f7af8208-82a7-4aab-9829-b32680223c52" name="de.ppme.ctrl">
      <concept id="6166975901158549475" name="de.ppme.ctrl.structure.CtrlPropertyReference" flags="ng" index="zp_wb">
        <reference id="6166975901158549476" name="ctrlProperty" index="zp_wc" />
      </concept>
      <concept id="6397211168290209327" name="de.ppme.ctrl.structure.CtrlProperty" flags="ng" index="2ZRwI6">
        <child id="6397211168290234457" name="value" index="2ZRDnK" />
      </concept>
      <concept id="6397211168290209299" name="de.ppme.ctrl.structure.Ctrl" flags="ng" index="2ZRwIU">
        <child id="6397211168290249098" name="properties" index="2ZRmKz" />
      </concept>
    </language>
    <language id="63e1a497-af15-4608-bf36-c0aa0aaf901b" name="de.ppme.core">
      <concept id="396783600243789055" name="de.ppme.core.structure.ArrowExpression" flags="ng" index="cIIhE">
        <child id="396783600243789433" name="operand" index="cIIrG" />
        <child id="396783600243789435" name="operation" index="cIIrI" />
      </concept>
      <concept id="943869364551957516" name="de.ppme.core.structure.CreateTopologyStatement" flags="ng" index="2xpR0z">
        <child id="943869364552020805" name="boundary_condition" index="2xpBXE" />
      </concept>
      <concept id="943869364553727788" name="de.ppme.core.structure.CreateParticlesStatement" flags="ng" index="2xw7c3">
        <child id="943869364553727941" name="topology" index="2xw7fE" />
        <child id="708996761100070897" name="body" index="P$RcX" />
        <child id="708996761100070720" name="displacementBody" index="P$Rec" />
      </concept>
      <concept id="929032500828069707" name="de.ppme.core.structure.PowerExpression" flags="ng" index="CgG_C" />
      <concept id="8007716293499730002" name="de.ppme.core.structure.ParticleListType" flags="ng" index="2Z2qvo">
        <reference id="8007716293502450881" name="plist" index="2ZsMdb" />
      </concept>
      <concept id="8007716293503019137" name="de.ppme.core.structure.ParticleMemberAccess" flags="ng" index="2ZuZsb">
        <reference id="8007716293503019139" name="decl" index="2ZuZs9" />
      </concept>
      <concept id="2945754496565952264" name="de.ppme.core.structure.TimeloopStatement" flags="ng" index="1jGXcj">
        <child id="2945754496565952266" name="body" index="1jGXch" />
      </concept>
      <concept id="2945754496566322702" name="de.ppme.core.structure.ODEStatement" flags="ng" index="1jIgCl">
        <child id="2945754496566322704" name="body" index="1jIgCb" />
        <child id="2945754496566322703" name="scheme" index="1jIgCk" />
        <child id="2510626663173982552" name="plist" index="3kMS3X" />
      </concept>
      <concept id="7988859962165330229" name="de.ppme.core.structure.ParticleLoopStatment" flags="ng" index="1zUE3U">
        <child id="7988859962166182297" name="variable" index="1zBU1m" />
        <child id="7988859962165330230" name="iterable" index="1zUE3T" />
      </concept>
      <concept id="21075530760348103" name="de.ppme.core.structure.RightHandSideStatement" flags="ng" index="1$9C7i">
        <child id="21075530760348112" name="rhs" index="1$9C75" />
        <child id="21075530760348132" name="argument" index="1$9C7L" />
      </concept>
      <concept id="3248163574665581147" name="de.ppme.core.structure.HAvgMemberAccess" flags="ng" index="3_ntBk" />
      <concept id="5811480436907517931" name="de.ppme.core.structure.ParticleListMemberAccess" flags="ng" index="3_DU51">
        <reference id="5811480436907519203" name="decl" index="3_DUD9" />
      </concept>
      <concept id="6068049259195233141" name="de.ppme.core.structure.CreateNeighborListStatement" flags="ng" index="3DOnBj">
        <child id="943869364554310433" name="cutoff" index="2xIQWe" />
        <child id="6068049259195233143" name="particles" index="3DOnBh" />
      </concept>
      <concept id="6068049259194405279" name="de.ppme.core.structure.ParticleType" flags="ng" index="3DVdGT" />
      <concept id="6068049259194405276" name="de.ppme.core.structure.FieldType" flags="ng" index="3DVdGU">
        <property id="6169113666568473107" name="ndim" index="2njP8y" />
        <child id="6169113666568473109" name="dtype" index="2njP8$" />
      </concept>
    </language>
  </registry>
  <node concept="32DcKF" id="4Qsky5XgJ$O">
    <property role="TrG5h" value="FieldNoyes" />
    <ref role="HcygO" node="5z7tqBB8b1I" resolve="Ctrl-default" />
    <node concept="Bt1Mc" id="7tttnXOMaU9" role="Bt9BK">
      <property role="TrG5h" value="simulation" />
      <node concept="B3gvr" id="7tttnXOMaUa" role="BtKE6">
        <node concept="2xpR0z" id="7tttnXOMaUN" role="B3gvq">
          <property role="TrG5h" value="topo" />
          <node concept="Ztaf6" id="7tttnXOMaUO" role="2xpBXE">
            <property role="Ztafo" value="ppm_param_bcdef_periodic" />
          </node>
        </node>
        <node concept="B3gsC" id="7tttnXOMaVr" role="B3gvq" />
        <node concept="2xw7c3" id="7tttnXOMaV$" role="B3gvq">
          <property role="TrG5h" value="pl" />
          <node concept="2Z2qvo" id="7tttnXOMaV_" role="ZjIkW">
            <ref role="2ZsMdb" node="7tttnXOMaV$" resolve="pl" />
            <node concept="3DVdGT" id="7tttnXOMaVA" role="3E5bw" />
          </node>
          <node concept="B0vAg" id="7tttnXOMaWZ" role="2xw7fE">
            <ref role="B0vBL" node="7tttnXOMaUN" resolve="topo" />
          </node>
          <node concept="B3gvr" id="7tttnXOMaXt" role="P$Rec" />
          <node concept="B3gvr" id="7tttnXOME0w" role="P$RcX">
            <node concept="$eJ5c" id="7tttnXOME10" role="B3gvq">
              <node concept="B3B8_" id="7tttnXOME11" role="$eJ59">
                <property role="TrG5h" value="A" />
                <node concept="3DVdGU" id="7tttnXOME16" role="ZjIkW">
                  <property role="2njP8y" value="1" />
                  <node concept="ZjH0Z" id="7tttnXOME1y" role="2njP8$" />
                </node>
              </node>
            </node>
            <node concept="$eJ5c" id="7tttnXOME2i" role="B3gvq">
              <node concept="B3B8_" id="7tttnXOME2j" role="$eJ59">
                <property role="TrG5h" value="N" />
                <node concept="3DVdGU" id="7tttnXOME2k" role="ZjIkW">
                  <property role="2njP8y" value="1" />
                  <node concept="ZjH0Z" id="7tttnXOME2l" role="2njP8$" />
                </node>
              </node>
            </node>
            <node concept="$eJ5c" id="7tttnXOME2Q" role="B3gvq">
              <node concept="B3B8_" id="7tttnXOME2R" role="$eJ59">
                <property role="TrG5h" value="P" />
                <node concept="3DVdGU" id="7tttnXOME2S" role="ZjIkW">
                  <property role="2njP8y" value="1" />
                  <node concept="ZjH0Z" id="7tttnXOME2T" role="2njP8$" />
                </node>
              </node>
            </node>
          </node>
        </node>
        <node concept="B3gsC" id="7tttnXOME48" role="B3gvq" />
        <node concept="1zUE3U" id="7tttnXOME4R" role="B3gvq">
          <node concept="B0vAg" id="7tttnXOME5K" role="1zUE3T">
            <ref role="B0vBL" node="7tttnXOMaV$" resolve="pl" />
          </node>
          <node concept="B3B8_" id="7tttnXOME4V" role="1zBU1m">
            <property role="TrG5h" value="p" />
            <node concept="3DVdGT" id="7tttnXOME5s" role="ZjIkW" />
          </node>
          <node concept="B3gvr" id="7tttnXOME4X" role="1wZMir">
            <node concept="B3hOv" id="7tttnXOME61" role="B3gvq">
              <node concept="Bt$5F" id="7tttnXOMEa3" role="B3hOu">
                <node concept="cCXpN" id="7tttnXOMEa6" role="Bt$3u">
                  <property role="cC$t3" value="300" />
                </node>
                <node concept="cIIhE" id="7tttnXOME6j" role="Bt$3s">
                  <node concept="B0vAg" id="7tttnXOME69" role="cIIrG">
                    <ref role="B0vBL" node="7tttnXOME4V" resolve="p" />
                  </node>
                  <node concept="2ZuZsb" id="7tttnXOME7j" role="cIIrI">
                    <ref role="2ZuZs9" node="7tttnXOME11" resolve="A" />
                  </node>
                </node>
              </node>
            </node>
            <node concept="B3hOv" id="7tttnXOMEbL" role="B3gvq">
              <node concept="Bt$5F" id="7tttnXOMEbM" role="B3hOu">
                <node concept="cCXpN" id="7tttnXOMEbN" role="Bt$3u">
                  <property role="cC$t3" value="300" />
                </node>
                <node concept="cIIhE" id="7tttnXOMEbO" role="Bt$3s">
                  <node concept="B0vAg" id="7tttnXOMEbP" role="cIIrG">
                    <ref role="B0vBL" node="7tttnXOME4V" resolve="p" />
                  </node>
                  <node concept="2ZuZsb" id="7tttnXOMEfD" role="cIIrI">
                    <ref role="2ZuZs9" node="7tttnXOME2R" resolve="P" />
                  </node>
                </node>
              </node>
            </node>
            <node concept="B3hOv" id="7tttnXOMEd6" role="B3gvq">
              <node concept="Bt$5F" id="7tttnXOMEd7" role="B3hOu">
                <node concept="cCXpN" id="7tttnXOMEd8" role="Bt$3u">
                  <property role="cC$t3" value="1" />
                </node>
                <node concept="cIIhE" id="7tttnXOMEd9" role="Bt$3s">
                  <node concept="B0vAg" id="7tttnXOMEda" role="cIIrG">
                    <ref role="B0vBL" node="7tttnXOME4V" resolve="p" />
                  </node>
                  <node concept="2ZuZsb" id="7tttnXOMEjf" role="cIIrI">
                    <ref role="2ZuZs9" node="7tttnXOME2j" resolve="N" />
                  </node>
                </node>
              </node>
            </node>
          </node>
        </node>
        <node concept="B3gsC" id="7tttnXOMEoz" role="B3gvq" />
        <node concept="3DOnBj" id="7tttnXOMEq2" role="B3gvq">
          <property role="TrG5h" value="nl" />
          <node concept="B0vAg" id="7tttnXOMEr$" role="3DOnBh">
            <ref role="B0vBL" node="7tttnXOMaV$" resolve="pl" />
          </node>
          <node concept="2P4BvU" id="7tttnXOMEuz" role="2xIQWe">
            <node concept="cIIhE" id="7tttnXOMExG" role="Bt$3u">
              <node concept="B0vAg" id="7tttnXOMEvM" role="cIIrG">
                <ref role="B0vBL" node="7tttnXOMaV$" resolve="pl" />
              </node>
              <node concept="3_ntBk" id="7tttnXOMEzz" role="cIIrI" />
            </node>
            <node concept="BtYGi" id="7tttnXOMEtn" role="Bt$3s">
              <property role="BtYGt" value="4.0" />
            </node>
          </node>
        </node>
        <node concept="B3gsC" id="7tttnXOME_2" role="B3gvq" />
        <node concept="1jGXcj" id="7tttnXOMECd" role="B3gvq">
          <property role="TrG5h" value="t" />
          <node concept="B3gvr" id="7tttnXOMECf" role="1jGXch">
            <node concept="1jIgCl" id="7tttnXOMEEF" role="B3gvq">
              <node concept="Ztaf6" id="7tttnXOMEEN" role="1jIgCk">
                <property role="Ztafo" value="rk4" />
              </node>
              <node concept="B3gvr" id="7tttnXOMEEI" role="1jIgCb">
                <node concept="1$9C7i" id="7tttnXOMEVc" role="B3gvq">
                  <node concept="cIIhE" id="7tttnXOMEVd" role="1$9C7L">
                    <node concept="B0vAg" id="7tttnXOMEVq" role="cIIrG">
                      <ref role="B0vBL" node="7tttnXOMaV$" resolve="pl" />
                    </node>
                    <node concept="3_DU51" id="7tttnXOMEWw" role="cIIrI">
                      <ref role="3_DUD9" node="7tttnXOME11" resolve="A" />
                    </node>
                  </node>
                  <node concept="2P4BvU" id="7tttnXOMF8v" role="1$9C75">
                    <node concept="B2WG_" id="7tttnXOMF8y" role="Bt$3u">
                      <node concept="B2OeQ" id="7tttnXOMGIg" role="BtER6">
                        <node concept="2P4BvU" id="7tttnXOMH6v" role="Bt$3u">
                          <node concept="CgG_C" id="7tttnXOMHUm" role="Bt$3u">
                            <node concept="cIIhE" id="7tttnXOMHlx" role="Bt$3s">
                              <node concept="B0vAg" id="7tttnXOMHdF" role="cIIrG">
                                <ref role="B0vBL" node="7tttnXOMaV$" resolve="pl" />
                              </node>
                              <node concept="3_DU51" id="7tttnXOMHtl" role="cIIrI">
                                <ref role="3_DUD9" node="7tttnXOME11" resolve="A" />
                              </node>
                            </node>
                            <node concept="cCXpN" id="7tttnXOMI3z" role="Bt$3u">
                              <property role="cC$t3" value="2" />
                            </node>
                          </node>
                          <node concept="zp_wb" id="7tttnXOMGYO" role="Bt$3s">
                            <ref role="zp_wc" node="2dq8QBBmMEK" resolve="q" />
                          </node>
                        </node>
                        <node concept="B2O5r" id="7tttnXOMGeO" role="Bt$3s">
                          <node concept="B2OeQ" id="7tttnXOMFsE" role="Bt$3s">
                            <node concept="cIIhE" id="7tttnXOMFfR" role="Bt$3s">
                              <node concept="B0vAg" id="7tttnXOMFeP" role="cIIrG">
                                <ref role="B0vBL" node="7tttnXOMaV$" resolve="pl" />
                              </node>
                              <node concept="3_DU51" id="7tttnXOMFl8" role="cIIrI">
                                <ref role="3_DUD9" node="7tttnXOME2j" resolve="N" />
                              </node>
                            </node>
                            <node concept="2P4BvU" id="7tttnXOMFOw" role="Bt$3u">
                              <node concept="cIIhE" id="7tttnXOMFC5" role="Bt$3s">
                                <node concept="B0vAg" id="7tttnXOMFy8" role="cIIrG">
                                  <ref role="B0vBL" node="7tttnXOMaV$" resolve="pl" />
                                </node>
                                <node concept="3_DU51" id="7tttnXOMFHF" role="cIIrI">
                                  <ref role="3_DUD9" node="7tttnXOME2j" resolve="N" />
                                </node>
                              </node>
                              <node concept="cIIhE" id="7tttnXOMG0Y" role="Bt$3u">
                                <node concept="B0vAg" id="7tttnXOMFUj" role="cIIrG">
                                  <ref role="B0vBL" node="7tttnXOMaV$" resolve="pl" />
                                </node>
                                <node concept="3_DU51" id="7tttnXOMG6T" role="cIIrI">
                                  <ref role="3_DUD9" node="7tttnXOME11" resolve="A" />
                                </node>
                              </node>
                            </node>
                          </node>
                          <node concept="cIIhE" id="7tttnXOMGue" role="Bt$3u">
                            <node concept="B0vAg" id="7tttnXOMGmX" role="cIIrG">
                              <ref role="B0vBL" node="7tttnXOMaV$" resolve="pl" />
                            </node>
                            <node concept="3_DU51" id="7tttnXOMG_d" role="cIIrI">
                              <ref role="3_DUD9" node="7tttnXOME11" resolve="A" />
                            </node>
                          </node>
                        </node>
                      </node>
                    </node>
                    <node concept="zp_wb" id="7tttnXOMF8f" role="Bt$3s">
                      <ref role="zp_wc" node="5z7tqBB8b8S" resolve="s" />
                    </node>
                  </node>
                </node>
                <node concept="1$9C7i" id="7tttnXOMIcn" role="B3gvq">
                  <node concept="cIIhE" id="7tttnXOMIcp" role="1$9C7L">
                    <node concept="B0vAg" id="7tttnXOMIlT" role="cIIrG">
                      <ref role="B0vBL" node="7tttnXOMaV$" resolve="pl" />
                    </node>
                    <node concept="3_DU51" id="7tttnXOMImy" role="cIIrI">
                      <ref role="3_DUD9" node="7tttnXOME2j" resolve="N" />
                    </node>
                  </node>
                  <node concept="2P4BvU" id="7tttnXOMInU" role="1$9C75">
                    <node concept="B2WG_" id="7tttnXOMIEY" role="Bt$3u">
                      <node concept="34fm5P" id="7tttnXOMJBv" role="BtER6">
                        <node concept="B2O5r" id="7tttnXOMLFE" role="BtER6">
                          <node concept="2P4BvU" id="7tttnXOMM4A" role="Bt$3u">
                            <node concept="cIIhE" id="7tttnXOMMrY" role="Bt$3u">
                              <node concept="B0vAg" id="7tttnXOMMfZ" role="cIIrG">
                                <ref role="B0vBL" node="7tttnXOMaV$" resolve="pl" />
                              </node>
                              <node concept="3_DU51" id="7tttnXOMMBZ" role="cIIrI">
                                <ref role="3_DUD9" node="7tttnXOME2R" resolve="P" />
                              </node>
                            </node>
                            <node concept="zp_wb" id="7tttnXOMLSE" role="Bt$3s">
                              <ref role="zp_wc" node="2dq8QBBoLaz" resolve="f" />
                            </node>
                          </node>
                          <node concept="B2OeQ" id="7tttnXOMKhD" role="Bt$3s">
                            <node concept="cIIhE" id="7tttnXOMJVs" role="Bt$3s">
                              <node concept="B0vAg" id="7tttnXOMJLb" role="cIIrG">
                                <ref role="B0vBL" node="7tttnXOMaV$" resolve="pl" />
                              </node>
                              <node concept="3_DU51" id="7tttnXOMK5D" role="cIIrI">
                                <ref role="3_DUD9" node="7tttnXOME2j" resolve="N" />
                              </node>
                            </node>
                            <node concept="2P4BvU" id="7tttnXOMKXE" role="Bt$3u">
                              <node concept="cIIhE" id="7tttnXOMKAV" role="Bt$3s">
                                <node concept="B0vAg" id="7tttnXOMKs3" role="cIIrG">
                                  <ref role="B0vBL" node="7tttnXOMaV$" resolve="pl" />
                                </node>
                                <node concept="3_DU51" id="7tttnXOMKLt" role="cIIrI">
                                  <ref role="3_DUD9" node="7tttnXOME2j" resolve="N" />
                                </node>
                              </node>
                              <node concept="cIIhE" id="7tttnXOMLjY" role="Bt$3u">
                                <node concept="B0vAg" id="7tttnXOML8p" role="cIIrG">
                                  <ref role="B0vBL" node="7tttnXOMaV$" resolve="pl" />
                                </node>
                                <node concept="3_DU51" id="7tttnXOMLuP" role="cIIrI">
                                  <ref role="3_DUD9" node="7tttnXOME11" resolve="A" />
                                </node>
                              </node>
                            </node>
                          </node>
                        </node>
                      </node>
                    </node>
                    <node concept="CgG_C" id="7tttnXOMIof" role="Bt$3s">
                      <node concept="zp_wb" id="7tttnXOMIo5" role="Bt$3s">
                        <ref role="zp_wc" node="5z7tqBB8b8S" resolve="s" />
                      </node>
                      <node concept="cCXpN" id="7tttnXOMIxy" role="Bt$3u">
                        <property role="cC$t3" value="-1" />
                      </node>
                    </node>
                  </node>
                </node>
                <node concept="1$9C7i" id="7tttnXOMN2l" role="B3gvq">
                  <node concept="cIIhE" id="7tttnXOMN2n" role="1$9C7L">
                    <node concept="B0vAg" id="7tttnXOMNfY" role="cIIrG">
                      <ref role="B0vBL" node="7tttnXOMaV$" resolve="pl" />
                    </node>
                    <node concept="3_DU51" id="7tttnXOMNgB" role="cIIrI">
                      <ref role="3_DUD9" node="7tttnXOME2R" resolve="P" />
                    </node>
                  </node>
                  <node concept="2P4BvU" id="7tttnXOMNh$" role="1$9C75">
                    <node concept="B2WG_" id="7tttnXOMNhQ" role="Bt$3u">
                      <node concept="B2OeQ" id="7tttnXOMNJS" role="BtER6">
                        <node concept="cIIhE" id="7tttnXOMOc7" role="Bt$3u">
                          <node concept="B0vAg" id="7tttnXOMNXM" role="cIIrG">
                            <ref role="B0vBL" node="7tttnXOMaV$" resolve="pl" />
                          </node>
                          <node concept="3_DU51" id="7tttnXOMOq9" role="cIIrI">
                            <ref role="3_DUD9" node="7tttnXOME2R" resolve="P" />
                          </node>
                        </node>
                        <node concept="cIIhE" id="7tttnXOMNj9" role="Bt$3s">
                          <node concept="B0vAg" id="7tttnXOMNi7" role="cIIrG">
                            <ref role="B0vBL" node="7tttnXOMaV$" resolve="pl" />
                          </node>
                          <node concept="3_DU51" id="7tttnXOMNwQ" role="cIIrI">
                            <ref role="3_DUD9" node="7tttnXOME11" resolve="A" />
                          </node>
                        </node>
                      </node>
                    </node>
                    <node concept="zp_wb" id="7tttnXOMNhk" role="Bt$3s">
                      <ref role="zp_wc" node="5z7tqBB8b9s" resolve="w" />
                    </node>
                  </node>
                </node>
              </node>
              <node concept="B0vAg" id="7tttnXOMEGC" role="3kMS3X">
                <ref role="B0vBL" node="7tttnXOMaV$" resolve="pl" />
              </node>
            </node>
          </node>
        </node>
      </node>
    </node>
  </node>
  <node concept="2ZRwIU" id="5z7tqBB8b1I">
    <property role="TrG5h" value="Ctrl-default" />
    <node concept="2ZRwI6" id="5z7tqBB8b8S" role="2ZRmKz">
      <property role="TrG5h" value="s" />
      <node concept="BtYGi" id="5z7tqBB8b8Y" role="2ZRDnK">
        <property role="BtYGt" value="77.27" />
      </node>
    </node>
    <node concept="2ZRwI6" id="5z7tqBB8b9s" role="2ZRmKz">
      <property role="TrG5h" value="w" />
      <node concept="BtYGi" id="5z7tqBB8b9A" role="2ZRDnK">
        <property role="BtYGt" value="0.1610" />
      </node>
    </node>
    <node concept="2ZRwI6" id="2dq8QBBmMEK" role="2ZRmKz">
      <property role="TrG5h" value="q" />
      <node concept="34318T" id="7tttnXOMF2n" role="2ZRDnK">
        <property role="3434sM" value="8.375" />
        <property role="3434sR" value="-6" />
      </node>
    </node>
    <node concept="2ZRwI6" id="2dq8QBBoLaz" role="2ZRmKz">
      <property role="TrG5h" value="f" />
      <node concept="BtYGi" id="7tttnXOMF2X" role="2ZRDnK">
        <property role="BtYGt" value="1.0" />
      </node>
    </node>
    <node concept="2ZRwI6" id="ON9Gjnksgh" role="2ZRmKz">
      <property role="TrG5h" value="min_phys" />
      <node concept="mjilF" id="ON9GjnksyY" role="2ZRDnK">
        <node concept="BtYGi" id="ON9GjnksEY" role="mjhxS">
          <property role="BtYGt" value="0.0" />
        </node>
        <node concept="BtYGi" id="ON9GjnksFu" role="mjhxS">
          <property role="BtYGt" value="0.0" />
        </node>
      </node>
    </node>
    <node concept="2ZRwI6" id="ON9GjnksGD" role="2ZRmKz">
      <property role="TrG5h" value="max_phys" />
      <node concept="mjilF" id="ON9GjnksGE" role="2ZRDnK">
        <node concept="BtYGi" id="ON9GjnksGF" role="mjhxS">
          <property role="BtYGt" value="1.0" />
        </node>
        <node concept="BtYGi" id="ON9Gjnkt5s" role="mjhxS">
          <property role="BtYGt" value="1.0" />
        </node>
      </node>
    </node>
    <node concept="2ZRwI6" id="2dq8QBBqeV9" role="2ZRmKz">
      <property role="TrG5h" value="domain_decomposition" />
      <node concept="cCXpN" id="m1E9k9e$p$" role="2ZRDnK">
        <property role="cC$t3" value="7" />
      </node>
    </node>
    <node concept="2ZRwI6" id="2dq8QBBqeVL" role="2ZRmKz">
      <property role="TrG5h" value="processor_assignment" />
      <node concept="cCXpN" id="m1E9k9e$pL" role="2ZRDnK">
        <property role="cC$t3" value="1" />
      </node>
    </node>
    <node concept="2ZRwI6" id="2dq8QBBqeWt" role="2ZRmKz">
      <property role="TrG5h" value="ghost_size" />
      <node concept="BtYGi" id="2dq8QBBqeX7" role="2ZRDnK">
        <property role="BtYGt" value="0.05" />
      </node>
    </node>
    <node concept="2ZRwI6" id="2dq8QBBqeX_" role="2ZRmKz">
      <property role="TrG5h" value="Npart" />
      <node concept="cCXpN" id="m1E9k9e$pY" role="2ZRDnK">
        <property role="cC$t3" value="10000" />
      </node>
    </node>
    <node concept="2ZRwI6" id="2dq8QBBqf5A" role="2ZRmKz">
      <property role="TrG5h" value="ODEscheme" />
      <node concept="cCXpN" id="m1E9k9e$qg" role="2ZRDnK">
        <property role="cC$t3" value="4" />
      </node>
    </node>
    <node concept="2ZRwI6" id="2dq8QBBqf6u" role="2ZRmKz">
      <property role="TrG5h" value="start_time" />
      <node concept="BtYGi" id="2dq8QBBqf7k" role="2ZRDnK">
        <property role="BtYGt" value="0.0" />
      </node>
    </node>
    <node concept="2ZRwI6" id="2dq8QBBqf7M" role="2ZRmKz">
      <property role="TrG5h" value="time_step" />
      <node concept="BtYGi" id="2dq8QBBqf8G" role="2ZRDnK">
        <property role="BtYGt" value="0.1610" />
      </node>
    </node>
    <node concept="2ZRwI6" id="2dq8QBBqf8S" role="2ZRmKz">
      <property role="TrG5h" value="stop_time" />
      <node concept="BtYGi" id="2dq8QBBqf9T" role="2ZRDnK">
        <property role="BtYGt" value="2000.0" />
      </node>
    </node>
  </node>
</model>

